[2021-09-06T00:56:01.270+0530][gc,heap] Heap region size: 1M
[2021-09-06T00:56:01.279+0530][gc     ] Using G1
[2021-09-06T00:56:01.279+0530][gc,heap,coops] Heap address: 0x00000007c0000000, size: 1024 MB, Compressed Oops mode: Zero based, Oop shift amount: 3
[2021-09-06T00:56:02.672+0530][gc,start     ] GC(0) Pause Young (Concurrent Start) (Metadata GC Threshold)
[2021-09-06T00:56:02.673+0530][gc,task      ] GC(0) Using 4 workers of 4 for evacuation
[2021-09-06T00:56:02.685+0530][gc,phases    ] GC(0)   Pre Evacuate Collection Set: 0.0ms
[2021-09-06T00:56:02.685+0530][gc,phases    ] GC(0)   Evacuate Collection Set: 11.6ms
[2021-09-06T00:56:02.685+0530][gc,phases    ] GC(0)   Post Evacuate Collection Set: 0.4ms
[2021-09-06T00:56:02.685+0530][gc,phases    ] GC(0)   Other: 0.8ms
[2021-09-06T00:56:02.685+0530][gc,heap      ] GC(0) Eden regions: 42->0(44)
[2021-09-06T00:56:02.685+0530][gc,heap      ] GC(0) Survivor regions: 0->7(7)
[2021-09-06T00:56:02.685+0530][gc,heap      ] GC(0) Old regions: 0->0
[2021-09-06T00:56:02.685+0530][gc,heap      ] GC(0) Humongous regions: 0->0
[2021-09-06T00:56:02.685+0530][gc,metaspace ] GC(0) Metaspace: 20665K->20665K(1069056K)
[2021-09-06T00:56:02.685+0530][gc           ] GC(0) Pause Young (Concurrent Start) (Metadata GC Threshold) 41M->6M(1024M) 13.109ms
[2021-09-06T00:56:02.686+0530][gc,cpu       ] GC(0) User=0.03s Sys=0.01s Real=0.01s
[2021-09-06T00:56:02.686+0530][gc           ] GC(1) Concurrent Cycle
[2021-09-06T00:56:02.686+0530][gc,marking   ] GC(1) Concurrent Clear Claimed Marks
[2021-09-06T00:56:02.687+0530][gc,marking   ] GC(1) Concurrent Clear Claimed Marks 0.152ms
[2021-09-06T00:56:02.687+0530][gc,marking   ] GC(1) Concurrent Scan Root Regions
[2021-09-06T00:56:02.691+0530][gc,marking   ] GC(1) Concurrent Scan Root Regions 3.892ms
[2021-09-06T00:56:02.691+0530][gc,marking   ] GC(1) Concurrent Mark (1.430s)
[2021-09-06T00:56:02.691+0530][gc,marking   ] GC(1) Concurrent Mark From Roots
[2021-09-06T00:56:02.691+0530][gc,task      ] GC(1) Using 1 workers of 1 for marking
[2021-09-06T00:56:02.691+0530][gc,marking   ] GC(1) Concurrent Mark From Roots 0.175ms
[2021-09-06T00:56:02.691+0530][gc,marking   ] GC(1) Concurrent Preclean
[2021-09-06T00:56:02.691+0530][gc,marking   ] GC(1) Concurrent Preclean 0.028ms
[2021-09-06T00:56:02.691+0530][gc,marking   ] GC(1) Concurrent Mark (1.430s, 1.430s) 0.255ms
[2021-09-06T00:56:02.691+0530][gc,start     ] GC(1) Pause Remark
[2021-09-06T00:56:02.693+0530][gc,stringtable] GC(1) Cleaned string and symbol table, strings: 7143 processed, 0 removed, symbols: 63387 processed, 31 removed
[2021-09-06T00:56:02.693+0530][gc            ] GC(1) Pause Remark 7M->7M(1024M) 1.679ms
[2021-09-06T00:56:02.693+0530][gc,cpu        ] GC(1) User=0.00s Sys=0.00s Real=0.00s
[2021-09-06T00:56:02.693+0530][gc,marking    ] GC(1) Concurrent Rebuild Remembered Sets
[2021-09-06T00:56:02.693+0530][gc,marking    ] GC(1) Concurrent Rebuild Remembered Sets 0.064ms
[2021-09-06T00:56:02.693+0530][gc,start      ] GC(1) Pause Cleanup
[2021-09-06T00:56:02.693+0530][gc            ] GC(1) Pause Cleanup 7M->7M(1024M) 0.104ms
[2021-09-06T00:56:02.693+0530][gc,cpu        ] GC(1) User=0.00s Sys=0.00s Real=0.00s
[2021-09-06T00:56:02.693+0530][gc,marking    ] GC(1) Concurrent Cleanup for Next Mark
[2021-09-06T00:56:02.701+0530][gc,marking    ] GC(1) Concurrent Cleanup for Next Mark 8.264ms
[2021-09-06T00:56:02.702+0530][gc            ] GC(1) Concurrent Cycle 16.156ms
[2021-09-06T00:56:04.216+0530][gc,start      ] GC(2) Pause Young (Normal) (G1 Evacuation Pause)
[2021-09-06T00:56:04.216+0530][gc,task       ] GC(2) Using 4 workers of 4 for evacuation
[2021-09-06T00:56:04.258+0530][gc,mmu        ] GC(2) MMU target violated: 21.0ms (20.0ms/21.0ms)
[2021-09-06T00:56:04.258+0530][gc,phases     ] GC(2)   Pre Evacuate Collection Set: 0.1ms
[2021-09-06T00:56:04.258+0530][gc,phases     ] GC(2)   Evacuate Collection Set: 39.1ms
[2021-09-06T00:56:04.258+0530][gc,phases     ] GC(2)   Post Evacuate Collection Set: 2.4ms
[2021-09-06T00:56:04.258+0530][gc,phases     ] GC(2)   Other: 0.5ms
[2021-09-06T00:56:04.258+0530][gc,heap       ] GC(2) Eden regions: 44->0(49)
[2021-09-06T00:56:04.258+0530][gc,heap       ] GC(2) Survivor regions: 7->2(7)
[2021-09-06T00:56:04.258+0530][gc,heap       ] GC(2) Old regions: 0->7
[2021-09-06T00:56:04.258+0530][gc,heap       ] GC(2) Humongous regions: 0->0
[2021-09-06T00:56:04.258+0530][gc,metaspace  ] GC(2) Metaspace: 30368K->30368K(1077248K)
[2021-09-06T00:56:04.258+0530][gc            ] GC(2) Pause Young (Normal) (G1 Evacuation Pause) 50M->8M(1024M) 42.199ms
[2021-09-06T00:56:04.258+0530][gc,cpu        ] GC(2) User=0.03s Sys=0.00s Real=0.04s
[2021-09-06T00:56:05.961+0530][gc,start      ] GC(3) Pause Young (Concurrent Start) (Metadata GC Threshold)
[2021-09-06T00:56:05.961+0530][gc,task       ] GC(3) Using 4 workers of 4 for evacuation
[2021-09-06T00:56:05.965+0530][gc,phases     ] GC(3)   Pre Evacuate Collection Set: 0.1ms
[2021-09-06T00:56:05.965+0530][gc,phases     ] GC(3)   Evacuate Collection Set: 3.3ms
[2021-09-06T00:56:05.965+0530][gc,phases     ] GC(3)   Post Evacuate Collection Set: 0.3ms
[2021-09-06T00:56:05.965+0530][gc,phases     ] GC(3)   Other: 0.2ms
[2021-09-06T00:56:05.965+0530][gc,heap       ] GC(3) Eden regions: 26->0(47)
[2021-09-06T00:56:05.965+0530][gc,heap       ] GC(3) Survivor regions: 2->4(7)
[2021-09-06T00:56:05.965+0530][gc,heap       ] GC(3) Old regions: 7->7
[2021-09-06T00:56:05.965+0530][gc,heap       ] GC(3) Humongous regions: 129->129
[2021-09-06T00:56:05.965+0530][gc,metaspace  ] GC(3) Metaspace: 34627K->34627K(1081344K)
[2021-09-06T00:56:05.965+0530][gc            ] GC(3) Pause Young (Concurrent Start) (Metadata GC Threshold) 163M->138M(1024M) 3.895ms
[2021-09-06T00:56:05.965+0530][gc,cpu        ] GC(3) User=0.01s Sys=0.00s Real=0.00s
[2021-09-06T00:56:05.965+0530][gc            ] GC(4) Concurrent Cycle
[2021-09-06T00:56:05.965+0530][gc,marking    ] GC(4) Concurrent Clear Claimed Marks
[2021-09-06T00:56:05.965+0530][gc,marking    ] GC(4) Concurrent Clear Claimed Marks 0.059ms
[2021-09-06T00:56:05.965+0530][gc,marking    ] GC(4) Concurrent Scan Root Regions
[2021-09-06T00:56:05.968+0530][gc,marking    ] GC(4) Concurrent Scan Root Regions 3.005ms
[2021-09-06T00:56:05.968+0530][gc,marking    ] GC(4) Concurrent Mark (4.707s)
[2021-09-06T00:56:05.968+0530][gc,marking    ] GC(4) Concurrent Mark From Roots
[2021-09-06T00:56:05.968+0530][gc,task       ] GC(4) Using 1 workers of 1 for marking
[2021-09-06T00:56:05.980+0530][gc,marking    ] GC(4) Concurrent Mark From Roots 11.621ms
[2021-09-06T00:56:05.980+0530][gc,marking    ] GC(4) Concurrent Preclean
[2021-09-06T00:56:05.980+0530][gc,marking    ] GC(4) Concurrent Preclean 0.055ms
[2021-09-06T00:56:05.980+0530][gc,marking    ] GC(4) Concurrent Mark (4.707s, 4.719s) 11.722ms
[2021-09-06T00:56:05.980+0530][gc,start      ] GC(4) Pause Remark
[2021-09-06T00:56:05.983+0530][gc,stringtable] GC(4) Cleaned string and symbol table, strings: 10945 processed, 9 removed, symbols: 94580 processed, 22 removed
[2021-09-06T00:56:05.983+0530][gc            ] GC(4) Pause Remark 139M->139M(1024M) 3.543ms
[2021-09-06T00:56:05.983+0530][gc,cpu        ] GC(4) User=0.01s Sys=0.01s Real=0.00s
[2021-09-06T00:56:05.983+0530][gc,marking    ] GC(4) Concurrent Rebuild Remembered Sets
[2021-09-06T00:56:05.988+0530][gc,marking    ] GC(4) Concurrent Rebuild Remembered Sets 4.313ms
[2021-09-06T00:56:05.988+0530][gc,start      ] GC(4) Pause Cleanup
[2021-09-06T00:56:05.988+0530][gc            ] GC(4) Pause Cleanup 140M->140M(1024M) 0.074ms
[2021-09-06T00:56:05.988+0530][gc,cpu        ] GC(4) User=0.00s Sys=0.00s Real=0.00s
[2021-09-06T00:56:05.988+0530][gc,marking    ] GC(4) Concurrent Cleanup for Next Mark
[2021-09-06T00:56:05.998+0530][gc,marking    ] GC(4) Concurrent Cleanup for Next Mark 9.493ms
[2021-09-06T00:56:05.998+0530][gc            ] GC(4) Concurrent Cycle 32.704ms
[2021-09-06T00:56:07.069+0530][gc,start      ] GC(5) Pause Young (Normal) (G1 Evacuation Pause)
[2021-09-06T00:56:07.069+0530][gc,task       ] GC(5) Using 4 workers of 4 for evacuation
[2021-09-06T00:56:07.091+0530][gc,mmu        ] GC(5) MMU target violated: 21.0ms (20.0ms/21.0ms)
[2021-09-06T00:56:07.092+0530][gc,phases     ] GC(5)   Pre Evacuate Collection Set: 0.0ms
[2021-09-06T00:56:07.092+0530][gc,phases     ] GC(5)   Evacuate Collection Set: 21.0ms
[2021-09-06T00:56:07.092+0530][gc,phases     ] GC(5)   Post Evacuate Collection Set: 1.2ms
[2021-09-06T00:56:07.092+0530][gc,phases     ] GC(5)   Other: 0.4ms
[2021-09-06T00:56:07.092+0530][gc,heap       ] GC(5) Eden regions: 47->0(44)
[2021-09-06T00:56:07.092+0530][gc,heap       ] GC(5) Survivor regions: 4->7(7)
[2021-09-06T00:56:07.092+0530][gc,heap       ] GC(5) Old regions: 7->7
[2021-09-06T00:56:07.092+0530][gc,heap       ] GC(5) Humongous regions: 129->129
[2021-09-06T00:56:07.092+0530][gc,metaspace  ] GC(5) Metaspace: 43332K->43332K(1089536K)
[2021-09-06T00:56:07.092+0530][gc            ] GC(5) Pause Young (Normal) (G1 Evacuation Pause) 185M->142M(1024M) 22.643ms
[2021-09-06T00:56:07.092+0530][gc,cpu        ] GC(5) User=0.03s Sys=0.01s Real=0.03s
[2021-09-06T00:58:18.597+0530][gc,start      ] GC(6) Pause Young (Normal) (G1 Evacuation Pause)
[2021-09-06T00:58:18.597+0530][gc,task       ] GC(6) Using 4 workers of 4 for evacuation
[2021-09-06T00:58:18.670+0530][gc,mmu        ] GC(6) MMU target violated: 21.0ms (20.0ms/21.0ms)
[2021-09-06T00:58:18.671+0530][gc,phases     ] GC(6)   Pre Evacuate Collection Set: 1.1ms
[2021-09-06T00:58:18.671+0530][gc,phases     ] GC(6)   Evacuate Collection Set: 68.3ms
[2021-09-06T00:58:18.671+0530][gc,phases     ] GC(6)   Post Evacuate Collection Set: 3.3ms
[2021-09-06T00:58:18.671+0530][gc,phases     ] GC(6)   Other: 1.1ms
[2021-09-06T00:58:18.671+0530][gc,heap       ] GC(6) Eden regions: 44->0(47)
[2021-09-06T00:58:18.671+0530][gc,heap       ] GC(6) Survivor regions: 7->4(7)
[2021-09-06T00:58:18.671+0530][gc,heap       ] GC(6) Old regions: 7->14
[2021-09-06T00:58:18.671+0530][gc,heap       ] GC(6) Humongous regions: 267->129
[2021-09-06T00:58:18.671+0530][gc,metaspace  ] GC(6) Metaspace: 49504K->49504K(1093632K)
[2021-09-06T00:58:18.671+0530][gc            ] GC(6) Pause Young (Normal) (G1 Evacuation Pause) 324M->145M(1024M) 74.031ms
[2021-09-06T00:58:18.671+0530][gc,cpu        ] GC(6) User=0.05s Sys=0.09s Real=0.08s
[2021-09-06T01:01:21.110+0530][gc,start      ] GC(7) Pause Young (Normal) (G1 Evacuation Pause)
[2021-09-06T01:01:21.111+0530][gc,task       ] GC(7) Using 4 workers of 4 for evacuation
[2021-09-06T01:01:21.144+0530][gc,mmu        ] GC(7) MMU target violated: 21.0ms (20.0ms/21.0ms)
[2021-09-06T01:01:21.144+0530][gc,phases     ] GC(7)   Pre Evacuate Collection Set: 0.0ms
[2021-09-06T01:01:21.144+0530][gc,phases     ] GC(7)   Evacuate Collection Set: 28.3ms
[2021-09-06T01:01:21.144+0530][gc,phases     ] GC(7)   Post Evacuate Collection Set: 4.6ms
[2021-09-06T01:01:21.144+0530][gc,phases     ] GC(7)   Other: 0.7ms
[2021-09-06T01:01:21.144+0530][gc,heap       ] GC(7) Eden regions: 47->0(46)
[2021-09-06T01:01:21.144+0530][gc,heap       ] GC(7) Survivor regions: 4->5(7)
[2021-09-06T01:01:21.144+0530][gc,heap       ] GC(7) Old regions: 14->14
[2021-09-06T01:01:21.144+0530][gc,heap       ] GC(7) Humongous regions: 129->129
[2021-09-06T01:01:21.144+0530][gc,metaspace  ] GC(7) Metaspace: 50843K->50843K(1095680K)
[2021-09-06T01:01:21.144+0530][gc            ] GC(7) Pause Young (Normal) (G1 Evacuation Pause) 192M->146M(1024M) 33.761ms
[2021-09-06T01:01:21.144+0530][gc,cpu        ] GC(7) User=0.03s Sys=0.00s Real=0.03s
[2021-09-06T01:01:26.454+0530][gc,heap,exit  ] Heap
[2021-09-06T01:01:26.454+0530][gc,heap,exit  ]  garbage-first heap   total 1048576K, used 158524K [0x00000007c0000000, 0x0000000800000000)
[2021-09-06T01:01:26.454+0530][gc,heap,exit  ]   region size 1024K, 15 young (15360K), 5 survivors (5120K)
[2021-09-06T01:01:26.454+0530][gc,heap,exit  ]  Metaspace       used 51626K, capacity 54524K, committed 54652K, reserved 1095680K
[2021-09-06T01:01:26.454+0530][gc,heap,exit  ]   class space    used 6474K, capacity 7852K, committed 7884K, reserved 1048576K
