[2021-09-03T22:47:14.997+0530][gc,heap] Heap region size: 1M
[2021-09-03T22:47:15.005+0530][gc     ] Using G1
[2021-09-03T22:47:15.006+0530][gc,heap,coops] Heap address: 0x00000007c0000000, size: 1024 MB, Compressed Oops mode: Zero based, Oop shift amount: 3
[2021-09-03T22:47:16.016+0530][gc,start     ] GC(0) Pause Young (Concurrent Start) (Metadata GC Threshold)
[2021-09-03T22:47:16.016+0530][gc,task      ] GC(0) Using 4 workers of 4 for evacuation
[2021-09-03T22:47:16.024+0530][gc,phases    ] GC(0)   Pre Evacuate Collection Set: 0.0ms
[2021-09-03T22:47:16.024+0530][gc,phases    ] GC(0)   Evacuate Collection Set: 7.9ms
[2021-09-03T22:47:16.024+0530][gc,phases    ] GC(0)   Post Evacuate Collection Set: 0.5ms
[2021-09-03T22:47:16.024+0530][gc,phases    ] GC(0)   Other: 0.5ms
[2021-09-03T22:47:16.024+0530][gc,heap      ] GC(0) Eden regions: 42->0(44)
[2021-09-03T22:47:16.024+0530][gc,heap      ] GC(0) Survivor regions: 0->7(7)
[2021-09-03T22:47:16.024+0530][gc,heap      ] GC(0) Old regions: 0->0
[2021-09-03T22:47:16.024+0530][gc,heap      ] GC(0) Humongous regions: 0->0
[2021-09-03T22:47:16.024+0530][gc,metaspace ] GC(0) Metaspace: 20688K->20688K(1069056K)
[2021-09-03T22:47:16.025+0530][gc           ] GC(0) Pause Young (Concurrent Start) (Metadata GC Threshold) 41M->6M(1024M) 9.015ms
[2021-09-03T22:47:16.025+0530][gc,cpu       ] GC(0) User=0.02s Sys=0.00s Real=0.01s
[2021-09-03T22:47:16.025+0530][gc           ] GC(1) Concurrent Cycle
[2021-09-03T22:47:16.025+0530][gc,marking   ] GC(1) Concurrent Clear Claimed Marks
[2021-09-03T22:47:16.025+0530][gc,marking   ] GC(1) Concurrent Clear Claimed Marks 0.046ms
[2021-09-03T22:47:16.025+0530][gc,marking   ] GC(1) Concurrent Scan Root Regions
[2021-09-03T22:47:16.029+0530][gc,marking   ] GC(1) Concurrent Scan Root Regions 3.785ms
[2021-09-03T22:47:16.029+0530][gc,marking   ] GC(1) Concurrent Mark (1.041s)
[2021-09-03T22:47:16.029+0530][gc,marking   ] GC(1) Concurrent Mark From Roots
[2021-09-03T22:47:16.029+0530][gc,task      ] GC(1) Using 1 workers of 1 for marking
[2021-09-03T22:47:16.029+0530][gc,marking   ] GC(1) Concurrent Mark From Roots 0.176ms
[2021-09-03T22:47:16.029+0530][gc,marking   ] GC(1) Concurrent Preclean
[2021-09-03T22:47:16.029+0530][gc,marking   ] GC(1) Concurrent Preclean 0.027ms
[2021-09-03T22:47:16.029+0530][gc,marking   ] GC(1) Concurrent Mark (1.041s, 1.041s) 0.347ms
[2021-09-03T22:47:16.030+0530][gc,start     ] GC(1) Pause Remark
[2021-09-03T22:47:16.032+0530][gc,stringtable] GC(1) Cleaned string and symbol table, strings: 7147 processed, 0 removed, symbols: 63394 processed, 31 removed
[2021-09-03T22:47:16.032+0530][gc            ] GC(1) Pause Remark 7M->7M(1024M) 2.411ms
[2021-09-03T22:47:16.032+0530][gc,cpu        ] GC(1) User=0.01s Sys=0.00s Real=0.00s
[2021-09-03T22:47:16.032+0530][gc,marking    ] GC(1) Concurrent Rebuild Remembered Sets
[2021-09-03T22:47:16.032+0530][gc,marking    ] GC(1) Concurrent Rebuild Remembered Sets 0.062ms
[2021-09-03T22:47:16.032+0530][gc,start      ] GC(1) Pause Cleanup
[2021-09-03T22:47:16.032+0530][gc            ] GC(1) Pause Cleanup 7M->7M(1024M) 0.106ms
[2021-09-03T22:47:16.032+0530][gc,cpu        ] GC(1) User=0.00s Sys=0.00s Real=0.00s
[2021-09-03T22:47:16.032+0530][gc,marking    ] GC(1) Concurrent Cleanup for Next Mark
[2021-09-03T22:47:16.040+0530][gc,marking    ] GC(1) Concurrent Cleanup for Next Mark 7.253ms
[2021-09-03T22:47:16.040+0530][gc            ] GC(1) Concurrent Cycle 15.096ms
[2021-09-03T22:47:17.012+0530][gc,start      ] GC(2) Pause Young (Normal) (G1 Evacuation Pause)
[2021-09-03T22:47:17.012+0530][gc,task       ] GC(2) Using 4 workers of 4 for evacuation
[2021-09-03T22:47:17.025+0530][gc,phases     ] GC(2)   Pre Evacuate Collection Set: 0.0ms
[2021-09-03T22:47:17.025+0530][gc,phases     ] GC(2)   Evacuate Collection Set: 12.9ms
[2021-09-03T22:47:17.025+0530][gc,phases     ] GC(2)   Post Evacuate Collection Set: 0.4ms
[2021-09-03T22:47:17.025+0530][gc,phases     ] GC(2)   Other: 0.2ms
[2021-09-03T22:47:17.025+0530][gc,heap       ] GC(2) Eden regions: 44->0(49)
[2021-09-03T22:47:17.025+0530][gc,heap       ] GC(2) Survivor regions: 7->2(7)
[2021-09-03T22:47:17.025+0530][gc,heap       ] GC(2) Old regions: 0->7
[2021-09-03T22:47:17.025+0530][gc,heap       ] GC(2) Humongous regions: 0->0
[2021-09-03T22:47:17.025+0530][gc,metaspace  ] GC(2) Metaspace: 30383K->30383K(1077248K)
[2021-09-03T22:47:17.025+0530][gc            ] GC(2) Pause Young (Normal) (G1 Evacuation Pause) 50M->8M(1024M) 13.728ms
[2021-09-03T22:47:17.025+0530][gc,cpu        ] GC(2) User=0.03s Sys=0.00s Real=0.01s
[2021-09-03T22:47:17.671+0530][gc,start      ] GC(3) Pause Young (Concurrent Start) (Metadata GC Threshold)
[2021-09-03T22:47:17.671+0530][gc,task       ] GC(3) Using 4 workers of 4 for evacuation
[2021-09-03T22:47:17.690+0530][gc,phases     ] GC(3)   Pre Evacuate Collection Set: 0.1ms
[2021-09-03T22:47:17.690+0530][gc,phases     ] GC(3)   Evacuate Collection Set: 14.5ms
[2021-09-03T22:47:17.690+0530][gc,phases     ] GC(3)   Post Evacuate Collection Set: 4.0ms
[2021-09-03T22:47:17.690+0530][gc,phases     ] GC(3)   Other: 0.2ms
[2021-09-03T22:47:17.690+0530][gc,heap       ] GC(3) Eden regions: 25->0(47)
[2021-09-03T22:47:17.690+0530][gc,heap       ] GC(3) Survivor regions: 2->4(7)
[2021-09-03T22:47:17.690+0530][gc,heap       ] GC(3) Old regions: 7->7
[2021-09-03T22:47:17.690+0530][gc,heap       ] GC(3) Humongous regions: 129->129
[2021-09-03T22:47:17.690+0530][gc,metaspace  ] GC(3) Metaspace: 34627K->34627K(1081344K)
[2021-09-03T22:47:17.690+0530][gc            ] GC(3) Pause Young (Concurrent Start) (Metadata GC Threshold) 161M->138M(1024M) 18.944ms
[2021-09-03T22:47:17.690+0530][gc,cpu        ] GC(3) User=0.01s Sys=0.00s Real=0.02s
[2021-09-03T22:47:17.690+0530][gc            ] GC(4) Concurrent Cycle
[2021-09-03T22:47:17.690+0530][gc,marking    ] GC(4) Concurrent Clear Claimed Marks
[2021-09-03T22:47:17.690+0530][gc,marking    ] GC(4) Concurrent Clear Claimed Marks 0.053ms
[2021-09-03T22:47:17.690+0530][gc,marking    ] GC(4) Concurrent Scan Root Regions
[2021-09-03T22:47:17.695+0530][gc,marking    ] GC(4) Concurrent Scan Root Regions 5.245ms
[2021-09-03T22:47:17.696+0530][gc,marking    ] GC(4) Concurrent Mark (2.707s)
[2021-09-03T22:47:17.696+0530][gc,marking    ] GC(4) Concurrent Mark From Roots
[2021-09-03T22:47:17.696+0530][gc,task       ] GC(4) Using 1 workers of 1 for marking
[2021-09-03T22:47:17.705+0530][gc,marking    ] GC(4) Concurrent Mark From Roots 9.328ms
[2021-09-03T22:47:17.705+0530][gc,marking    ] GC(4) Concurrent Preclean
[2021-09-03T22:47:17.705+0530][gc,marking    ] GC(4) Concurrent Preclean 0.121ms
[2021-09-03T22:47:17.705+0530][gc,marking    ] GC(4) Concurrent Mark (2.707s, 2.717s) 9.579ms
[2021-09-03T22:47:17.705+0530][gc,start      ] GC(4) Pause Remark
[2021-09-03T22:47:17.710+0530][gc,stringtable] GC(4) Cleaned string and symbol table, strings: 10974 processed, 9 removed, symbols: 94739 processed, 22 removed
[2021-09-03T22:47:17.710+0530][gc            ] GC(4) Pause Remark 140M->140M(1024M) 4.568ms
[2021-09-03T22:47:17.710+0530][gc,cpu        ] GC(4) User=0.01s Sys=0.00s Real=0.01s
[2021-09-03T22:47:17.710+0530][gc,marking    ] GC(4) Concurrent Rebuild Remembered Sets
[2021-09-03T22:47:17.715+0530][gc,marking    ] GC(4) Concurrent Rebuild Remembered Sets 4.875ms
[2021-09-03T22:47:17.715+0530][gc,start      ] GC(4) Pause Cleanup
[2021-09-03T22:47:17.715+0530][gc            ] GC(4) Pause Cleanup 140M->140M(1024M) 0.107ms
[2021-09-03T22:47:17.715+0530][gc,cpu        ] GC(4) User=0.00s Sys=0.00s Real=0.00s
[2021-09-03T22:47:17.715+0530][gc,marking    ] GC(4) Concurrent Cleanup for Next Mark
[2021-09-03T22:47:17.725+0530][gc,marking    ] GC(4) Concurrent Cleanup for Next Mark 9.780ms
[2021-09-03T22:47:17.726+0530][gc            ] GC(4) Concurrent Cycle 35.615ms
[2021-09-03T22:47:18.371+0530][gc,start      ] GC(5) Pause Young (Normal) (G1 Evacuation Pause)
[2021-09-03T22:47:18.372+0530][gc,task       ] GC(5) Using 4 workers of 4 for evacuation
[2021-09-03T22:47:18.381+0530][gc,phases     ] GC(5)   Pre Evacuate Collection Set: 0.0ms
[2021-09-03T22:47:18.381+0530][gc,phases     ] GC(5)   Evacuate Collection Set: 9.2ms
[2021-09-03T22:47:18.381+0530][gc,phases     ] GC(5)   Post Evacuate Collection Set: 0.4ms
[2021-09-03T22:47:18.381+0530][gc,phases     ] GC(5)   Other: 0.5ms
[2021-09-03T22:47:18.381+0530][gc,heap       ] GC(5) Eden regions: 47->0(44)
[2021-09-03T22:47:18.381+0530][gc,heap       ] GC(5) Survivor regions: 4->7(7)
[2021-09-03T22:47:18.381+0530][gc,heap       ] GC(5) Old regions: 7->7
[2021-09-03T22:47:18.381+0530][gc,heap       ] GC(5) Humongous regions: 129->129
[2021-09-03T22:47:18.381+0530][gc,metaspace  ] GC(5) Metaspace: 42965K->42965K(1087488K)
[2021-09-03T22:47:18.382+0530][gc            ] GC(5) Pause Young (Normal) (G1 Evacuation Pause) 185M->142M(1024M) 10.221ms
[2021-09-03T22:47:18.382+0530][gc,cpu        ] GC(5) User=0.03s Sys=0.00s Real=0.01s
[2021-09-03T22:48:52.914+0530][gc,start      ] GC(6) Pause Young (Normal) (G1 Evacuation Pause)
[2021-09-03T22:48:52.915+0530][gc,task       ] GC(6) Using 4 workers of 4 for evacuation
[2021-09-03T22:48:52.954+0530][gc,mmu        ] GC(6) MMU target violated: 21.0ms (20.0ms/21.0ms)
[2021-09-03T22:48:52.954+0530][gc,phases     ] GC(6)   Pre Evacuate Collection Set: 1.4ms
[2021-09-03T22:48:52.954+0530][gc,phases     ] GC(6)   Evacuate Collection Set: 35.8ms
[2021-09-03T22:48:52.954+0530][gc,phases     ] GC(6)   Post Evacuate Collection Set: 1.2ms
[2021-09-03T22:48:52.954+0530][gc,phases     ] GC(6)   Other: 2.2ms
[2021-09-03T22:48:52.954+0530][gc,heap       ] GC(6) Eden regions: 44->0(47)
[2021-09-03T22:48:52.954+0530][gc,heap       ] GC(6) Survivor regions: 7->4(7)
[2021-09-03T22:48:52.954+0530][gc,heap       ] GC(6) Old regions: 7->14
[2021-09-03T22:48:52.954+0530][gc,heap       ] GC(6) Humongous regions: 243->129
[2021-09-03T22:48:52.954+0530][gc,metaspace  ] GC(6) Metaspace: 49740K->49740K(1093632K)
[2021-09-03T22:48:52.954+0530][gc            ] GC(6) Pause Young (Normal) (G1 Evacuation Pause) 300M->145M(1024M) 40.702ms
[2021-09-03T22:48:52.954+0530][gc,cpu        ] GC(6) User=0.05s Sys=0.08s Real=0.04s
[2021-09-03T22:53:33.675+0530][gc,start      ] GC(7) Pause Young (Normal) (G1 Evacuation Pause)
[2021-09-03T22:53:33.677+0530][gc,task       ] GC(7) Using 4 workers of 4 for evacuation
[2021-09-03T22:53:33.707+0530][gc,mmu        ] GC(7) MMU target violated: 21.0ms (20.0ms/21.0ms)
[2021-09-03T22:53:33.707+0530][gc,phases     ] GC(7)   Pre Evacuate Collection Set: 2.0ms
[2021-09-03T22:53:33.707+0530][gc,phases     ] GC(7)   Evacuate Collection Set: 26.5ms
[2021-09-03T22:53:33.707+0530][gc,phases     ] GC(7)   Post Evacuate Collection Set: 0.7ms
[2021-09-03T22:53:33.707+0530][gc,phases     ] GC(7)   Other: 2.6ms
[2021-09-03T22:53:33.707+0530][gc,heap       ] GC(7) Eden regions: 47->0(46)
[2021-09-03T22:53:33.707+0530][gc,heap       ] GC(7) Survivor regions: 4->5(7)
[2021-09-03T22:53:33.707+0530][gc,heap       ] GC(7) Old regions: 14->14
[2021-09-03T22:53:33.707+0530][gc,heap       ] GC(7) Humongous regions: 129->129
[2021-09-03T22:53:33.707+0530][gc,metaspace  ] GC(7) Metaspace: 50337K->50337K(1095680K)
[2021-09-03T22:53:33.707+0530][gc            ] GC(7) Pause Young (Normal) (G1 Evacuation Pause) 192M->146M(1024M) 31.888ms
[2021-09-03T22:53:33.707+0530][gc,cpu        ] GC(7) User=0.03s Sys=0.05s Real=0.03s
[2021-09-03T22:59:38.533+0530][gc,start      ] GC(8) Pause Young (Normal) (G1 Evacuation Pause)
[2021-09-03T22:59:38.535+0530][gc,task       ] GC(8) Using 4 workers of 4 for evacuation
[2021-09-03T22:59:38.555+0530][gc,phases     ] GC(8)   Pre Evacuate Collection Set: 1.9ms
[2021-09-03T22:59:38.555+0530][gc,phases     ] GC(8)   Evacuate Collection Set: 16.8ms
[2021-09-03T22:59:38.555+0530][gc,phases     ] GC(8)   Post Evacuate Collection Set: 0.5ms
[2021-09-03T22:59:38.555+0530][gc,phases     ] GC(8)   Other: 2.6ms
[2021-09-03T22:59:38.555+0530][gc,heap       ] GC(8) Eden regions: 46->0(48)
[2021-09-03T22:59:38.555+0530][gc,heap       ] GC(8) Survivor regions: 5->3(7)
[2021-09-03T22:59:38.555+0530][gc,heap       ] GC(8) Old regions: 14->16
[2021-09-03T22:59:38.555+0530][gc,heap       ] GC(8) Humongous regions: 129->129
[2021-09-03T22:59:38.555+0530][gc,metaspace  ] GC(8) Metaspace: 50528K->50528K(1095680K)
[2021-09-03T22:59:38.555+0530][gc            ] GC(8) Pause Young (Normal) (G1 Evacuation Pause) 192M->146M(1024M) 21.936ms
[2021-09-03T22:59:38.555+0530][gc,cpu        ] GC(8) User=0.03s Sys=0.02s Real=0.02s
[2021-09-03T23:05:41.094+0530][gc,start      ] GC(9) Pause Young (Normal) (G1 Evacuation Pause)
[2021-09-03T23:05:41.095+0530][gc,task       ] GC(9) Using 4 workers of 4 for evacuation
[2021-09-03T23:05:41.124+0530][gc,mmu        ] GC(9) MMU target violated: 21.0ms (20.0ms/21.0ms)
[2021-09-03T23:05:41.124+0530][gc,phases     ] GC(9)   Pre Evacuate Collection Set: 1.3ms
[2021-09-03T23:05:41.124+0530][gc,phases     ] GC(9)   Evacuate Collection Set: 26.7ms
[2021-09-03T23:05:41.124+0530][gc,phases     ] GC(9)   Post Evacuate Collection Set: 0.4ms
[2021-09-03T23:05:41.124+0530][gc,phases     ] GC(9)   Other: 1.5ms
[2021-09-03T23:05:41.124+0530][gc,heap       ] GC(9) Eden regions: 48->0(48)
[2021-09-03T23:05:41.124+0530][gc,heap       ] GC(9) Survivor regions: 3->3(7)
[2021-09-03T23:05:41.124+0530][gc,heap       ] GC(9) Old regions: 16->16
[2021-09-03T23:05:41.124+0530][gc,heap       ] GC(9) Humongous regions: 129->129
[2021-09-03T23:05:41.124+0530][gc,metaspace  ] GC(9) Metaspace: 50560K->50560K(1095680K)
[2021-09-03T23:05:41.124+0530][gc            ] GC(9) Pause Young (Normal) (G1 Evacuation Pause) 194M->146M(1024M) 30.001ms
[2021-09-03T23:05:41.125+0530][gc,cpu        ] GC(9) User=0.02s Sys=0.03s Real=0.03s
[2021-09-03T23:17:43.257+0530][gc,start      ] GC(10) Pause Young (Normal) (G1 Evacuation Pause)
[2021-09-03T23:17:43.258+0530][gc,task       ] GC(10) Using 4 workers of 4 for evacuation
[2021-09-03T23:17:43.283+0530][gc,mmu        ] GC(10) MMU target violated: 21.0ms (20.0ms/21.0ms)
[2021-09-03T23:17:43.283+0530][gc,phases     ] GC(10)   Pre Evacuate Collection Set: 1.6ms
[2021-09-03T23:17:43.283+0530][gc,phases     ] GC(10)   Evacuate Collection Set: 22.9ms
[2021-09-03T23:17:43.283+0530][gc,phases     ] GC(10)   Post Evacuate Collection Set: 0.3ms
[2021-09-03T23:17:43.283+0530][gc,phases     ] GC(10)   Other: 1.4ms
[2021-09-03T23:17:43.283+0530][gc,heap       ] GC(10) Eden regions: 48->0(47)
[2021-09-03T23:17:43.283+0530][gc,heap       ] GC(10) Survivor regions: 3->4(7)
[2021-09-03T23:17:43.283+0530][gc,heap       ] GC(10) Old regions: 16->16
[2021-09-03T23:17:43.283+0530][gc,heap       ] GC(10) Humongous regions: 129->129
[2021-09-03T23:17:43.283+0530][gc,metaspace  ] GC(10) Metaspace: 50621K->50621K(1095680K)
[2021-09-03T23:17:43.283+0530][gc            ] GC(10) Pause Young (Normal) (G1 Evacuation Pause) 194M->148M(1024M) 26.317ms
[2021-09-03T23:17:43.283+0530][gc,cpu        ] GC(10) User=0.02s Sys=0.06s Real=0.03s
[2021-09-03T23:23:42.878+0530][gc,start      ] GC(11) Pause Young (Normal) (G1 Evacuation Pause)
[2021-09-03T23:23:42.880+0530][gc,task       ] GC(11) Using 4 workers of 4 for evacuation
[2021-09-03T23:23:42.897+0530][gc,phases     ] GC(11)   Pre Evacuate Collection Set: 1.7ms
[2021-09-03T23:23:42.897+0530][gc,phases     ] GC(11)   Evacuate Collection Set: 14.5ms
[2021-09-03T23:23:42.897+0530][gc,phases     ] GC(11)   Post Evacuate Collection Set: 0.3ms
[2021-09-03T23:23:42.897+0530][gc,phases     ] GC(11)   Other: 2.7ms
[2021-09-03T23:23:42.897+0530][gc,heap       ] GC(11) Eden regions: 47->0(47)
[2021-09-03T23:23:42.897+0530][gc,heap       ] GC(11) Survivor regions: 4->4(7)
[2021-09-03T23:23:42.898+0530][gc,heap       ] GC(11) Old regions: 16->16
[2021-09-03T23:23:42.898+0530][gc,heap       ] GC(11) Humongous regions: 129->129
[2021-09-03T23:23:42.898+0530][gc,metaspace  ] GC(11) Metaspace: 50651K->50651K(1095680K)
[2021-09-03T23:23:42.898+0530][gc            ] GC(11) Pause Young (Normal) (G1 Evacuation Pause) 195M->148M(1024M) 19.366ms
[2021-09-03T23:23:42.898+0530][gc,cpu        ] GC(11) User=0.03s Sys=0.04s Real=0.02s
[2021-09-03T23:29:40.383+0530][gc,start      ] GC(12) Pause Young (Normal) (G1 Evacuation Pause)
[2021-09-03T23:29:40.385+0530][gc,task       ] GC(12) Using 4 workers of 4 for evacuation
[2021-09-03T23:29:40.402+0530][gc,phases     ] GC(12)   Pre Evacuate Collection Set: 1.8ms
[2021-09-03T23:29:40.402+0530][gc,phases     ] GC(12)   Evacuate Collection Set: 14.4ms
[2021-09-03T23:29:40.402+0530][gc,phases     ] GC(12)   Post Evacuate Collection Set: 0.4ms
[2021-09-03T23:29:40.402+0530][gc,phases     ] GC(12)   Other: 2.7ms
[2021-09-03T23:29:40.402+0530][gc,heap       ] GC(12) Eden regions: 47->0(47)
[2021-09-03T23:29:40.402+0530][gc,heap       ] GC(12) Survivor regions: 4->4(7)
[2021-09-03T23:29:40.402+0530][gc,heap       ] GC(12) Old regions: 16->16
[2021-09-03T23:29:40.402+0530][gc,heap       ] GC(12) Humongous regions: 129->129
[2021-09-03T23:29:40.402+0530][gc,metaspace  ] GC(12) Metaspace: 50681K->50681K(1095680K)
[2021-09-03T23:29:40.402+0530][gc            ] GC(12) Pause Young (Normal) (G1 Evacuation Pause) 195M->148M(1024M) 19.359ms
[2021-09-03T23:29:40.402+0530][gc,cpu        ] GC(12) User=0.02s Sys=0.02s Real=0.02s
[2021-09-03T23:35:37.319+0530][gc,start      ] GC(13) Pause Young (Normal) (G1 Evacuation Pause)
[2021-09-03T23:35:37.320+0530][gc,task       ] GC(13) Using 4 workers of 4 for evacuation
[2021-09-03T23:35:37.328+0530][gc,phases     ] GC(13)   Pre Evacuate Collection Set: 0.0ms
[2021-09-03T23:35:37.328+0530][gc,phases     ] GC(13)   Evacuate Collection Set: 7.7ms
[2021-09-03T23:35:37.328+0530][gc,phases     ] GC(13)   Post Evacuate Collection Set: 0.2ms
[2021-09-03T23:35:37.329+0530][gc,phases     ] GC(13)   Other: 1.7ms
[2021-09-03T23:35:37.329+0530][gc,heap       ] GC(13) Eden regions: 47->0(47)
[2021-09-03T23:35:37.329+0530][gc,heap       ] GC(13) Survivor regions: 4->4(7)
[2021-09-03T23:35:37.329+0530][gc,heap       ] GC(13) Old regions: 16->16
[2021-09-03T23:35:37.329+0530][gc,heap       ] GC(13) Humongous regions: 129->129
[2021-09-03T23:35:37.329+0530][gc,metaspace  ] GC(13) Metaspace: 50702K->50702K(1095680K)
[2021-09-03T23:35:37.329+0530][gc            ] GC(13) Pause Young (Normal) (G1 Evacuation Pause) 195M->148M(1024M) 9.848ms
[2021-09-03T23:35:37.329+0530][gc,cpu        ] GC(13) User=0.02s Sys=0.01s Real=0.01s
[2021-09-03T23:41:36.681+0530][gc,start      ] GC(14) Pause Young (Normal) (G1 Evacuation Pause)
[2021-09-03T23:41:36.683+0530][gc,task       ] GC(14) Using 4 workers of 4 for evacuation
[2021-09-03T23:41:36.704+0530][gc,mmu        ] GC(14) MMU target violated: 20.4ms (20.0ms/21.0ms)
[2021-09-03T23:41:36.704+0530][gc,phases     ] GC(14)   Pre Evacuate Collection Set: 2.3ms
[2021-09-03T23:41:36.704+0530][gc,phases     ] GC(14)   Evacuate Collection Set: 15.4ms
[2021-09-03T23:41:36.704+0530][gc,phases     ] GC(14)   Post Evacuate Collection Set: 0.8ms
[2021-09-03T23:41:36.704+0530][gc,phases     ] GC(14)   Other: 4.3ms
[2021-09-03T23:41:36.704+0530][gc,heap       ] GC(14) Eden regions: 47->0(47)
[2021-09-03T23:41:36.704+0530][gc,heap       ] GC(14) Survivor regions: 4->4(7)
[2021-09-03T23:41:36.704+0530][gc,heap       ] GC(14) Old regions: 16->16
[2021-09-03T23:41:36.704+0530][gc,heap       ] GC(14) Humongous regions: 129->129
[2021-09-03T23:41:36.704+0530][gc,metaspace  ] GC(14) Metaspace: 50728K->50728K(1095680K)
[2021-09-03T23:41:36.705+0530][gc            ] GC(14) Pause Young (Normal) (G1 Evacuation Pause) 195M->148M(1024M) 23.233ms
[2021-09-03T23:41:36.705+0530][gc,cpu        ] GC(14) User=0.02s Sys=0.03s Real=0.02s
[2021-09-03T23:47:33.265+0530][gc,start      ] GC(15) Pause Young (Normal) (G1 Evacuation Pause)
[2021-09-03T23:47:33.266+0530][gc,task       ] GC(15) Using 4 workers of 4 for evacuation
[2021-09-03T23:47:33.275+0530][gc,phases     ] GC(15)   Pre Evacuate Collection Set: 0.0ms
[2021-09-03T23:47:33.275+0530][gc,phases     ] GC(15)   Evacuate Collection Set: 8.6ms
[2021-09-03T23:47:33.275+0530][gc,phases     ] GC(15)   Post Evacuate Collection Set: 0.2ms
[2021-09-03T23:47:33.275+0530][gc,phases     ] GC(15)   Other: 1.8ms
[2021-09-03T23:47:33.275+0530][gc,heap       ] GC(15) Eden regions: 47->0(48)
[2021-09-03T23:47:33.275+0530][gc,heap       ] GC(15) Survivor regions: 4->4(7)
[2021-09-03T23:47:33.275+0530][gc,heap       ] GC(15) Old regions: 16->17
[2021-09-03T23:47:33.275+0530][gc,heap       ] GC(15) Humongous regions: 129->129
[2021-09-03T23:47:33.275+0530][gc,metaspace  ] GC(15) Metaspace: 50741K->50741K(1095680K)
[2021-09-03T23:47:33.275+0530][gc            ] GC(15) Pause Young (Normal) (G1 Evacuation Pause) 195M->148M(1024M) 10.773ms
[2021-09-03T23:47:33.275+0530][gc,cpu        ] GC(15) User=0.01s Sys=0.01s Real=0.01s
[2021-09-03T23:53:39.090+0530][gc,start      ] GC(16) Pause Young (Normal) (G1 Evacuation Pause)
[2021-09-03T23:53:39.092+0530][gc,task       ] GC(16) Using 4 workers of 4 for evacuation
[2021-09-03T23:53:39.101+0530][gc,phases     ] GC(16)   Pre Evacuate Collection Set: 0.0ms
[2021-09-03T23:53:39.101+0530][gc,phases     ] GC(16)   Evacuate Collection Set: 8.7ms
[2021-09-03T23:53:39.101+0530][gc,phases     ] GC(16)   Post Evacuate Collection Set: 0.3ms
[2021-09-03T23:53:39.101+0530][gc,phases     ] GC(16)   Other: 1.8ms
[2021-09-03T23:53:39.101+0530][gc,heap       ] GC(16) Eden regions: 48->0(53)
[2021-09-03T23:53:39.101+0530][gc,heap       ] GC(16) Survivor regions: 4->4(7)
[2021-09-03T23:53:39.101+0530][gc,heap       ] GC(16) Old regions: 17->17
[2021-09-03T23:53:39.101+0530][gc,heap       ] GC(16) Humongous regions: 129->129
[2021-09-03T23:53:39.101+0530][gc,metaspace  ] GC(16) Metaspace: 50765K->50765K(1095680K)
[2021-09-03T23:53:39.101+0530][gc            ] GC(16) Pause Young (Normal) (G1 Evacuation Pause) 196M->148M(1024M) 10.950ms
[2021-09-03T23:53:39.101+0530][gc,cpu        ] GC(16) User=0.02s Sys=0.00s Real=0.01s
[2021-09-03T23:59:59.418+0530][gc,start      ] GC(17) Pause Young (Normal) (G1 Evacuation Pause)
[2021-09-03T23:59:59.420+0530][gc,task       ] GC(17) Using 4 workers of 4 for evacuation
[2021-09-03T23:59:59.437+0530][gc,phases     ] GC(17)   Pre Evacuate Collection Set: 1.5ms
[2021-09-03T23:59:59.437+0530][gc,phases     ] GC(17)   Evacuate Collection Set: 14.6ms
[2021-09-03T23:59:59.437+0530][gc,phases     ] GC(17)   Post Evacuate Collection Set: 0.3ms
[2021-09-03T23:59:59.437+0530][gc,phases     ] GC(17)   Other: 2.7ms
[2021-09-03T23:59:59.437+0530][gc,heap       ] GC(17) Eden regions: 53->0(55)
[2021-09-03T23:59:59.437+0530][gc,heap       ] GC(17) Survivor regions: 4->5(8)
[2021-09-03T23:59:59.437+0530][gc,heap       ] GC(17) Old regions: 17->17
[2021-09-03T23:59:59.437+0530][gc,heap       ] GC(17) Humongous regions: 129->129
[2021-09-03T23:59:59.437+0530][gc,metaspace  ] GC(17) Metaspace: 50836K->50836K(1095680K)
[2021-09-03T23:59:59.437+0530][gc            ] GC(17) Pause Young (Normal) (G1 Evacuation Pause) 201M->149M(1024M) 19.153ms
[2021-09-03T23:59:59.437+0530][gc,cpu        ] GC(17) User=0.02s Sys=0.02s Real=0.02s
[2021-09-04T00:07:01.322+0530][gc,start      ] GC(18) Pause Young (Normal) (G1 Evacuation Pause)
[2021-09-04T00:07:01.325+0530][gc,task       ] GC(18) Using 4 workers of 4 for evacuation
[2021-09-04T00:07:01.345+0530][gc,mmu        ] GC(18) MMU target violated: 20.7ms (20.0ms/21.0ms)
[2021-09-04T00:07:01.346+0530][gc,phases     ] GC(18)   Pre Evacuate Collection Set: 1.7ms
[2021-09-04T00:07:01.346+0530][gc,phases     ] GC(18)   Evacuate Collection Set: 18.3ms
[2021-09-04T00:07:01.346+0530][gc,phases     ] GC(18)   Post Evacuate Collection Set: 0.3ms
[2021-09-04T00:07:01.346+0530][gc,phases     ] GC(18)   Other: 2.8ms
[2021-09-04T00:07:01.346+0530][gc,heap       ] GC(18) Eden regions: 55->0(59)
[2021-09-04T00:07:01.346+0530][gc,heap       ] GC(18) Survivor regions: 5->5(8)
[2021-09-04T00:07:01.346+0530][gc,heap       ] GC(18) Old regions: 17->17
[2021-09-04T00:07:01.346+0530][gc,heap       ] GC(18) Humongous regions: 129->129
[2021-09-04T00:07:01.346+0530][gc,metaspace  ] GC(18) Metaspace: 50842K->50842K(1095680K)
[2021-09-04T00:07:01.346+0530][gc            ] GC(18) Pause Young (Normal) (G1 Evacuation Pause) 204M->150M(1024M) 23.200ms
[2021-09-04T00:07:01.346+0530][gc,cpu        ] GC(18) User=0.02s Sys=0.04s Real=0.02s
[2021-09-04T00:14:30.899+0530][gc,start      ] GC(19) Pause Young (Normal) (G1 Evacuation Pause)
[2021-09-04T00:14:30.901+0530][gc,task       ] GC(19) Using 4 workers of 4 for evacuation
[2021-09-04T00:14:30.917+0530][gc,phases     ] GC(19)   Pre Evacuate Collection Set: 1.8ms
[2021-09-04T00:14:30.918+0530][gc,phases     ] GC(19)   Evacuate Collection Set: 13.5ms
[2021-09-04T00:14:30.918+0530][gc,phases     ] GC(19)   Post Evacuate Collection Set: 0.4ms
[2021-09-04T00:14:30.918+0530][gc,phases     ] GC(19)   Other: 2.9ms
[2021-09-04T00:14:30.918+0530][gc,heap       ] GC(19) Eden regions: 59->0(65)
[2021-09-04T00:14:30.918+0530][gc,heap       ] GC(19) Survivor regions: 5->4(8)
[2021-09-04T00:14:30.918+0530][gc,heap       ] GC(19) Old regions: 17->18
[2021-09-04T00:14:30.918+0530][gc,heap       ] GC(19) Humongous regions: 129->129
[2021-09-04T00:14:30.918+0530][gc,metaspace  ] GC(19) Metaspace: 50850K->50850K(1095680K)
[2021-09-04T00:14:30.918+0530][gc            ] GC(19) Pause Young (Normal) (G1 Evacuation Pause) 209M->149M(1024M) 18.670ms
[2021-09-04T00:14:30.918+0530][gc,cpu        ] GC(19) User=0.02s Sys=0.02s Real=0.02s
[2021-09-04T00:22:51.095+0530][gc,start      ] GC(20) Pause Young (Normal) (G1 Evacuation Pause)
[2021-09-04T00:22:51.097+0530][gc,task       ] GC(20) Using 4 workers of 4 for evacuation
[2021-09-04T00:22:51.137+0530][gc,mmu        ] GC(20) MMU target violated: 21.0ms (20.0ms/21.0ms)
[2021-09-04T00:22:51.137+0530][gc,phases     ] GC(20)   Pre Evacuate Collection Set: 1.8ms
[2021-09-04T00:22:51.137+0530][gc,phases     ] GC(20)   Evacuate Collection Set: 37.2ms
[2021-09-04T00:22:51.137+0530][gc,phases     ] GC(20)   Post Evacuate Collection Set: 0.6ms
[2021-09-04T00:22:51.137+0530][gc,phases     ] GC(20)   Other: 2.6ms
[2021-09-04T00:22:51.137+0530][gc,heap       ] GC(20) Eden regions: 65->0(46)
[2021-09-04T00:22:51.137+0530][gc,heap       ] GC(20) Survivor regions: 4->5(9)
[2021-09-04T00:22:51.137+0530][gc,heap       ] GC(20) Old regions: 18->18
[2021-09-04T00:22:51.137+0530][gc,heap       ] GC(20) Humongous regions: 129->129
[2021-09-04T00:22:51.137+0530][gc,metaspace  ] GC(20) Metaspace: 50855K->50855K(1095680K)
[2021-09-04T00:22:51.137+0530][gc            ] GC(20) Pause Young (Normal) (G1 Evacuation Pause) 214M->150M(1024M) 42.254ms
[2021-09-04T00:22:51.137+0530][gc,cpu        ] GC(20) User=0.03s Sys=0.06s Real=0.04s
[2021-09-04T00:28:43.262+0530][gc,start      ] GC(21) Pause Young (Normal) (G1 Evacuation Pause)
[2021-09-04T00:28:43.263+0530][gc,task       ] GC(21) Using 4 workers of 4 for evacuation
[2021-09-04T00:28:43.281+0530][gc,phases     ] GC(21)   Pre Evacuate Collection Set: 1.2ms
[2021-09-04T00:28:43.281+0530][gc,phases     ] GC(21)   Evacuate Collection Set: 15.3ms
[2021-09-04T00:28:43.281+0530][gc,phases     ] GC(21)   Post Evacuate Collection Set: 0.3ms
[2021-09-04T00:28:43.281+0530][gc,phases     ] GC(21)   Other: 1.4ms
[2021-09-04T00:28:43.281+0530][gc,heap       ] GC(21) Eden regions: 46->0(47)
[2021-09-04T00:28:43.281+0530][gc,heap       ] GC(21) Survivor regions: 5->4(7)
[2021-09-04T00:28:43.281+0530][gc,heap       ] GC(21) Old regions: 18->19
[2021-09-04T00:28:43.281+0530][gc,heap       ] GC(21) Humongous regions: 129->129
[2021-09-04T00:28:43.281+0530][gc,metaspace  ] GC(21) Metaspace: 50885K->50885K(1095680K)
[2021-09-04T00:28:43.281+0530][gc            ] GC(21) Pause Young (Normal) (G1 Evacuation Pause) 196M->150M(1024M) 18.403ms
[2021-09-04T00:28:43.281+0530][gc,cpu        ] GC(21) User=0.02s Sys=0.02s Real=0.02s
[2021-09-04T00:34:43.449+0530][gc,start      ] GC(22) Pause Young (Normal) (G1 Evacuation Pause)
[2021-09-04T00:34:43.449+0530][gc,task       ] GC(22) Using 4 workers of 4 for evacuation
[2021-09-04T00:34:43.466+0530][gc,phases     ] GC(22)   Pre Evacuate Collection Set: 1.0ms
[2021-09-04T00:34:43.466+0530][gc,phases     ] GC(22)   Evacuate Collection Set: 14.7ms
[2021-09-04T00:34:43.466+0530][gc,phases     ] GC(22)   Post Evacuate Collection Set: 0.3ms
[2021-09-04T00:34:43.466+0530][gc,phases     ] GC(22)   Other: 2.7ms
[2021-09-04T00:34:43.466+0530][gc,heap       ] GC(22) Eden regions: 47->0(60)
[2021-09-04T00:34:43.466+0530][gc,heap       ] GC(22) Survivor regions: 4->4(7)
[2021-09-04T00:34:43.466+0530][gc,heap       ] GC(22) Old regions: 19->19
[2021-09-04T00:34:43.466+0530][gc,heap       ] GC(22) Humongous regions: 129->129
[2021-09-04T00:34:43.466+0530][gc,metaspace  ] GC(22) Metaspace: 50908K->50908K(1095680K)
[2021-09-04T00:34:43.466+0530][gc            ] GC(22) Pause Young (Normal) (G1 Evacuation Pause) 197M->150M(1024M) 17.152ms
[2021-09-04T00:34:43.466+0530][gc,cpu        ] GC(22) User=0.02s Sys=0.03s Real=0.02s
[2021-09-04T00:44:08.267+0530][gc,start      ] GC(23) Pause Young (Normal) (G1 Evacuation Pause)
[2021-09-04T00:44:08.269+0530][gc,task       ] GC(23) Using 4 workers of 4 for evacuation
[2021-09-04T00:44:08.299+0530][gc,mmu        ] GC(23) MMU target violated: 21.0ms (20.0ms/21.0ms)
[2021-09-04T00:44:08.300+0530][gc,phases     ] GC(23)   Pre Evacuate Collection Set: 1.7ms
[2021-09-04T00:44:08.300+0530][gc,phases     ] GC(23)   Evacuate Collection Set: 27.4ms
[2021-09-04T00:44:08.300+0530][gc,phases     ] GC(23)   Post Evacuate Collection Set: 0.6ms
[2021-09-04T00:44:08.300+0530][gc,phases     ] GC(23)   Other: 3.4ms
[2021-09-04T00:44:08.300+0530][gc,heap       ] GC(23) Eden regions: 60->0(48)
[2021-09-04T00:44:08.300+0530][gc,heap       ] GC(23) Survivor regions: 4->3(8)
[2021-09-04T00:44:08.300+0530][gc,heap       ] GC(23) Old regions: 19->19
[2021-09-04T00:44:08.300+0530][gc,heap       ] GC(23) Humongous regions: 129->129
[2021-09-04T00:44:08.300+0530][gc,metaspace  ] GC(23) Metaspace: 50954K->50954K(1095680K)
[2021-09-04T00:44:08.300+0530][gc            ] GC(23) Pause Young (Normal) (G1 Evacuation Pause) 210M->149M(1024M) 33.643ms
[2021-09-04T00:44:08.300+0530][gc,cpu        ] GC(23) User=0.03s Sys=0.03s Real=0.04s
[2021-09-04T00:51:59.112+0530][gc,start      ] GC(24) Pause Young (Normal) (G1 Evacuation Pause)
[2021-09-04T00:51:59.113+0530][gc,task       ] GC(24) Using 4 workers of 4 for evacuation
[2021-09-04T00:51:59.129+0530][gc,phases     ] GC(24)   Pre Evacuate Collection Set: 1.1ms
[2021-09-04T00:51:59.129+0530][gc,phases     ] GC(24)   Evacuate Collection Set: 13.7ms
[2021-09-04T00:51:59.129+0530][gc,phases     ] GC(24)   Post Evacuate Collection Set: 0.4ms
[2021-09-04T00:51:59.129+0530][gc,phases     ] GC(24)   Other: 1.1ms
[2021-09-04T00:51:59.129+0530][gc,heap       ] GC(24) Eden regions: 48->0(47)
[2021-09-04T00:51:59.129+0530][gc,heap       ] GC(24) Survivor regions: 3->4(7)
[2021-09-04T00:51:59.129+0530][gc,heap       ] GC(24) Old regions: 19->19
[2021-09-04T00:51:59.129+0530][gc,heap       ] GC(24) Humongous regions: 129->129
[2021-09-04T00:51:59.129+0530][gc,metaspace  ] GC(24) Metaspace: 50963K->50963K(1095680K)
[2021-09-04T00:51:59.129+0530][gc            ] GC(24) Pause Young (Normal) (G1 Evacuation Pause) 197M->150M(1024M) 16.317ms
[2021-09-04T00:51:59.129+0530][gc,cpu        ] GC(24) User=0.02s Sys=0.03s Real=0.01s
[2021-09-04T00:59:11.339+0530][gc,start      ] GC(25) Pause Young (Normal) (G1 Evacuation Pause)
[2021-09-04T00:59:11.340+0530][gc,task       ] GC(25) Using 4 workers of 4 for evacuation
[2021-09-04T00:59:11.355+0530][gc,phases     ] GC(25)   Pre Evacuate Collection Set: 1.1ms
[2021-09-04T00:59:11.355+0530][gc,phases     ] GC(25)   Evacuate Collection Set: 13.0ms
[2021-09-04T00:59:11.355+0530][gc,phases     ] GC(25)   Post Evacuate Collection Set: 1.0ms
[2021-09-04T00:59:11.355+0530][gc,phases     ] GC(25)   Other: 1.3ms
[2021-09-04T00:59:11.355+0530][gc,heap       ] GC(25) Eden regions: 47->0(55)
[2021-09-04T00:59:11.355+0530][gc,heap       ] GC(25) Survivor regions: 4->3(7)
[2021-09-04T00:59:11.355+0530][gc,heap       ] GC(25) Old regions: 19->19
[2021-09-04T00:59:11.355+0530][gc,heap       ] GC(25) Humongous regions: 129->129
[2021-09-04T00:59:11.355+0530][gc,metaspace  ] GC(25) Metaspace: 50981K->50981K(1095680K)
[2021-09-04T00:59:11.355+0530][gc            ] GC(25) Pause Young (Normal) (G1 Evacuation Pause) 197M->150M(1024M) 16.702ms
[2021-09-04T00:59:11.355+0530][gc,cpu        ] GC(25) User=0.02s Sys=0.02s Real=0.02s
[2021-09-04T10:37:08.186+0530][gc,start      ] GC(26) Pause Young (Normal) (G1 Evacuation Pause)
[2021-09-04T10:37:08.188+0530][gc,task       ] GC(26) Using 4 workers of 4 for evacuation
[2021-09-04T10:37:08.219+0530][gc,mmu        ] GC(26) MMU target violated: 21.0ms (20.0ms/21.0ms)
[2021-09-04T10:37:08.219+0530][gc,phases     ] GC(26)   Pre Evacuate Collection Set: 3.9ms
[2021-09-04T10:37:08.219+0530][gc,phases     ] GC(26)   Evacuate Collection Set: 24.9ms
[2021-09-04T10:37:08.219+0530][gc,phases     ] GC(26)   Post Evacuate Collection Set: 0.3ms
[2021-09-04T10:37:08.219+0530][gc,phases     ] GC(26)   Other: 4.7ms
[2021-09-04T10:37:08.219+0530][gc,heap       ] GC(26) Eden regions: 54->0(48)
[2021-09-04T10:37:08.219+0530][gc,heap       ] GC(26) Survivor regions: 3->3(8)
[2021-09-04T10:37:08.219+0530][gc,heap       ] GC(26) Old regions: 19->19
[2021-09-04T10:37:08.219+0530][gc,heap       ] GC(26) Humongous regions: 129->129
[2021-09-04T10:37:08.219+0530][gc,metaspace  ] GC(26) Metaspace: 51134K->51134K(1095680K)
[2021-09-04T10:37:08.220+0530][gc            ] GC(26) Pause Young (Normal) (G1 Evacuation Pause) 204M->150M(1024M) 34.292ms
[2021-09-04T10:37:08.220+0530][gc,cpu        ] GC(26) User=0.03s Sys=0.05s Real=0.04s
[2021-09-04T10:37:36.863+0530][gc,heap,exit  ] Heap
[2021-09-04T10:37:36.863+0530][gc,heap,exit  ]  garbage-first heap   total 1048576K, used 167079K [0x00000007c0000000, 0x0000000800000000)
[2021-09-04T10:37:36.863+0530][gc,heap,exit  ]   region size 1024K, 17 young (17408K), 3 survivors (3072K)
[2021-09-04T10:37:36.863+0530][gc,heap,exit  ]  Metaspace       used 51992K, capacity 54995K, committed 55164K, reserved 1095680K
[2021-09-04T10:37:36.863+0530][gc,heap,exit  ]   class space    used 6583K, capacity 8022K, committed 8140K, reserved 1048576K
