[2021-09-03T00:29:38.343+0530][gc,heap] Heap region size: 1M
[2021-09-03T00:29:38.352+0530][gc     ] Using G1
[2021-09-03T00:29:38.352+0530][gc,heap,coops] Heap address: 0x00000007c0000000, size: 1024 MB, Compressed Oops mode: Zero based, Oop shift amount: 3
[2021-09-03T00:29:39.557+0530][gc,start     ] GC(0) Pause Young (Concurrent Start) (Metadata GC Threshold)
[2021-09-03T00:29:39.557+0530][gc,task      ] GC(0) Using 4 workers of 4 for evacuation
[2021-09-03T00:29:39.568+0530][gc,phases    ] GC(0)   Pre Evacuate Collection Set: 0.0ms
[2021-09-03T00:29:39.568+0530][gc,phases    ] GC(0)   Evacuate Collection Set: 10.5ms
[2021-09-03T00:29:39.568+0530][gc,phases    ] GC(0)   Post Evacuate Collection Set: 0.4ms
[2021-09-03T00:29:39.568+0530][gc,phases    ] GC(0)   Other: 0.6ms
[2021-09-03T00:29:39.568+0530][gc,heap      ] GC(0) Eden regions: 42->0(44)
[2021-09-03T00:29:39.568+0530][gc,heap      ] GC(0) Survivor regions: 0->7(7)
[2021-09-03T00:29:39.568+0530][gc,heap      ] GC(0) Old regions: 0->0
[2021-09-03T00:29:39.568+0530][gc,heap      ] GC(0) Humongous regions: 0->0
[2021-09-03T00:29:39.568+0530][gc,metaspace ] GC(0) Metaspace: 20644K->20644K(1069056K)
[2021-09-03T00:29:39.568+0530][gc           ] GC(0) Pause Young (Concurrent Start) (Metadata GC Threshold) 41M->6M(1024M) 11.632ms
[2021-09-03T00:29:39.568+0530][gc,cpu       ] GC(0) User=0.01s Sys=0.01s Real=0.01s
[2021-09-03T00:29:39.568+0530][gc           ] GC(1) Concurrent Cycle
[2021-09-03T00:29:39.569+0530][gc,marking   ] GC(1) Concurrent Clear Claimed Marks
[2021-09-03T00:29:39.569+0530][gc,marking   ] GC(1) Concurrent Clear Claimed Marks 0.037ms
[2021-09-03T00:29:39.569+0530][gc,marking   ] GC(1) Concurrent Scan Root Regions
[2021-09-03T00:29:39.573+0530][gc,marking   ] GC(1) Concurrent Scan Root Regions 4.042ms
[2021-09-03T00:29:39.573+0530][gc,marking   ] GC(1) Concurrent Mark (1.236s)
[2021-09-03T00:29:39.573+0530][gc,marking   ] GC(1) Concurrent Mark From Roots
[2021-09-03T00:29:39.573+0530][gc,task      ] GC(1) Using 1 workers of 1 for marking
[2021-09-03T00:29:39.573+0530][gc,marking   ] GC(1) Concurrent Mark From Roots 0.357ms
[2021-09-03T00:29:39.573+0530][gc,marking   ] GC(1) Concurrent Preclean
[2021-09-03T00:29:39.573+0530][gc,marking   ] GC(1) Concurrent Preclean 0.050ms
[2021-09-03T00:29:39.573+0530][gc,marking   ] GC(1) Concurrent Mark (1.236s, 1.237s) 0.520ms
[2021-09-03T00:29:39.575+0530][gc,start     ] GC(1) Pause Remark
[2021-09-03T00:29:39.577+0530][gc,stringtable] GC(1) Cleaned string and symbol table, strings: 7145 processed, 0 removed, symbols: 63394 processed, 31 removed
[2021-09-03T00:29:39.577+0530][gc            ] GC(1) Pause Remark 7M->7M(1024M) 2.529ms
[2021-09-03T00:29:39.577+0530][gc,cpu        ] GC(1) User=0.01s Sys=0.00s Real=0.00s
[2021-09-03T00:29:39.577+0530][gc,marking    ] GC(1) Concurrent Rebuild Remembered Sets
[2021-09-03T00:29:39.577+0530][gc,marking    ] GC(1) Concurrent Rebuild Remembered Sets 0.054ms
[2021-09-03T00:29:39.577+0530][gc,start      ] GC(1) Pause Cleanup
[2021-09-03T00:29:39.577+0530][gc            ] GC(1) Pause Cleanup 7M->7M(1024M) 0.066ms
[2021-09-03T00:29:39.577+0530][gc,cpu        ] GC(1) User=0.00s Sys=0.00s Real=0.00s
[2021-09-03T00:29:39.577+0530][gc,marking    ] GC(1) Concurrent Cleanup for Next Mark
[2021-09-03T00:29:39.588+0530][gc,marking    ] GC(1) Concurrent Cleanup for Next Mark 10.301ms
[2021-09-03T00:29:39.588+0530][gc            ] GC(1) Concurrent Cycle 19.246ms
[2021-09-03T00:29:40.651+0530][gc,start      ] GC(2) Pause Young (Normal) (G1 Evacuation Pause)
[2021-09-03T00:29:40.651+0530][gc,task       ] GC(2) Using 4 workers of 4 for evacuation
[2021-09-03T00:29:40.678+0530][gc,mmu        ] GC(2) MMU target violated: 21.0ms (20.0ms/21.0ms)
[2021-09-03T00:29:40.678+0530][gc,phases     ] GC(2)   Pre Evacuate Collection Set: 0.0ms
[2021-09-03T00:29:40.678+0530][gc,phases     ] GC(2)   Evacuate Collection Set: 25.9ms
[2021-09-03T00:29:40.678+0530][gc,phases     ] GC(2)   Post Evacuate Collection Set: 0.7ms
[2021-09-03T00:29:40.678+0530][gc,phases     ] GC(2)   Other: 0.2ms
[2021-09-03T00:29:40.678+0530][gc,heap       ] GC(2) Eden regions: 44->0(49)
[2021-09-03T00:29:40.678+0530][gc,heap       ] GC(2) Survivor regions: 7->2(7)
[2021-09-03T00:29:40.678+0530][gc,heap       ] GC(2) Old regions: 0->7
[2021-09-03T00:29:40.678+0530][gc,heap       ] GC(2) Humongous regions: 0->0
[2021-09-03T00:29:40.678+0530][gc,metaspace  ] GC(2) Metaspace: 30306K->30306K(1077248K)
[2021-09-03T00:29:40.678+0530][gc            ] GC(2) Pause Young (Normal) (G1 Evacuation Pause) 50M->8M(1024M) 27.047ms
[2021-09-03T00:29:40.678+0530][gc,cpu        ] GC(2) User=0.04s Sys=0.01s Real=0.02s
[2021-09-03T00:29:41.503+0530][gc,start      ] GC(3) Pause Young (Concurrent Start) (Metadata GC Threshold)
[2021-09-03T00:29:41.503+0530][gc,task       ] GC(3) Using 4 workers of 4 for evacuation
[2021-09-03T00:29:41.507+0530][gc,phases     ] GC(3)   Pre Evacuate Collection Set: 0.1ms
[2021-09-03T00:29:41.507+0530][gc,phases     ] GC(3)   Evacuate Collection Set: 3.0ms
[2021-09-03T00:29:41.507+0530][gc,phases     ] GC(3)   Post Evacuate Collection Set: 0.2ms
[2021-09-03T00:29:41.507+0530][gc,phases     ] GC(3)   Other: 0.2ms
[2021-09-03T00:29:41.507+0530][gc,heap       ] GC(3) Eden regions: 25->0(47)
[2021-09-03T00:29:41.507+0530][gc,heap       ] GC(3) Survivor regions: 2->4(7)
[2021-09-03T00:29:41.507+0530][gc,heap       ] GC(3) Old regions: 7->7
[2021-09-03T00:29:41.507+0530][gc,heap       ] GC(3) Humongous regions: 129->129
[2021-09-03T00:29:41.507+0530][gc,metaspace  ] GC(3) Metaspace: 34556K->34556K(1081344K)
[2021-09-03T00:29:41.507+0530][gc            ] GC(3) Pause Young (Concurrent Start) (Metadata GC Threshold) 161M->138M(1024M) 3.575ms
[2021-09-03T00:29:41.507+0530][gc,cpu        ] GC(3) User=0.01s Sys=0.00s Real=0.00s
[2021-09-03T00:29:41.507+0530][gc            ] GC(4) Concurrent Cycle
[2021-09-03T00:29:41.507+0530][gc,marking    ] GC(4) Concurrent Clear Claimed Marks
[2021-09-03T00:29:41.507+0530][gc,marking    ] GC(4) Concurrent Clear Claimed Marks 0.048ms
[2021-09-03T00:29:41.507+0530][gc,marking    ] GC(4) Concurrent Scan Root Regions
[2021-09-03T00:29:41.510+0530][gc,marking    ] GC(4) Concurrent Scan Root Regions 2.773ms
[2021-09-03T00:29:41.510+0530][gc,marking    ] GC(4) Concurrent Mark (3.173s)
[2021-09-03T00:29:41.510+0530][gc,marking    ] GC(4) Concurrent Mark From Roots
[2021-09-03T00:29:41.510+0530][gc,task       ] GC(4) Using 1 workers of 1 for marking
[2021-09-03T00:29:41.519+0530][gc,marking    ] GC(4) Concurrent Mark From Roots 9.687ms
[2021-09-03T00:29:41.519+0530][gc,marking    ] GC(4) Concurrent Preclean
[2021-09-03T00:29:41.519+0530][gc,marking    ] GC(4) Concurrent Preclean 0.046ms
[2021-09-03T00:29:41.519+0530][gc,marking    ] GC(4) Concurrent Mark (3.173s, 3.183s) 9.778ms
[2021-09-03T00:29:41.520+0530][gc,start      ] GC(4) Pause Remark
[2021-09-03T00:29:41.523+0530][gc,stringtable] GC(4) Cleaned string and symbol table, strings: 10956 processed, 9 removed, symbols: 94764 processed, 22 removed
[2021-09-03T00:29:41.523+0530][gc            ] GC(4) Pause Remark 140M->140M(1024M) 2.843ms
[2021-09-03T00:29:41.523+0530][gc,cpu        ] GC(4) User=0.00s Sys=0.00s Real=0.00s
[2021-09-03T00:29:41.523+0530][gc,marking    ] GC(4) Concurrent Rebuild Remembered Sets
[2021-09-03T00:29:41.528+0530][gc,marking    ] GC(4) Concurrent Rebuild Remembered Sets 5.584ms
[2021-09-03T00:29:41.528+0530][gc,start      ] GC(4) Pause Cleanup
[2021-09-03T00:29:41.529+0530][gc            ] GC(4) Pause Cleanup 140M->140M(1024M) 0.089ms
[2021-09-03T00:29:41.529+0530][gc,cpu        ] GC(4) User=0.00s Sys=0.00s Real=0.00s
[2021-09-03T00:29:41.531+0530][gc,marking    ] GC(4) Concurrent Cleanup for Next Mark
[2021-09-03T00:29:41.553+0530][gc,marking    ] GC(4) Concurrent Cleanup for Next Mark 24.705ms
[2021-09-03T00:29:41.553+0530][gc            ] GC(4) Concurrent Cycle 46.491ms
[2021-09-03T00:29:42.308+0530][gc,start      ] GC(5) Pause Young (Normal) (G1 Evacuation Pause)
[2021-09-03T00:29:42.308+0530][gc,task       ] GC(5) Using 4 workers of 4 for evacuation
[2021-09-03T00:29:42.316+0530][gc,phases     ] GC(5)   Pre Evacuate Collection Set: 0.0ms
[2021-09-03T00:29:42.316+0530][gc,phases     ] GC(5)   Evacuate Collection Set: 7.8ms
[2021-09-03T00:29:42.316+0530][gc,phases     ] GC(5)   Post Evacuate Collection Set: 0.7ms
[2021-09-03T00:29:42.316+0530][gc,phases     ] GC(5)   Other: 0.2ms
[2021-09-03T00:29:42.316+0530][gc,heap       ] GC(5) Eden regions: 47->0(44)
[2021-09-03T00:29:42.316+0530][gc,heap       ] GC(5) Survivor regions: 4->7(7)
[2021-09-03T00:29:42.316+0530][gc,heap       ] GC(5) Old regions: 7->7
[2021-09-03T00:29:42.316+0530][gc,heap       ] GC(5) Humongous regions: 129->129
[2021-09-03T00:29:42.316+0530][gc,metaspace  ] GC(5) Metaspace: 43389K->43389K(1089536K)
[2021-09-03T00:29:42.316+0530][gc            ] GC(5) Pause Young (Normal) (G1 Evacuation Pause) 185M->142M(1024M) 8.736ms
[2021-09-03T00:29:42.316+0530][gc,cpu        ] GC(5) User=0.03s Sys=0.01s Real=0.01s
[2021-09-03T00:33:26.460+0530][gc,start      ] GC(6) Pause Young (Normal) (G1 Evacuation Pause)
[2021-09-03T00:33:26.462+0530][gc,task       ] GC(6) Using 4 workers of 4 for evacuation
[2021-09-03T00:33:26.533+0530][gc,mmu        ] GC(6) MMU target violated: 21.0ms (20.0ms/21.0ms)
[2021-09-03T00:33:26.533+0530][gc,phases     ] GC(6)   Pre Evacuate Collection Set: 1.3ms
[2021-09-03T00:33:26.533+0530][gc,phases     ] GC(6)   Evacuate Collection Set: 68.6ms
[2021-09-03T00:33:26.533+0530][gc,phases     ] GC(6)   Post Evacuate Collection Set: 1.3ms
[2021-09-03T00:33:26.533+0530][gc,phases     ] GC(6)   Other: 2.5ms
[2021-09-03T00:33:26.533+0530][gc,heap       ] GC(6) Eden regions: 44->0(47)
[2021-09-03T00:33:26.533+0530][gc,heap       ] GC(6) Survivor regions: 7->4(7)
[2021-09-03T00:33:26.533+0530][gc,heap       ] GC(6) Old regions: 7->14
[2021-09-03T00:33:26.533+0530][gc,heap       ] GC(6) Humongous regions: 207->129
[2021-09-03T00:33:26.534+0530][gc,metaspace  ] GC(6) Metaspace: 49489K->49489K(1093632K)
[2021-09-03T00:33:26.534+0530][gc            ] GC(6) Pause Young (Normal) (G1 Evacuation Pause) 264M->145M(1024M) 73.747ms
[2021-09-03T00:33:26.534+0530][gc,cpu        ] GC(6) User=0.05s Sys=0.11s Real=0.07s
[2021-09-03T00:46:26.069+0530][gc,start      ] GC(7) Pause Young (Normal) (G1 Evacuation Pause)
[2021-09-03T00:46:26.069+0530][gc,task       ] GC(7) Using 4 workers of 4 for evacuation
[2021-09-03T00:46:26.098+0530][gc,mmu        ] GC(7) MMU target violated: 21.0ms (20.0ms/21.0ms)
[2021-09-03T00:46:26.098+0530][gc,phases     ] GC(7)   Pre Evacuate Collection Set: 1.3ms
[2021-09-03T00:46:26.098+0530][gc,phases     ] GC(7)   Evacuate Collection Set: 27.1ms
[2021-09-03T00:46:26.099+0530][gc,phases     ] GC(7)   Post Evacuate Collection Set: 0.5ms
[2021-09-03T00:46:26.099+0530][gc,phases     ] GC(7)   Other: 0.8ms
[2021-09-03T00:46:26.099+0530][gc,heap       ] GC(7) Eden regions: 47->0(46)
[2021-09-03T00:46:26.099+0530][gc,heap       ] GC(7) Survivor regions: 4->5(7)
[2021-09-03T00:46:26.099+0530][gc,heap       ] GC(7) Old regions: 14->14
[2021-09-03T00:46:26.099+0530][gc,heap       ] GC(7) Humongous regions: 129->129
[2021-09-03T00:46:26.099+0530][gc,metaspace  ] GC(7) Metaspace: 50365K->50365K(1095680K)
[2021-09-03T00:46:26.099+0530][gc            ] GC(7) Pause Young (Normal) (G1 Evacuation Pause) 192M->147M(1024M) 29.811ms
[2021-09-03T00:46:26.099+0530][gc,cpu        ] GC(7) User=0.03s Sys=0.02s Real=0.03s
[2021-09-03T00:58:53.177+0530][gc,start      ] GC(8) Pause Young (Normal) (G1 Evacuation Pause)
[2021-09-03T00:58:53.179+0530][gc,task       ] GC(8) Using 4 workers of 4 for evacuation
[2021-09-03T00:58:53.212+0530][gc,mmu        ] GC(8) MMU target violated: 21.0ms (20.0ms/21.0ms)
[2021-09-03T00:58:53.212+0530][gc,phases     ] GC(8)   Pre Evacuate Collection Set: 1.5ms
[2021-09-03T00:58:53.212+0530][gc,phases     ] GC(8)   Evacuate Collection Set: 28.2ms
[2021-09-03T00:58:53.212+0530][gc,phases     ] GC(8)   Post Evacuate Collection Set: 0.6ms
[2021-09-03T00:58:53.212+0530][gc,phases     ] GC(8)   Other: 4.5ms
[2021-09-03T00:58:53.212+0530][gc,heap       ] GC(8) Eden regions: 46->0(47)
[2021-09-03T00:58:53.212+0530][gc,heap       ] GC(8) Survivor regions: 5->4(7)
[2021-09-03T00:58:53.212+0530][gc,heap       ] GC(8) Old regions: 14->16
[2021-09-03T00:58:53.212+0530][gc,heap       ] GC(8) Humongous regions: 129->129
[2021-09-03T00:58:53.212+0530][gc,metaspace  ] GC(8) Metaspace: 50508K->50508K(1095680K)
[2021-09-03T00:58:53.212+0530][gc            ] GC(8) Pause Young (Normal) (G1 Evacuation Pause) 193M->147M(1024M) 34.985ms
[2021-09-03T00:58:53.212+0530][gc,cpu        ] GC(8) User=0.03s Sys=0.03s Real=0.04s
[2021-09-03T01:13:58.349+0530][gc,start      ] GC(9) Pause Young (Normal) (G1 Evacuation Pause)
[2021-09-03T01:13:58.351+0530][gc,task       ] GC(9) Using 4 workers of 4 for evacuation
[2021-09-03T01:13:58.367+0530][gc,phases     ] GC(9)   Pre Evacuate Collection Set: 2.4ms
[2021-09-03T01:13:58.367+0530][gc,phases     ] GC(9)   Evacuate Collection Set: 11.9ms
[2021-09-03T01:13:58.367+0530][gc,phases     ] GC(9)   Post Evacuate Collection Set: 1.5ms
[2021-09-03T01:13:58.368+0530][gc,phases     ] GC(9)   Other: 2.4ms
[2021-09-03T01:13:58.368+0530][gc,heap       ] GC(9) Eden regions: 47->0(48)
[2021-09-03T01:13:58.368+0530][gc,heap       ] GC(9) Survivor regions: 4->3(7)
[2021-09-03T01:13:58.368+0530][gc,heap       ] GC(9) Old regions: 16->16
[2021-09-03T01:13:58.368+0530][gc,heap       ] GC(9) Humongous regions: 129->129
[2021-09-03T01:13:58.368+0530][gc,metaspace  ] GC(9) Metaspace: 50654K->50654K(1095680K)
[2021-09-03T01:13:58.368+0530][gc            ] GC(9) Pause Young (Normal) (G1 Evacuation Pause) 194M->147M(1024M) 18.303ms
[2021-09-03T01:13:58.368+0530][gc,cpu        ] GC(9) User=0.03s Sys=0.02s Real=0.02s
[2021-09-03T01:29:22.002+0530][gc,start      ] GC(10) Pause Young (Normal) (G1 Evacuation Pause)
[2021-09-03T01:29:22.003+0530][gc,task       ] GC(10) Using 4 workers of 4 for evacuation
[2021-09-03T01:29:22.024+0530][gc,mmu        ] GC(10) MMU target violated: 20.5ms (20.0ms/21.0ms)
[2021-09-03T01:29:22.024+0530][gc,phases     ] GC(10)   Pre Evacuate Collection Set: 1.1ms
[2021-09-03T01:29:22.024+0530][gc,phases     ] GC(10)   Evacuate Collection Set: 17.7ms
[2021-09-03T01:29:22.024+0530][gc,phases     ] GC(10)   Post Evacuate Collection Set: 1.3ms
[2021-09-03T01:29:22.024+0530][gc,phases     ] GC(10)   Other: 2.1ms
[2021-09-03T01:29:22.024+0530][gc,heap       ] GC(10) Eden regions: 48->0(47)
[2021-09-03T01:29:22.024+0530][gc,heap       ] GC(10) Survivor regions: 3->4(7)
[2021-09-03T01:29:22.024+0530][gc,heap       ] GC(10) Old regions: 16->16
[2021-09-03T01:29:22.024+0530][gc,heap       ] GC(10) Humongous regions: 129->129
[2021-09-03T01:29:22.024+0530][gc,metaspace  ] GC(10) Metaspace: 50774K->50774K(1095680K)
[2021-09-03T01:29:22.024+0530][gc            ] GC(10) Pause Young (Normal) (G1 Evacuation Pause) 195M->147M(1024M) 22.287ms
[2021-09-03T01:29:22.024+0530][gc,cpu        ] GC(10) User=0.02s Sys=0.01s Real=0.02s
[2021-09-03T11:38:52.545+0530][gc,start      ] GC(11) Pause Young (Normal) (G1 Evacuation Pause)
[2021-09-03T11:38:52.547+0530][gc,task       ] GC(11) Using 4 workers of 4 for evacuation
[2021-09-03T11:38:52.570+0530][gc,mmu        ] GC(11) MMU target violated: 21.0ms (20.0ms/21.0ms)
[2021-09-03T11:38:52.570+0530][gc,phases     ] GC(11)   Pre Evacuate Collection Set: 1.6ms
[2021-09-03T11:38:52.570+0530][gc,phases     ] GC(11)   Evacuate Collection Set: 20.1ms
[2021-09-03T11:38:52.570+0530][gc,phases     ] GC(11)   Post Evacuate Collection Set: 0.4ms
[2021-09-03T11:38:52.570+0530][gc,phases     ] GC(11)   Other: 2.8ms
[2021-09-03T11:38:52.571+0530][gc,heap       ] GC(11) Eden regions: 47->0(47)
[2021-09-03T11:38:52.571+0530][gc,heap       ] GC(11) Survivor regions: 4->4(7)
[2021-09-03T11:38:52.571+0530][gc,heap       ] GC(11) Old regions: 16->16
[2021-09-03T11:38:52.571+0530][gc,heap       ] GC(11) Humongous regions: 129->129
[2021-09-03T11:38:52.571+0530][gc,metaspace  ] GC(11) Metaspace: 50890K->50890K(1095680K)
[2021-09-03T11:38:52.571+0530][gc            ] GC(11) Pause Young (Normal) (G1 Evacuation Pause) 194M->147M(1024M) 25.468ms
[2021-09-03T11:38:52.571+0530][gc,cpu        ] GC(11) User=0.03s Sys=0.04s Real=0.03s
[2021-09-03T11:54:21.844+0530][gc,start      ] GC(12) Pause Young (Normal) (G1 Evacuation Pause)
[2021-09-03T11:54:21.846+0530][gc,task       ] GC(12) Using 4 workers of 4 for evacuation
[2021-09-03T11:54:21.874+0530][gc,mmu        ] GC(12) MMU target violated: 21.0ms (20.0ms/21.0ms)
[2021-09-03T11:54:21.874+0530][gc,phases     ] GC(12)   Pre Evacuate Collection Set: 2.4ms
[2021-09-03T11:54:21.874+0530][gc,phases     ] GC(12)   Evacuate Collection Set: 25.3ms
[2021-09-03T11:54:21.874+0530][gc,phases     ] GC(12)   Post Evacuate Collection Set: 0.4ms
[2021-09-03T11:54:21.874+0530][gc,phases     ] GC(12)   Other: 2.5ms
[2021-09-03T11:54:21.874+0530][gc,heap       ] GC(12) Eden regions: 47->0(46)
[2021-09-03T11:54:21.874+0530][gc,heap       ] GC(12) Survivor regions: 4->5(7)
[2021-09-03T11:54:21.874+0530][gc,heap       ] GC(12) Old regions: 16->16
[2021-09-03T11:54:21.874+0530][gc,heap       ] GC(12) Humongous regions: 129->129
[2021-09-03T11:54:21.874+0530][gc,metaspace  ] GC(12) Metaspace: 50917K->50917K(1095680K)
[2021-09-03T11:54:21.874+0530][gc            ] GC(12) Pause Young (Normal) (G1 Evacuation Pause) 194M->148M(1024M) 30.575ms
[2021-09-03T11:54:21.874+0530][gc,cpu        ] GC(12) User=0.02s Sys=0.03s Real=0.03s
[2021-09-03T12:09:32.493+0530][gc,start      ] GC(13) Pause Young (Normal) (G1 Evacuation Pause)
[2021-09-03T12:09:32.494+0530][gc,task       ] GC(13) Using 4 workers of 4 for evacuation
[2021-09-03T12:09:32.507+0530][gc,phases     ] GC(13)   Pre Evacuate Collection Set: 0.0ms
[2021-09-03T12:09:32.507+0530][gc,phases     ] GC(13)   Evacuate Collection Set: 11.6ms
[2021-09-03T12:09:32.507+0530][gc,phases     ] GC(13)   Post Evacuate Collection Set: 1.8ms
[2021-09-03T12:09:32.507+0530][gc,phases     ] GC(13)   Other: 0.5ms
[2021-09-03T12:09:32.507+0530][gc,heap       ] GC(13) Eden regions: 46->0(47)
[2021-09-03T12:09:32.507+0530][gc,heap       ] GC(13) Survivor regions: 5->4(7)
[2021-09-03T12:09:32.507+0530][gc,heap       ] GC(13) Old regions: 16->17
[2021-09-03T12:09:32.507+0530][gc,heap       ] GC(13) Humongous regions: 129->129
[2021-09-03T12:09:32.507+0530][gc,metaspace  ] GC(13) Metaspace: 50957K->50957K(1095680K)
[2021-09-03T12:09:32.507+0530][gc            ] GC(13) Pause Young (Normal) (G1 Evacuation Pause) 194M->148M(1024M) 13.953ms
[2021-09-03T12:09:32.507+0530][gc,cpu        ] GC(13) User=0.03s Sys=0.01s Real=0.01s
[2021-09-03T12:24:52.386+0530][gc,start      ] GC(14) Pause Young (Normal) (G1 Evacuation Pause)
[2021-09-03T12:24:52.387+0530][gc,task       ] GC(14) Using 4 workers of 4 for evacuation
[2021-09-03T12:24:52.393+0530][gc,phases     ] GC(14)   Pre Evacuate Collection Set: 0.0ms
[2021-09-03T12:24:52.393+0530][gc,phases     ] GC(14)   Evacuate Collection Set: 5.5ms
[2021-09-03T12:24:52.393+0530][gc,phases     ] GC(14)   Post Evacuate Collection Set: 0.3ms
[2021-09-03T12:24:52.393+0530][gc,phases     ] GC(14)   Other: 1.9ms
[2021-09-03T12:24:52.393+0530][gc,heap       ] GC(14) Eden regions: 47->0(47)
[2021-09-03T12:24:52.393+0530][gc,heap       ] GC(14) Survivor regions: 4->4(7)
[2021-09-03T12:24:52.393+0530][gc,heap       ] GC(14) Old regions: 17->17
[2021-09-03T12:24:52.394+0530][gc,heap       ] GC(14) Humongous regions: 129->129
[2021-09-03T12:24:52.394+0530][gc,metaspace  ] GC(14) Metaspace: 50969K->50969K(1095680K)
[2021-09-03T12:24:52.394+0530][gc            ] GC(14) Pause Young (Normal) (G1 Evacuation Pause) 195M->148M(1024M) 7.882ms
[2021-09-03T12:24:52.394+0530][gc,cpu        ] GC(14) User=0.02s Sys=0.00s Real=0.01s
[2021-09-03T12:39:38.500+0530][gc,start      ] GC(15) Pause Young (Normal) (G1 Evacuation Pause)
[2021-09-03T12:39:38.502+0530][gc,task       ] GC(15) Using 4 workers of 4 for evacuation
[2021-09-03T12:39:38.525+0530][gc,mmu        ] GC(15) MMU target violated: 21.0ms (20.0ms/21.0ms)
[2021-09-03T12:39:38.525+0530][gc,phases     ] GC(15)   Pre Evacuate Collection Set: 0.9ms
[2021-09-03T12:39:38.525+0530][gc,phases     ] GC(15)   Evacuate Collection Set: 20.5ms
[2021-09-03T12:39:38.525+0530][gc,phases     ] GC(15)   Post Evacuate Collection Set: 0.8ms
[2021-09-03T12:39:38.525+0530][gc,phases     ] GC(15)   Other: 2.3ms
[2021-09-03T12:39:38.525+0530][gc,heap       ] GC(15) Eden regions: 47->0(48)
[2021-09-03T12:39:38.525+0530][gc,heap       ] GC(15) Survivor regions: 4->3(7)
[2021-09-03T12:39:38.525+0530][gc,heap       ] GC(15) Old regions: 17->17
[2021-09-03T12:39:38.525+0530][gc,heap       ] GC(15) Humongous regions: 129->129
[2021-09-03T12:39:38.525+0530][gc,metaspace  ] GC(15) Metaspace: 51006K->51006K(1095680K)
[2021-09-03T12:39:38.525+0530][gc            ] GC(15) Pause Young (Normal) (G1 Evacuation Pause) 195M->148M(1024M) 24.664ms
[2021-09-03T12:39:38.525+0530][gc,cpu        ] GC(15) User=0.02s Sys=0.01s Real=0.02s
[2021-09-03T12:55:23.118+0530][gc,start      ] GC(16) Pause Young (Normal) (G1 Evacuation Pause)
[2021-09-03T12:55:23.118+0530][gc,task       ] GC(16) Using 4 workers of 4 for evacuation
[2021-09-03T12:55:23.151+0530][gc,mmu        ] GC(16) MMU target violated: 21.0ms (20.0ms/21.0ms)
[2021-09-03T12:55:23.151+0530][gc,phases     ] GC(16)   Pre Evacuate Collection Set: 5.6ms
[2021-09-03T12:55:23.151+0530][gc,phases     ] GC(16)   Evacuate Collection Set: 25.3ms
[2021-09-03T12:55:23.151+0530][gc,phases     ] GC(16)   Post Evacuate Collection Set: 1.4ms
[2021-09-03T12:55:23.151+0530][gc,phases     ] GC(16)   Other: 1.1ms
[2021-09-03T12:55:23.151+0530][gc,heap       ] GC(16) Eden regions: 48->0(48)
[2021-09-03T12:55:23.151+0530][gc,heap       ] GC(16) Survivor regions: 3->3(7)
[2021-09-03T12:55:23.151+0530][gc,heap       ] GC(16) Old regions: 17->17
[2021-09-03T12:55:23.151+0530][gc,heap       ] GC(16) Humongous regions: 129->129
[2021-09-03T12:55:23.151+0530][gc,metaspace  ] GC(16) Metaspace: 51034K->51034K(1095680K)
[2021-09-03T12:55:23.151+0530][gc            ] GC(16) Pause Young (Normal) (G1 Evacuation Pause) 196M->147M(1024M) 33.548ms
[2021-09-03T12:55:23.151+0530][gc,cpu        ] GC(16) User=0.03s Sys=0.02s Real=0.04s
[2021-09-03T12:55:28.324+0530][gc,heap,exit  ] Heap
[2021-09-03T12:55:28.325+0530][gc,heap,exit  ]  garbage-first heap   total 1048576K, used 160737K [0x00000007c0000000, 0x0000000800000000)
[2021-09-03T12:55:28.325+0530][gc,heap,exit  ]   region size 1024K, 13 young (13312K), 3 survivors (3072K)
[2021-09-03T12:55:28.325+0530][gc,heap,exit  ]  Metaspace       used 51823K, capacity 54751K, committed 54984K, reserved 1095680K
[2021-09-03T12:55:28.325+0530][gc,heap,exit  ]   class space    used 6528K, capacity 7930K, committed 8012K, reserved 1048576K
