[2021-09-05T20:14:26.865+0530][gc,heap] Heap region size: 1M
[2021-09-05T20:14:26.873+0530][gc     ] Using G1
[2021-09-05T20:14:26.873+0530][gc,heap,coops] Heap address: 0x00000007c0000000, size: 1024 MB, Compressed Oops mode: Zero based, Oop shift amount: 3
[2021-09-05T20:14:28.329+0530][gc,start     ] GC(0) Pause Young (Concurrent Start) (Metadata GC Threshold)
[2021-09-05T20:14:28.329+0530][gc,task      ] GC(0) Using 4 workers of 4 for evacuation
[2021-09-05T20:14:28.337+0530][gc,phases    ] GC(0)   Pre Evacuate Collection Set: 0.0ms
[2021-09-05T20:14:28.337+0530][gc,phases    ] GC(0)   Evacuate Collection Set: 7.0ms
[2021-09-05T20:14:28.337+0530][gc,phases    ] GC(0)   Post Evacuate Collection Set: 0.3ms
[2021-09-05T20:14:28.337+0530][gc,phases    ] GC(0)   Other: 1.3ms
[2021-09-05T20:14:28.337+0530][gc,heap      ] GC(0) Eden regions: 42->0(44)
[2021-09-05T20:14:28.337+0530][gc,heap      ] GC(0) Survivor regions: 0->7(7)
[2021-09-05T20:14:28.337+0530][gc,heap      ] GC(0) Old regions: 0->0
[2021-09-05T20:14:28.337+0530][gc,heap      ] GC(0) Humongous regions: 0->0
[2021-09-05T20:14:28.337+0530][gc,metaspace ] GC(0) Metaspace: 20742K->20742K(1069056K)
[2021-09-05T20:14:28.338+0530][gc           ] GC(0) Pause Young (Concurrent Start) (Metadata GC Threshold) 41M->6M(1024M) 8.833ms
[2021-09-05T20:14:28.338+0530][gc,cpu       ] GC(0) User=0.02s Sys=0.00s Real=0.01s
[2021-09-05T20:14:28.338+0530][gc           ] GC(1) Concurrent Cycle
[2021-09-05T20:14:28.338+0530][gc,marking   ] GC(1) Concurrent Clear Claimed Marks
[2021-09-05T20:14:28.338+0530][gc,marking   ] GC(1) Concurrent Clear Claimed Marks 0.027ms
[2021-09-05T20:14:28.338+0530][gc,marking   ] GC(1) Concurrent Scan Root Regions
[2021-09-05T20:14:28.341+0530][gc,marking   ] GC(1) Concurrent Scan Root Regions 3.042ms
[2021-09-05T20:14:28.341+0530][gc,marking   ] GC(1) Concurrent Mark (1.483s)
[2021-09-05T20:14:28.341+0530][gc,marking   ] GC(1) Concurrent Mark From Roots
[2021-09-05T20:14:28.341+0530][gc,task      ] GC(1) Using 1 workers of 1 for marking
[2021-09-05T20:14:28.341+0530][gc,marking   ] GC(1) Concurrent Mark From Roots 0.122ms
[2021-09-05T20:14:28.341+0530][gc,marking   ] GC(1) Concurrent Preclean
[2021-09-05T20:14:28.341+0530][gc,marking   ] GC(1) Concurrent Preclean 0.018ms
[2021-09-05T20:14:28.341+0530][gc,marking   ] GC(1) Concurrent Mark (1.483s, 1.484s) 0.172ms
[2021-09-05T20:14:28.341+0530][gc,start     ] GC(1) Pause Remark
[2021-09-05T20:14:28.343+0530][gc,stringtable] GC(1) Cleaned string and symbol table, strings: 7149 processed, 0 removed, symbols: 63425 processed, 31 removed
[2021-09-05T20:14:28.343+0530][gc            ] GC(1) Pause Remark 7M->7M(1024M) 1.658ms
[2021-09-05T20:14:28.343+0530][gc,cpu        ] GC(1) User=0.00s Sys=0.00s Real=0.00s
[2021-09-05T20:14:28.343+0530][gc,marking    ] GC(1) Concurrent Rebuild Remembered Sets
[2021-09-05T20:14:28.343+0530][gc,marking    ] GC(1) Concurrent Rebuild Remembered Sets 0.067ms
[2021-09-05T20:14:28.343+0530][gc,start      ] GC(1) Pause Cleanup
[2021-09-05T20:14:28.343+0530][gc            ] GC(1) Pause Cleanup 7M->7M(1024M) 0.076ms
[2021-09-05T20:14:28.343+0530][gc,cpu        ] GC(1) User=0.00s Sys=0.00s Real=0.00s
[2021-09-05T20:14:28.343+0530][gc,marking    ] GC(1) Concurrent Cleanup for Next Mark
[2021-09-05T20:14:28.350+0530][gc,marking    ] GC(1) Concurrent Cleanup for Next Mark 6.876ms
[2021-09-05T20:14:28.350+0530][gc            ] GC(1) Concurrent Cycle 12.522ms
[2021-09-05T20:14:29.500+0530][gc,start      ] GC(2) Pause Young (Normal) (G1 Evacuation Pause)
[2021-09-05T20:14:29.500+0530][gc,task       ] GC(2) Using 4 workers of 4 for evacuation
[2021-09-05T20:14:29.522+0530][gc,mmu        ] GC(2) MMU target violated: 21.0ms (20.0ms/21.0ms)
[2021-09-05T20:14:29.522+0530][gc,phases     ] GC(2)   Pre Evacuate Collection Set: 0.0ms
[2021-09-05T20:14:29.522+0530][gc,phases     ] GC(2)   Evacuate Collection Set: 20.4ms
[2021-09-05T20:14:29.522+0530][gc,phases     ] GC(2)   Post Evacuate Collection Set: 1.2ms
[2021-09-05T20:14:29.522+0530][gc,phases     ] GC(2)   Other: 0.2ms
[2021-09-05T20:14:29.522+0530][gc,heap       ] GC(2) Eden regions: 44->0(49)
[2021-09-05T20:14:29.522+0530][gc,heap       ] GC(2) Survivor regions: 7->2(7)
[2021-09-05T20:14:29.522+0530][gc,heap       ] GC(2) Old regions: 0->7
[2021-09-05T20:14:29.522+0530][gc,heap       ] GC(2) Humongous regions: 0->0
[2021-09-05T20:14:29.522+0530][gc,metaspace  ] GC(2) Metaspace: 30356K->30356K(1077248K)
[2021-09-05T20:14:29.522+0530][gc            ] GC(2) Pause Young (Normal) (G1 Evacuation Pause) 50M->8M(1024M) 21.931ms
[2021-09-05T20:14:29.522+0530][gc,cpu        ] GC(2) User=0.04s Sys=0.00s Real=0.02s
[2021-09-05T20:14:30.374+0530][gc,start      ] GC(3) Pause Young (Concurrent Start) (Metadata GC Threshold)
[2021-09-05T20:14:30.374+0530][gc,task       ] GC(3) Using 4 workers of 4 for evacuation
[2021-09-05T20:14:30.378+0530][gc,phases     ] GC(3)   Pre Evacuate Collection Set: 0.1ms
[2021-09-05T20:14:30.378+0530][gc,phases     ] GC(3)   Evacuate Collection Set: 4.0ms
[2021-09-05T20:14:30.378+0530][gc,phases     ] GC(3)   Post Evacuate Collection Set: 0.3ms
[2021-09-05T20:14:30.378+0530][gc,phases     ] GC(3)   Other: 0.2ms
[2021-09-05T20:14:30.378+0530][gc,heap       ] GC(3) Eden regions: 25->0(47)
[2021-09-05T20:14:30.378+0530][gc,heap       ] GC(3) Survivor regions: 2->4(7)
[2021-09-05T20:14:30.378+0530][gc,heap       ] GC(3) Old regions: 7->7
[2021-09-05T20:14:30.378+0530][gc,heap       ] GC(3) Humongous regions: 129->129
[2021-09-05T20:14:30.378+0530][gc,metaspace  ] GC(3) Metaspace: 34625K->34625K(1081344K)
[2021-09-05T20:14:30.378+0530][gc            ] GC(3) Pause Young (Concurrent Start) (Metadata GC Threshold) 162M->138M(1024M) 4.693ms
[2021-09-05T20:14:30.379+0530][gc,cpu        ] GC(3) User=0.01s Sys=0.00s Real=0.00s
[2021-09-05T20:14:30.379+0530][gc            ] GC(4) Concurrent Cycle
[2021-09-05T20:14:30.379+0530][gc,marking    ] GC(4) Concurrent Clear Claimed Marks
[2021-09-05T20:14:30.379+0530][gc,marking    ] GC(4) Concurrent Clear Claimed Marks 0.065ms
[2021-09-05T20:14:30.379+0530][gc,marking    ] GC(4) Concurrent Scan Root Regions
[2021-09-05T20:14:30.382+0530][gc,marking    ] GC(4) Concurrent Scan Root Regions 2.749ms
[2021-09-05T20:14:30.382+0530][gc,marking    ] GC(4) Concurrent Mark (3.524s)
[2021-09-05T20:14:30.382+0530][gc,marking    ] GC(4) Concurrent Mark From Roots
[2021-09-05T20:14:30.382+0530][gc,task       ] GC(4) Using 1 workers of 1 for marking
[2021-09-05T20:14:30.390+0530][gc,marking    ] GC(4) Concurrent Mark From Roots 8.608ms
[2021-09-05T20:14:30.390+0530][gc,marking    ] GC(4) Concurrent Preclean
[2021-09-05T20:14:30.390+0530][gc,marking    ] GC(4) Concurrent Preclean 0.069ms
[2021-09-05T20:14:30.390+0530][gc,marking    ] GC(4) Concurrent Mark (3.524s, 3.533s) 8.740ms
[2021-09-05T20:14:30.390+0530][gc,start      ] GC(4) Pause Remark
[2021-09-05T20:14:30.393+0530][gc,stringtable] GC(4) Cleaned string and symbol table, strings: 10919 processed, 9 removed, symbols: 94634 processed, 22 removed
[2021-09-05T20:14:30.393+0530][gc            ] GC(4) Pause Remark 139M->139M(1024M) 2.506ms
[2021-09-05T20:14:30.393+0530][gc,cpu        ] GC(4) User=0.01s Sys=0.00s Real=0.00s
[2021-09-05T20:14:30.393+0530][gc,marking    ] GC(4) Concurrent Rebuild Remembered Sets
[2021-09-05T20:14:30.399+0530][gc,marking    ] GC(4) Concurrent Rebuild Remembered Sets 5.537ms
[2021-09-05T20:14:30.399+0530][gc,start      ] GC(4) Pause Cleanup
[2021-09-05T20:14:30.399+0530][gc            ] GC(4) Pause Cleanup 139M->139M(1024M) 0.091ms
[2021-09-05T20:14:30.399+0530][gc,cpu        ] GC(4) User=0.00s Sys=0.00s Real=0.00s
[2021-09-05T20:14:30.399+0530][gc,marking    ] GC(4) Concurrent Cleanup for Next Mark
[2021-09-05T20:14:30.409+0530][gc,marking    ] GC(4) Concurrent Cleanup for Next Mark 9.783ms
[2021-09-05T20:14:30.409+0530][gc            ] GC(4) Concurrent Cycle 30.179ms
[2021-09-05T20:14:31.174+0530][gc,start      ] GC(5) Pause Young (Normal) (G1 Evacuation Pause)
[2021-09-05T20:14:31.174+0530][gc,task       ] GC(5) Using 4 workers of 4 for evacuation
[2021-09-05T20:14:31.198+0530][gc,mmu        ] GC(5) MMU target violated: 21.0ms (20.0ms/21.0ms)
[2021-09-05T20:14:31.198+0530][gc,phases     ] GC(5)   Pre Evacuate Collection Set: 0.0ms
[2021-09-05T20:14:31.198+0530][gc,phases     ] GC(5)   Evacuate Collection Set: 21.5ms
[2021-09-05T20:14:31.198+0530][gc,phases     ] GC(5)   Post Evacuate Collection Set: 1.8ms
[2021-09-05T20:14:31.198+0530][gc,phases     ] GC(5)   Other: 0.3ms
[2021-09-05T20:14:31.198+0530][gc,heap       ] GC(5) Eden regions: 47->0(44)
[2021-09-05T20:14:31.198+0530][gc,heap       ] GC(5) Survivor regions: 4->7(7)
[2021-09-05T20:14:31.198+0530][gc,heap       ] GC(5) Old regions: 7->7
[2021-09-05T20:14:31.198+0530][gc,heap       ] GC(5) Humongous regions: 129->129
[2021-09-05T20:14:31.198+0530][gc,metaspace  ] GC(5) Metaspace: 42961K->42961K(1087488K)
[2021-09-05T20:14:31.198+0530][gc            ] GC(5) Pause Young (Normal) (G1 Evacuation Pause) 185M->142M(1024M) 23.769ms
[2021-09-05T20:14:31.198+0530][gc,cpu        ] GC(5) User=0.03s Sys=0.01s Real=0.02s
[2021-09-05T20:20:09.319+0530][gc,start      ] GC(6) Pause Young (Normal) (G1 Evacuation Pause)
[2021-09-05T20:20:09.323+0530][gc,task       ] GC(6) Using 4 workers of 4 for evacuation
[2021-09-05T20:20:09.371+0530][gc,mmu        ] GC(6) MMU target violated: 21.0ms (20.0ms/21.0ms)
[2021-09-05T20:20:09.371+0530][gc,phases     ] GC(6)   Pre Evacuate Collection Set: 1.3ms
[2021-09-05T20:20:09.371+0530][gc,phases     ] GC(6)   Evacuate Collection Set: 45.6ms
[2021-09-05T20:20:09.371+0530][gc,phases     ] GC(6)   Post Evacuate Collection Set: 1.3ms
[2021-09-05T20:20:09.371+0530][gc,phases     ] GC(6)   Other: 3.7ms
[2021-09-05T20:20:09.371+0530][gc,heap       ] GC(6) Eden regions: 44->0(48)
[2021-09-05T20:20:09.371+0530][gc,heap       ] GC(6) Survivor regions: 7->3(7)
[2021-09-05T20:20:09.371+0530][gc,heap       ] GC(6) Old regions: 7->14
[2021-09-05T20:20:09.371+0530][gc,heap       ] GC(6) Humongous regions: 255->129
[2021-09-05T20:20:09.371+0530][gc,metaspace  ] GC(6) Metaspace: 49243K->49243K(1093632K)
[2021-09-05T20:20:09.371+0530][gc            ] GC(6) Pause Young (Normal) (G1 Evacuation Pause) 312M->144M(1024M) 51.922ms
[2021-09-05T20:20:09.371+0530][gc,cpu        ] GC(6) User=0.05s Sys=0.11s Real=0.06s
[2021-09-05T20:27:59.552+0530][gc,start      ] GC(7) Pause Young (Normal) (G1 Evacuation Pause)
[2021-09-05T20:27:59.552+0530][gc,task       ] GC(7) Using 4 workers of 4 for evacuation
[2021-09-05T20:27:59.582+0530][gc,mmu        ] GC(7) MMU target violated: 21.0ms (20.0ms/21.0ms)
[2021-09-05T20:27:59.583+0530][gc,phases     ] GC(7)   Pre Evacuate Collection Set: 1.2ms
[2021-09-05T20:27:59.583+0530][gc,phases     ] GC(7)   Evacuate Collection Set: 26.9ms
[2021-09-05T20:27:59.583+0530][gc,phases     ] GC(7)   Post Evacuate Collection Set: 1.8ms
[2021-09-05T20:27:59.583+0530][gc,phases     ] GC(7)   Other: 1.3ms
[2021-09-05T20:27:59.583+0530][gc,heap       ] GC(7) Eden regions: 48->0(46)
[2021-09-05T20:27:59.583+0530][gc,heap       ] GC(7) Survivor regions: 3->5(7)
[2021-09-05T20:27:59.583+0530][gc,heap       ] GC(7) Old regions: 14->14
[2021-09-05T20:27:59.583+0530][gc,heap       ] GC(7) Humongous regions: 129->129
[2021-09-05T20:27:59.583+0530][gc,metaspace  ] GC(7) Metaspace: 50175K->50175K(1095680K)
[2021-09-05T20:27:59.583+0530][gc            ] GC(7) Pause Young (Normal) (G1 Evacuation Pause) 192M->146M(1024M) 31.494ms
[2021-09-05T20:27:59.583+0530][gc,cpu        ] GC(7) User=0.03s Sys=0.05s Real=0.03s
[2021-09-05T20:35:26.607+0530][gc,start      ] GC(8) Pause Young (Normal) (G1 Evacuation Pause)
[2021-09-05T20:35:26.608+0530][gc,task       ] GC(8) Using 4 workers of 4 for evacuation
[2021-09-05T20:35:26.629+0530][gc,mmu        ] GC(8) MMU target violated: 21.0ms (20.0ms/21.0ms)
[2021-09-05T20:35:26.629+0530][gc,phases     ] GC(8)   Pre Evacuate Collection Set: 1.0ms
[2021-09-05T20:35:26.629+0530][gc,phases     ] GC(8)   Evacuate Collection Set: 19.7ms
[2021-09-05T20:35:26.629+0530][gc,phases     ] GC(8)   Post Evacuate Collection Set: 0.6ms
[2021-09-05T20:35:26.630+0530][gc,phases     ] GC(8)   Other: 0.8ms
[2021-09-05T20:35:26.630+0530][gc,heap       ] GC(8) Eden regions: 46->0(47)
[2021-09-05T20:35:26.630+0530][gc,heap       ] GC(8) Survivor regions: 5->4(7)
[2021-09-05T20:35:26.630+0530][gc,heap       ] GC(8) Old regions: 14->16
[2021-09-05T20:35:26.630+0530][gc,heap       ] GC(8) Humongous regions: 129->129
[2021-09-05T20:35:26.630+0530][gc,metaspace  ] GC(8) Metaspace: 50579K->50579K(1095680K)
[2021-09-05T20:35:26.630+0530][gc            ] GC(8) Pause Young (Normal) (G1 Evacuation Pause) 192M->147M(1024M) 22.190ms
[2021-09-05T20:35:26.630+0530][gc,cpu        ] GC(8) User=0.03s Sys=0.03s Real=0.03s
[2021-09-05T20:41:17.345+0530][gc,start      ] GC(9) Pause Young (Normal) (G1 Evacuation Pause)
[2021-09-05T20:41:17.346+0530][gc,task       ] GC(9) Using 4 workers of 4 for evacuation
[2021-09-05T20:41:17.385+0530][gc,mmu        ] GC(9) MMU target violated: 21.0ms (20.0ms/21.0ms)
[2021-09-05T20:41:17.385+0530][gc,phases     ] GC(9)   Pre Evacuate Collection Set: 1.5ms
[2021-09-05T20:41:17.385+0530][gc,phases     ] GC(9)   Evacuate Collection Set: 26.4ms
[2021-09-05T20:41:17.385+0530][gc,phases     ] GC(9)   Post Evacuate Collection Set: 11.0ms
[2021-09-05T20:41:17.385+0530][gc,phases     ] GC(9)   Other: 0.6ms
[2021-09-05T20:41:17.385+0530][gc,heap       ] GC(9) Eden regions: 47->0(47)
[2021-09-05T20:41:17.385+0530][gc,heap       ] GC(9) Survivor regions: 4->4(7)
[2021-09-05T20:41:17.385+0530][gc,heap       ] GC(9) Old regions: 16->16
[2021-09-05T20:41:17.385+0530][gc,heap       ] GC(9) Humongous regions: 129->129
[2021-09-05T20:41:17.385+0530][gc,metaspace  ] GC(9) Metaspace: 51480K->51480K(1095680K)
[2021-09-05T20:41:17.385+0530][gc            ] GC(9) Pause Young (Normal) (G1 Evacuation Pause) 194M->147M(1024M) 39.548ms
[2021-09-05T20:41:17.385+0530][gc,cpu        ] GC(9) User=0.02s Sys=0.02s Real=0.04s
[2021-09-05T20:41:17.408+0530][gc,heap,exit  ] Heap
[2021-09-05T20:41:17.408+0530][gc,heap,exit  ]  garbage-first heap   total 1048576K, used 152117K [0x00000007c0000000, 0x0000000800000000)
[2021-09-05T20:41:17.408+0530][gc,heap,exit  ]   region size 1024K, 6 young (6144K), 4 survivors (4096K)
[2021-09-05T20:41:17.408+0530][gc,heap,exit  ]  Metaspace       used 51514K, capacity 54416K, committed 54528K, reserved 1095680K
[2021-09-05T20:41:17.408+0530][gc,heap,exit  ]   class space    used 6518K, capacity 7912K, committed 7936K, reserved 1048576K
