[2021-10-06T11:16:06.564+0530][gc,heap] Heap region size: 1M
[2021-10-06T11:16:06.574+0530][gc     ] Using G1
[2021-10-06T11:16:06.574+0530][gc,heap,coops] Heap address: 0x00000007c0000000, size: 1024 MB, Compressed Oops mode: Zero based, Oop shift amount: 3
[2021-10-06T11:16:08.838+0530][gc,start     ] GC(0) Pause Young (Concurrent Start) (Metadata GC Threshold)
[2021-10-06T11:16:08.838+0530][gc,task      ] GC(0) Using 4 workers of 4 for evacuation
[2021-10-06T11:16:08.849+0530][gc,phases    ] GC(0)   Pre Evacuate Collection Set: 0.0ms
[2021-10-06T11:16:08.849+0530][gc,phases    ] GC(0)   Evacuate Collection Set: 9.2ms
[2021-10-06T11:16:08.849+0530][gc,phases    ] GC(0)   Post Evacuate Collection Set: 0.6ms
[2021-10-06T11:16:08.849+0530][gc,phases    ] GC(0)   Other: 1.7ms
[2021-10-06T11:16:08.849+0530][gc,heap      ] GC(0) Eden regions: 42->0(44)
[2021-10-06T11:16:08.849+0530][gc,heap      ] GC(0) Survivor regions: 0->7(7)
[2021-10-06T11:16:08.849+0530][gc,heap      ] GC(0) Old regions: 0->0
[2021-10-06T11:16:08.849+0530][gc,heap      ] GC(0) Humongous regions: 0->0
[2021-10-06T11:16:08.849+0530][gc,metaspace ] GC(0) Metaspace: 20711K->20711K(1069056K)
[2021-10-06T11:16:08.850+0530][gc           ] GC(0) Pause Young (Concurrent Start) (Metadata GC Threshold) 41M->6M(1024M) 11.544ms
[2021-10-06T11:16:08.850+0530][gc,cpu       ] GC(0) User=0.02s Sys=0.00s Real=0.02s
[2021-10-06T11:16:08.850+0530][gc           ] GC(1) Concurrent Cycle
[2021-10-06T11:16:08.850+0530][gc,marking   ] GC(1) Concurrent Clear Claimed Marks
[2021-10-06T11:16:08.850+0530][gc,marking   ] GC(1) Concurrent Clear Claimed Marks 0.037ms
[2021-10-06T11:16:08.850+0530][gc,marking   ] GC(1) Concurrent Scan Root Regions
[2021-10-06T11:16:08.855+0530][gc,marking   ] GC(1) Concurrent Scan Root Regions 5.000ms
[2021-10-06T11:16:08.855+0530][gc,marking   ] GC(1) Concurrent Mark (2.306s)
[2021-10-06T11:16:08.855+0530][gc,marking   ] GC(1) Concurrent Mark From Roots
[2021-10-06T11:16:08.855+0530][gc,task      ] GC(1) Using 1 workers of 1 for marking
[2021-10-06T11:16:08.855+0530][gc,marking   ] GC(1) Concurrent Mark From Roots 0.187ms
[2021-10-06T11:16:08.855+0530][gc,marking   ] GC(1) Concurrent Preclean
[2021-10-06T11:16:08.855+0530][gc,marking   ] GC(1) Concurrent Preclean 0.076ms
[2021-10-06T11:16:08.855+0530][gc,marking   ] GC(1) Concurrent Mark (2.306s, 2.307s) 0.331ms
[2021-10-06T11:16:08.856+0530][gc,start     ] GC(1) Pause Remark
[2021-10-06T11:16:08.858+0530][gc,stringtable] GC(1) Cleaned string and symbol table, strings: 7158 processed, 0 removed, symbols: 63394 processed, 31 removed
[2021-10-06T11:16:08.859+0530][gc            ] GC(1) Pause Remark 7M->7M(1024M) 2.425ms
[2021-10-06T11:16:08.859+0530][gc,cpu        ] GC(1) User=0.00s Sys=0.00s Real=0.00s
[2021-10-06T11:16:08.859+0530][gc,marking    ] GC(1) Concurrent Rebuild Remembered Sets
[2021-10-06T11:16:08.859+0530][gc,marking    ] GC(1) Concurrent Rebuild Remembered Sets 0.086ms
[2021-10-06T11:16:08.860+0530][gc,start      ] GC(1) Pause Cleanup
[2021-10-06T11:16:08.860+0530][gc            ] GC(1) Pause Cleanup 7M->7M(1024M) 0.266ms
[2021-10-06T11:16:08.860+0530][gc,cpu        ] GC(1) User=0.00s Sys=0.00s Real=0.00s
[2021-10-06T11:16:08.860+0530][gc,marking    ] GC(1) Concurrent Cleanup for Next Mark
[2021-10-06T11:16:08.874+0530][gc,marking    ] GC(1) Concurrent Cleanup for Next Mark 14.090ms
[2021-10-06T11:16:08.874+0530][gc            ] GC(1) Concurrent Cycle 24.516ms
[2021-10-06T11:16:11.258+0530][gc,start      ] GC(2) Pause Young (Normal) (G1 Evacuation Pause)
[2021-10-06T11:16:11.258+0530][gc,task       ] GC(2) Using 4 workers of 4 for evacuation
[2021-10-06T11:16:11.277+0530][gc,phases     ] GC(2)   Pre Evacuate Collection Set: 0.0ms
[2021-10-06T11:16:11.277+0530][gc,phases     ] GC(2)   Evacuate Collection Set: 18.5ms
[2021-10-06T11:16:11.277+0530][gc,phases     ] GC(2)   Post Evacuate Collection Set: 0.5ms
[2021-10-06T11:16:11.277+0530][gc,phases     ] GC(2)   Other: 0.2ms
[2021-10-06T11:16:11.277+0530][gc,heap       ] GC(2) Eden regions: 44->0(48)
[2021-10-06T11:16:11.277+0530][gc,heap       ] GC(2) Survivor regions: 7->3(7)
[2021-10-06T11:16:11.277+0530][gc,heap       ] GC(2) Old regions: 0->7
[2021-10-06T11:16:11.277+0530][gc,heap       ] GC(2) Humongous regions: 129->129
[2021-10-06T11:16:11.277+0530][gc,metaspace  ] GC(2) Metaspace: 30576K->30576K(1077248K)
[2021-10-06T11:16:11.277+0530][gc            ] GC(2) Pause Young (Normal) (G1 Evacuation Pause) 179M->138M(1024M) 19.420ms
[2021-10-06T11:16:11.277+0530][gc,cpu        ] GC(2) User=0.03s Sys=0.01s Real=0.02s
[2021-10-06T11:16:12.419+0530][gc,start      ] GC(3) Pause Young (Concurrent Start) (Metadata GC Threshold)
[2021-10-06T11:16:12.419+0530][gc,task       ] GC(3) Using 4 workers of 4 for evacuation
[2021-10-06T11:16:12.424+0530][gc,phases     ] GC(3)   Pre Evacuate Collection Set: 0.1ms
[2021-10-06T11:16:12.424+0530][gc,phases     ] GC(3)   Evacuate Collection Set: 4.8ms
[2021-10-06T11:16:12.424+0530][gc,phases     ] GC(3)   Post Evacuate Collection Set: 0.4ms
[2021-10-06T11:16:12.424+0530][gc,phases     ] GC(3)   Other: 0.3ms
[2021-10-06T11:16:12.424+0530][gc,heap       ] GC(3) Eden regions: 23->0(47)
[2021-10-06T11:16:12.424+0530][gc,heap       ] GC(3) Survivor regions: 3->4(7)
[2021-10-06T11:16:12.424+0530][gc,heap       ] GC(3) Old regions: 7->7
[2021-10-06T11:16:12.424+0530][gc,heap       ] GC(3) Humongous regions: 129->129
[2021-10-06T11:16:12.424+0530][gc,metaspace  ] GC(3) Metaspace: 34574K->34574K(1081344K)
[2021-10-06T11:16:12.424+0530][gc            ] GC(3) Pause Young (Concurrent Start) (Metadata GC Threshold) 161M->139M(1024M) 5.756ms
[2021-10-06T11:16:12.425+0530][gc,cpu        ] GC(3) User=0.02s Sys=0.00s Real=0.01s
[2021-10-06T11:16:12.425+0530][gc            ] GC(4) Concurrent Cycle
[2021-10-06T11:16:12.425+0530][gc,marking    ] GC(4) Concurrent Clear Claimed Marks
[2021-10-06T11:16:12.425+0530][gc,marking    ] GC(4) Concurrent Clear Claimed Marks 0.069ms
[2021-10-06T11:16:12.425+0530][gc,marking    ] GC(4) Concurrent Scan Root Regions
[2021-10-06T11:16:12.429+0530][gc,marking    ] GC(4) Concurrent Scan Root Regions 4.696ms
[2021-10-06T11:16:12.429+0530][gc,marking    ] GC(4) Concurrent Mark (5.881s)
[2021-10-06T11:16:12.429+0530][gc,marking    ] GC(4) Concurrent Mark From Roots
[2021-10-06T11:16:12.429+0530][gc,task       ] GC(4) Using 1 workers of 1 for marking
[2021-10-06T11:16:12.444+0530][gc,marking    ] GC(4) Concurrent Mark From Roots 14.952ms
[2021-10-06T11:16:12.444+0530][gc,marking    ] GC(4) Concurrent Preclean
[2021-10-06T11:16:12.445+0530][gc,marking    ] GC(4) Concurrent Preclean 0.105ms
[2021-10-06T11:16:12.445+0530][gc,marking    ] GC(4) Concurrent Mark (5.881s, 5.896s) 15.181ms
[2021-10-06T11:16:12.445+0530][gc,start      ] GC(4) Pause Remark
[2021-10-06T11:16:12.448+0530][gc,stringtable] GC(4) Cleaned string and symbol table, strings: 11610 processed, 9 removed, symbols: 93908 processed, 29 removed
[2021-10-06T11:16:12.448+0530][gc            ] GC(4) Pause Remark 140M->140M(1024M) 3.692ms
[2021-10-06T11:16:12.448+0530][gc,cpu        ] GC(4) User=0.01s Sys=0.00s Real=0.00s
[2021-10-06T11:16:12.448+0530][gc,marking    ] GC(4) Concurrent Rebuild Remembered Sets
[2021-10-06T11:16:12.456+0530][gc,marking    ] GC(4) Concurrent Rebuild Remembered Sets 7.965ms
[2021-10-06T11:16:12.457+0530][gc,start      ] GC(4) Pause Cleanup
[2021-10-06T11:16:12.458+0530][gc            ] GC(4) Pause Cleanup 140M->140M(1024M) 0.149ms
[2021-10-06T11:16:12.458+0530][gc,cpu        ] GC(4) User=0.00s Sys=0.00s Real=0.00s
[2021-10-06T11:16:12.458+0530][gc,marking    ] GC(4) Concurrent Cleanup for Next Mark
[2021-10-06T11:16:12.471+0530][gc,marking    ] GC(4) Concurrent Cleanup for Next Mark 13.254ms
[2021-10-06T11:16:12.471+0530][gc            ] GC(4) Concurrent Cycle 46.458ms
[2021-10-06T11:25:40.787+0530][gc,start      ] GC(5) Pause Young (Normal) (G1 Evacuation Pause)
[2021-10-06T11:25:40.789+0530][gc,task       ] GC(5) Using 4 workers of 4 for evacuation
[2021-10-06T11:25:40.906+0530][gc,mmu        ] GC(5) MMU target violated: 21.0ms (20.0ms/21.0ms)
[2021-10-06T11:25:40.907+0530][gc,phases     ] GC(5)   Pre Evacuate Collection Set: 2.1ms
[2021-10-06T11:25:40.907+0530][gc,phases     ] GC(5)   Evacuate Collection Set: 113.8ms
[2021-10-06T11:25:40.907+0530][gc,phases     ] GC(5)   Post Evacuate Collection Set: 1.2ms
[2021-10-06T11:25:40.907+0530][gc,phases     ] GC(5)   Other: 2.5ms
[2021-10-06T11:25:40.907+0530][gc,heap       ] GC(5) Eden regions: 47->0(46)
[2021-10-06T11:25:40.907+0530][gc,heap       ] GC(5) Survivor regions: 4->5(7)
[2021-10-06T11:25:40.907+0530][gc,heap       ] GC(5) Old regions: 7->9
[2021-10-06T11:25:40.907+0530][gc,heap       ] GC(5) Humongous regions: 129->129
[2021-10-06T11:25:40.907+0530][gc,metaspace  ] GC(5) Metaspace: 43814K->43814K(1089536K)
[2021-10-06T11:25:40.907+0530][gc            ] GC(5) Pause Young (Normal) (G1 Evacuation Pause) 186M->142M(1024M) 119.637ms
[2021-10-06T11:25:40.907+0530][gc,cpu        ] GC(5) User=0.05s Sys=0.07s Real=0.12s
[2021-10-06T11:31:13.049+0530][gc,start      ] GC(6) Pause Young (Normal) (G1 Evacuation Pause)
[2021-10-06T11:31:13.051+0530][gc,task       ] GC(6) Using 4 workers of 4 for evacuation
[2021-10-06T11:31:13.102+0530][gc,mmu        ] GC(6) MMU target violated: 21.0ms (20.0ms/21.0ms)
[2021-10-06T11:31:13.102+0530][gc,phases     ] GC(6)   Pre Evacuate Collection Set: 1.2ms
[2021-10-06T11:31:13.102+0530][gc,phases     ] GC(6)   Evacuate Collection Set: 47.4ms
[2021-10-06T11:31:13.102+0530][gc,phases     ] GC(6)   Post Evacuate Collection Set: 2.3ms
[2021-10-06T11:31:13.102+0530][gc,phases     ] GC(6)   Other: 1.9ms
[2021-10-06T11:31:13.102+0530][gc,heap       ] GC(6) Eden regions: 46->0(45)
[2021-10-06T11:31:13.102+0530][gc,heap       ] GC(6) Survivor regions: 5->6(7)
[2021-10-06T11:31:13.102+0530][gc,heap       ] GC(6) Old regions: 9->11
[2021-10-06T11:31:13.102+0530][gc,heap       ] GC(6) Humongous regions: 129->129
[2021-10-06T11:31:13.102+0530][gc,metaspace  ] GC(6) Metaspace: 49180K->49180K(1093632K)
[2021-10-06T11:31:13.102+0530][gc            ] GC(6) Pause Young (Normal) (G1 Evacuation Pause) 188M->145M(1024M) 52.936ms
[2021-10-06T11:31:13.102+0530][gc,cpu        ] GC(6) User=0.04s Sys=0.02s Real=0.06s
[2021-10-06T11:42:57.914+0530][gc,start      ] GC(7) Pause Young (Normal) (G1 Evacuation Pause)
[2021-10-06T11:42:57.914+0530][gc,task       ] GC(7) Using 4 workers of 4 for evacuation
[2021-10-06T11:42:57.952+0530][gc,mmu        ] GC(7) MMU target violated: 21.0ms (20.0ms/21.0ms)
[2021-10-06T11:42:57.952+0530][gc,phases     ] GC(7)   Pre Evacuate Collection Set: 1.0ms
[2021-10-06T11:42:57.952+0530][gc,phases     ] GC(7)   Evacuate Collection Set: 36.1ms
[2021-10-06T11:42:57.952+0530][gc,phases     ] GC(7)   Post Evacuate Collection Set: 0.6ms
[2021-10-06T11:42:57.952+0530][gc,phases     ] GC(7)   Other: 0.8ms
[2021-10-06T11:42:57.952+0530][gc,heap       ] GC(7) Eden regions: 45->0(45)
[2021-10-06T11:42:57.952+0530][gc,heap       ] GC(7) Survivor regions: 6->6(7)
[2021-10-06T11:42:57.952+0530][gc,heap       ] GC(7) Old regions: 11->14
[2021-10-06T11:42:57.952+0530][gc,heap       ] GC(7) Humongous regions: 129->129
[2021-10-06T11:42:57.952+0530][gc,metaspace  ] GC(7) Metaspace: 49922K->49922K(1095680K)
[2021-10-06T11:42:57.953+0530][gc            ] GC(7) Pause Young (Normal) (G1 Evacuation Pause) 190M->147M(1024M) 38.700ms
[2021-10-06T11:42:57.953+0530][gc,cpu        ] GC(7) User=0.04s Sys=0.08s Real=0.04s
[2021-10-06T11:55:36.332+0530][gc,start      ] GC(8) Pause Young (Normal) (G1 Evacuation Pause)
[2021-10-06T11:55:36.334+0530][gc,task       ] GC(8) Using 4 workers of 4 for evacuation
[2021-10-06T11:55:36.348+0530][gc,phases     ] GC(8)   Pre Evacuate Collection Set: 1.0ms
[2021-10-06T11:55:36.348+0530][gc,phases     ] GC(8)   Evacuate Collection Set: 12.7ms
[2021-10-06T11:55:36.348+0530][gc,phases     ] GC(8)   Post Evacuate Collection Set: 0.4ms
[2021-10-06T11:55:36.348+0530][gc,phases     ] GC(8)   Other: 1.9ms
[2021-10-06T11:55:36.349+0530][gc,heap       ] GC(8) Eden regions: 45->0(48)
[2021-10-06T11:55:36.349+0530][gc,heap       ] GC(8) Survivor regions: 6->3(7)
[2021-10-06T11:55:36.349+0530][gc,heap       ] GC(8) Old regions: 14->16
[2021-10-06T11:55:36.349+0530][gc,heap       ] GC(8) Humongous regions: 129->129
[2021-10-06T11:55:36.349+0530][gc,metaspace  ] GC(8) Metaspace: 50111K->50111K(1095680K)
[2021-10-06T11:55:36.349+0530][gc            ] GC(8) Pause Young (Normal) (G1 Evacuation Pause) 192M->147M(1024M) 16.083ms
[2021-10-06T11:55:36.349+0530][gc,cpu        ] GC(8) User=0.02s Sys=0.02s Real=0.01s
[2021-10-06T11:56:52.420+0530][gc,heap,exit  ] Heap
[2021-10-06T11:56:52.422+0530][gc,heap,exit  ]  garbage-first heap   total 1048576K, used 164039K [0x00000007c0000000, 0x0000000800000000)
[2021-10-06T11:56:52.422+0530][gc,heap,exit  ]   region size 1024K, 17 young (17408K), 3 survivors (3072K)
[2021-10-06T11:56:52.422+0530][gc,heap,exit  ]  Metaspace       used 50962K, capacity 53778K, committed 53888K, reserved 1095680K
[2021-10-06T11:56:52.422+0530][gc,heap,exit  ]   class space    used 6382K, capacity 7728K, committed 7808K, reserved 1048576K
