[2021-10-06T12:01:39.193+0530][gc,heap] Heap region size: 1M
[2021-10-06T12:01:39.202+0530][gc     ] Using G1
[2021-10-06T12:01:39.203+0530][gc,heap,coops] Heap address: 0x00000007c0000000, size: 1024 MB, Compressed Oops mode: Zero based, Oop shift amount: 3
[2021-10-06T12:01:40.786+0530][gc,start     ] GC(0) Pause Young (Concurrent Start) (Metadata GC Threshold)
[2021-10-06T12:01:40.787+0530][gc,task      ] GC(0) Using 4 workers of 4 for evacuation
[2021-10-06T12:01:40.808+0530][gc,mmu       ] GC(0) MMU target violated: 21.0ms (20.0ms/21.0ms)
[2021-10-06T12:01:40.808+0530][gc,phases    ] GC(0)   Pre Evacuate Collection Set: 0.0ms
[2021-10-06T12:01:40.808+0530][gc,phases    ] GC(0)   Evacuate Collection Set: 20.6ms
[2021-10-06T12:01:40.808+0530][gc,phases    ] GC(0)   Post Evacuate Collection Set: 0.4ms
[2021-10-06T12:01:40.808+0530][gc,phases    ] GC(0)   Other: 0.7ms
[2021-10-06T12:01:40.808+0530][gc,heap      ] GC(0) Eden regions: 42->0(44)
[2021-10-06T12:01:40.808+0530][gc,heap      ] GC(0) Survivor regions: 0->7(7)
[2021-10-06T12:01:40.808+0530][gc,heap      ] GC(0) Old regions: 0->0
[2021-10-06T12:01:40.808+0530][gc,heap      ] GC(0) Humongous regions: 0->0
[2021-10-06T12:01:40.808+0530][gc,metaspace ] GC(0) Metaspace: 20681K->20681K(1069056K)
[2021-10-06T12:01:40.808+0530][gc           ] GC(0) Pause Young (Concurrent Start) (Metadata GC Threshold) 41M->6M(1024M) 21.866ms
[2021-10-06T12:01:40.808+0530][gc,cpu       ] GC(0) User=0.03s Sys=0.00s Real=0.02s
[2021-10-06T12:01:40.808+0530][gc           ] GC(1) Concurrent Cycle
[2021-10-06T12:01:40.808+0530][gc,marking   ] GC(1) Concurrent Clear Claimed Marks
[2021-10-06T12:01:40.808+0530][gc,marking   ] GC(1) Concurrent Clear Claimed Marks 0.033ms
[2021-10-06T12:01:40.808+0530][gc,marking   ] GC(1) Concurrent Scan Root Regions
[2021-10-06T12:01:40.811+0530][gc,marking   ] GC(1) Concurrent Scan Root Regions 2.742ms
[2021-10-06T12:01:40.811+0530][gc,marking   ] GC(1) Concurrent Mark (1.627s)
[2021-10-06T12:01:40.811+0530][gc,marking   ] GC(1) Concurrent Mark From Roots
[2021-10-06T12:01:40.811+0530][gc,task      ] GC(1) Using 1 workers of 1 for marking
[2021-10-06T12:01:40.811+0530][gc,marking   ] GC(1) Concurrent Mark From Roots 0.149ms
[2021-10-06T12:01:40.811+0530][gc,marking   ] GC(1) Concurrent Preclean
[2021-10-06T12:01:40.811+0530][gc,marking   ] GC(1) Concurrent Preclean 0.022ms
[2021-10-06T12:01:40.811+0530][gc,marking   ] GC(1) Concurrent Mark (1.627s, 1.627s) 0.207ms
[2021-10-06T12:01:40.812+0530][gc,start     ] GC(1) Pause Remark
[2021-10-06T12:01:40.814+0530][gc,stringtable] GC(1) Cleaned string and symbol table, strings: 7147 processed, 0 removed, symbols: 63370 processed, 31 removed
[2021-10-06T12:01:40.814+0530][gc            ] GC(1) Pause Remark 6M->6M(1024M) 2.055ms
[2021-10-06T12:01:40.814+0530][gc,cpu        ] GC(1) User=0.01s Sys=0.00s Real=0.00s
[2021-10-06T12:01:40.814+0530][gc,marking    ] GC(1) Concurrent Rebuild Remembered Sets
[2021-10-06T12:01:40.814+0530][gc,marking    ] GC(1) Concurrent Rebuild Remembered Sets 0.079ms
[2021-10-06T12:01:40.814+0530][gc,start      ] GC(1) Pause Cleanup
[2021-10-06T12:01:40.814+0530][gc            ] GC(1) Pause Cleanup 7M->7M(1024M) 0.080ms
[2021-10-06T12:01:40.814+0530][gc,cpu        ] GC(1) User=0.00s Sys=0.00s Real=0.00s
[2021-10-06T12:01:40.814+0530][gc,marking    ] GC(1) Concurrent Cleanup for Next Mark
[2021-10-06T12:01:40.832+0530][gc,marking    ] GC(1) Concurrent Cleanup for Next Mark 17.654ms
[2021-10-06T12:01:40.832+0530][gc            ] GC(1) Concurrent Cycle 23.949ms
[2021-10-06T12:01:42.229+0530][gc,start      ] GC(2) Pause Young (Normal) (G1 Evacuation Pause)
[2021-10-06T12:01:42.229+0530][gc,task       ] GC(2) Using 4 workers of 4 for evacuation
[2021-10-06T12:01:42.246+0530][gc,phases     ] GC(2)   Pre Evacuate Collection Set: 0.0ms
[2021-10-06T12:01:42.246+0530][gc,phases     ] GC(2)   Evacuate Collection Set: 15.9ms
[2021-10-06T12:01:42.246+0530][gc,phases     ] GC(2)   Post Evacuate Collection Set: 0.6ms
[2021-10-06T12:01:42.246+0530][gc,phases     ] GC(2)   Other: 0.2ms
[2021-10-06T12:01:42.246+0530][gc,heap       ] GC(2) Eden regions: 44->0(49)
[2021-10-06T12:01:42.246+0530][gc,heap       ] GC(2) Survivor regions: 7->2(7)
[2021-10-06T12:01:42.246+0530][gc,heap       ] GC(2) Old regions: 0->7
[2021-10-06T12:01:42.246+0530][gc,heap       ] GC(2) Humongous regions: 0->0
[2021-10-06T12:01:42.246+0530][gc,metaspace  ] GC(2) Metaspace: 30352K->30352K(1077248K)
[2021-10-06T12:01:42.246+0530][gc            ] GC(2) Pause Young (Normal) (G1 Evacuation Pause) 50M->8M(1024M) 16.986ms
[2021-10-06T12:01:42.246+0530][gc,cpu        ] GC(2) User=0.04s Sys=0.00s Real=0.02s
[2021-10-06T12:01:43.153+0530][gc,start      ] GC(3) Pause Young (Concurrent Start) (Metadata GC Threshold)
[2021-10-06T12:01:43.153+0530][gc,task       ] GC(3) Using 4 workers of 4 for evacuation
[2021-10-06T12:01:43.157+0530][gc,phases     ] GC(3)   Pre Evacuate Collection Set: 0.1ms
[2021-10-06T12:01:43.157+0530][gc,phases     ] GC(3)   Evacuate Collection Set: 3.8ms
[2021-10-06T12:01:43.157+0530][gc,phases     ] GC(3)   Post Evacuate Collection Set: 0.2ms
[2021-10-06T12:01:43.157+0530][gc,phases     ] GC(3)   Other: 0.2ms
[2021-10-06T12:01:43.157+0530][gc,heap       ] GC(3) Eden regions: 24->0(47)
[2021-10-06T12:01:43.157+0530][gc,heap       ] GC(3) Survivor regions: 2->4(7)
[2021-10-06T12:01:43.157+0530][gc,heap       ] GC(3) Old regions: 7->7
[2021-10-06T12:01:43.157+0530][gc,heap       ] GC(3) Humongous regions: 129->129
[2021-10-06T12:01:43.157+0530][gc,metaspace  ] GC(3) Metaspace: 34534K->34534K(1081344K)
[2021-10-06T12:01:43.157+0530][gc            ] GC(3) Pause Young (Concurrent Start) (Metadata GC Threshold) 161M->138M(1024M) 4.378ms
[2021-10-06T12:01:43.157+0530][gc,cpu        ] GC(3) User=0.01s Sys=0.00s Real=0.00s
[2021-10-06T12:01:43.157+0530][gc            ] GC(4) Concurrent Cycle
[2021-10-06T12:01:43.157+0530][gc,marking    ] GC(4) Concurrent Clear Claimed Marks
[2021-10-06T12:01:43.157+0530][gc,marking    ] GC(4) Concurrent Clear Claimed Marks 0.067ms
[2021-10-06T12:01:43.157+0530][gc,marking    ] GC(4) Concurrent Scan Root Regions
[2021-10-06T12:01:43.160+0530][gc,marking    ] GC(4) Concurrent Scan Root Regions 2.415ms
[2021-10-06T12:01:43.160+0530][gc,marking    ] GC(4) Concurrent Mark (3.975s)
[2021-10-06T12:01:43.160+0530][gc,marking    ] GC(4) Concurrent Mark From Roots
[2021-10-06T12:01:43.160+0530][gc,task       ] GC(4) Using 1 workers of 1 for marking
[2021-10-06T12:01:43.168+0530][gc,marking    ] GC(4) Concurrent Mark From Roots 8.847ms
[2021-10-06T12:01:43.169+0530][gc,marking    ] GC(4) Concurrent Preclean
[2021-10-06T12:01:43.169+0530][gc,marking    ] GC(4) Concurrent Preclean 0.047ms
[2021-10-06T12:01:43.169+0530][gc,marking    ] GC(4) Concurrent Mark (3.975s, 3.984s) 8.947ms
[2021-10-06T12:01:43.169+0530][gc,start      ] GC(4) Pause Remark
[2021-10-06T12:01:43.172+0530][gc,stringtable] GC(4) Cleaned string and symbol table, strings: 10857 processed, 9 removed, symbols: 94615 processed, 22 removed
[2021-10-06T12:01:43.172+0530][gc            ] GC(4) Pause Remark 139M->139M(1024M) 2.867ms
[2021-10-06T12:01:43.172+0530][gc,cpu        ] GC(4) User=0.01s Sys=0.00s Real=0.01s
[2021-10-06T12:01:43.172+0530][gc,marking    ] GC(4) Concurrent Rebuild Remembered Sets
[2021-10-06T12:01:43.177+0530][gc,marking    ] GC(4) Concurrent Rebuild Remembered Sets 4.978ms
[2021-10-06T12:01:43.177+0530][gc,start      ] GC(4) Pause Cleanup
[2021-10-06T12:01:43.177+0530][gc            ] GC(4) Pause Cleanup 139M->139M(1024M) 0.115ms
[2021-10-06T12:01:43.177+0530][gc,cpu        ] GC(4) User=0.00s Sys=0.00s Real=0.00s
[2021-10-06T12:01:43.177+0530][gc,marking    ] GC(4) Concurrent Cleanup for Next Mark
[2021-10-06T12:01:43.191+0530][gc,marking    ] GC(4) Concurrent Cleanup for Next Mark 13.588ms
[2021-10-06T12:01:43.191+0530][gc            ] GC(4) Concurrent Cycle 33.546ms
[2021-10-06T12:01:44.224+0530][gc,start      ] GC(5) Pause Young (Normal) (G1 Evacuation Pause)
[2021-10-06T12:01:44.224+0530][gc,task       ] GC(5) Using 4 workers of 4 for evacuation
[2021-10-06T12:01:44.234+0530][gc,phases     ] GC(5)   Pre Evacuate Collection Set: 0.0ms
[2021-10-06T12:01:44.234+0530][gc,phases     ] GC(5)   Evacuate Collection Set: 9.9ms
[2021-10-06T12:01:44.234+0530][gc,phases     ] GC(5)   Post Evacuate Collection Set: 0.5ms
[2021-10-06T12:01:44.234+0530][gc,phases     ] GC(5)   Other: 0.2ms
[2021-10-06T12:01:44.234+0530][gc,heap       ] GC(5) Eden regions: 47->0(44)
[2021-10-06T12:01:44.234+0530][gc,heap       ] GC(5) Survivor regions: 4->7(7)
[2021-10-06T12:01:44.234+0530][gc,heap       ] GC(5) Old regions: 7->7
[2021-10-06T12:01:44.234+0530][gc,heap       ] GC(5) Humongous regions: 129->129
[2021-10-06T12:01:44.234+0530][gc,metaspace  ] GC(5) Metaspace: 43285K->43285K(1089536K)
[2021-10-06T12:01:44.234+0530][gc            ] GC(5) Pause Young (Normal) (G1 Evacuation Pause) 185M->142M(1024M) 10.658ms
[2021-10-06T12:01:44.234+0530][gc,cpu        ] GC(5) User=0.03s Sys=0.00s Real=0.01s
[2021-10-06T12:04:50.099+0530][gc,start      ] GC(6) Pause Young (Normal) (G1 Evacuation Pause)
[2021-10-06T12:04:50.100+0530][gc,task       ] GC(6) Using 4 workers of 4 for evacuation
[2021-10-06T12:04:50.119+0530][gc,phases     ] GC(6)   Pre Evacuate Collection Set: 0.0ms
[2021-10-06T12:04:50.119+0530][gc,phases     ] GC(6)   Evacuate Collection Set: 18.2ms
[2021-10-06T12:04:50.119+0530][gc,phases     ] GC(6)   Post Evacuate Collection Set: 0.7ms
[2021-10-06T12:04:50.119+0530][gc,phases     ] GC(6)   Other: 1.7ms
[2021-10-06T12:04:50.119+0530][gc,heap       ] GC(6) Eden regions: 44->0(47)
[2021-10-06T12:04:50.119+0530][gc,heap       ] GC(6) Survivor regions: 7->4(7)
[2021-10-06T12:04:50.119+0530][gc,heap       ] GC(6) Old regions: 7->14
[2021-10-06T12:04:50.119+0530][gc,heap       ] GC(6) Humongous regions: 141->129
[2021-10-06T12:04:50.119+0530][gc,metaspace  ] GC(6) Metaspace: 49728K->49728K(1093632K)
[2021-10-06T12:04:50.119+0530][gc            ] GC(6) Pause Young (Normal) (G1 Evacuation Pause) 198M->145M(1024M) 20.687ms
[2021-10-06T12:04:50.119+0530][gc,cpu        ] GC(6) User=0.03s Sys=0.01s Real=0.02s
[2021-10-06T12:13:35.882+0530][gc,heap,exit  ] Heap
[2021-10-06T12:13:35.884+0530][gc,heap,exit  ]  garbage-first heap   total 1048576K, used 190074K [0x00000007c0000000, 0x0000000800000000)
[2021-10-06T12:13:35.884+0530][gc,heap,exit  ]   region size 1024K, 45 young (46080K), 4 survivors (4096K)
[2021-10-06T12:13:35.884+0530][gc,heap,exit  ]  Metaspace       used 51149K, capacity 53996K, committed 54272K, reserved 1095680K
[2021-10-06T12:13:35.885+0530][gc,heap,exit  ]   class space    used 6493K, capacity 7884K, committed 7936K, reserved 1048576K
