[2021-09-02T23:26:26.626+0530][gc,heap] Heap region size: 1M
[2021-09-02T23:26:26.634+0530][gc     ] Using G1
[2021-09-02T23:26:26.634+0530][gc,heap,coops] Heap address: 0x00000007c0000000, size: 1024 MB, Compressed Oops mode: Zero based, Oop shift amount: 3
[2021-09-02T23:26:27.483+0530][gc,start     ] GC(0) Pause Young (Concurrent Start) (Metadata GC Threshold)
[2021-09-02T23:26:27.483+0530][gc,task      ] GC(0) Using 4 workers of 4 for evacuation
[2021-09-02T23:26:27.494+0530][gc,phases    ] GC(0)   Pre Evacuate Collection Set: 0.0ms
[2021-09-02T23:26:27.494+0530][gc,phases    ] GC(0)   Evacuate Collection Set: 10.0ms
[2021-09-02T23:26:27.494+0530][gc,phases    ] GC(0)   Post Evacuate Collection Set: 0.3ms
[2021-09-02T23:26:27.494+0530][gc,phases    ] GC(0)   Other: 0.5ms
[2021-09-02T23:26:27.494+0530][gc,heap      ] GC(0) Eden regions: 42->0(44)
[2021-09-02T23:26:27.494+0530][gc,heap      ] GC(0) Survivor regions: 0->7(7)
[2021-09-02T23:26:27.494+0530][gc,heap      ] GC(0) Old regions: 0->0
[2021-09-02T23:26:27.494+0530][gc,heap      ] GC(0) Humongous regions: 0->0
[2021-09-02T23:26:27.494+0530][gc,metaspace ] GC(0) Metaspace: 20682K->20682K(1069056K)
[2021-09-02T23:26:27.494+0530][gc           ] GC(0) Pause Young (Concurrent Start) (Metadata GC Threshold) 41M->6M(1024M) 10.994ms
[2021-09-02T23:26:27.494+0530][gc,cpu       ] GC(0) User=0.02s Sys=0.01s Real=0.01s
[2021-09-02T23:26:27.494+0530][gc           ] GC(1) Concurrent Cycle
[2021-09-02T23:26:27.494+0530][gc,marking   ] GC(1) Concurrent Clear Claimed Marks
[2021-09-02T23:26:27.494+0530][gc,marking   ] GC(1) Concurrent Clear Claimed Marks 0.033ms
[2021-09-02T23:26:27.494+0530][gc,marking   ] GC(1) Concurrent Scan Root Regions
[2021-09-02T23:26:27.500+0530][gc,marking   ] GC(1) Concurrent Scan Root Regions 5.371ms
[2021-09-02T23:26:27.500+0530][gc,marking   ] GC(1) Concurrent Mark (0.879s)
[2021-09-02T23:26:27.500+0530][gc,marking   ] GC(1) Concurrent Mark From Roots
[2021-09-02T23:26:27.500+0530][gc,task      ] GC(1) Using 1 workers of 1 for marking
[2021-09-02T23:26:27.500+0530][gc,marking   ] GC(1) Concurrent Mark From Roots 0.169ms
[2021-09-02T23:26:27.500+0530][gc,marking   ] GC(1) Concurrent Preclean
[2021-09-02T23:26:27.500+0530][gc,marking   ] GC(1) Concurrent Preclean 0.028ms
[2021-09-02T23:26:27.500+0530][gc,marking   ] GC(1) Concurrent Mark (0.879s, 0.880s) 0.249ms
[2021-09-02T23:26:27.500+0530][gc,start     ] GC(1) Pause Remark
[2021-09-02T23:26:27.502+0530][gc,stringtable] GC(1) Cleaned string and symbol table, strings: 7145 processed, 0 removed, symbols: 63416 processed, 31 removed
[2021-09-02T23:26:27.502+0530][gc            ] GC(1) Pause Remark 7M->7M(1024M) 1.830ms
[2021-09-02T23:26:27.502+0530][gc,cpu        ] GC(1) User=0.01s Sys=0.00s Real=0.00s
[2021-09-02T23:26:27.502+0530][gc,marking    ] GC(1) Concurrent Rebuild Remembered Sets
[2021-09-02T23:26:27.502+0530][gc,marking    ] GC(1) Concurrent Rebuild Remembered Sets 0.132ms
[2021-09-02T23:26:27.502+0530][gc,start      ] GC(1) Pause Cleanup
[2021-09-02T23:26:27.503+0530][gc            ] GC(1) Pause Cleanup 7M->7M(1024M) 0.107ms
[2021-09-02T23:26:27.503+0530][gc,cpu        ] GC(1) User=0.00s Sys=0.00s Real=0.00s
[2021-09-02T23:26:27.503+0530][gc,marking    ] GC(1) Concurrent Cleanup for Next Mark
[2021-09-02T23:26:27.516+0530][gc,marking    ] GC(1) Concurrent Cleanup for Next Mark 13.143ms
[2021-09-02T23:26:27.516+0530][gc            ] GC(1) Concurrent Cycle 21.691ms
[2021-09-02T23:26:28.294+0530][gc,start      ] GC(2) Pause Young (Normal) (G1 Evacuation Pause)
[2021-09-02T23:26:28.294+0530][gc,task       ] GC(2) Using 4 workers of 4 for evacuation
[2021-09-02T23:26:28.308+0530][gc,phases     ] GC(2)   Pre Evacuate Collection Set: 0.0ms
[2021-09-02T23:26:28.308+0530][gc,phases     ] GC(2)   Evacuate Collection Set: 12.9ms
[2021-09-02T23:26:28.308+0530][gc,phases     ] GC(2)   Post Evacuate Collection Set: 0.4ms
[2021-09-02T23:26:28.308+0530][gc,phases     ] GC(2)   Other: 0.2ms
[2021-09-02T23:26:28.308+0530][gc,heap       ] GC(2) Eden regions: 44->0(49)
[2021-09-02T23:26:28.308+0530][gc,heap       ] GC(2) Survivor regions: 7->2(7)
[2021-09-02T23:26:28.308+0530][gc,heap       ] GC(2) Old regions: 0->7
[2021-09-02T23:26:28.308+0530][gc,heap       ] GC(2) Humongous regions: 0->0
[2021-09-02T23:26:28.308+0530][gc,metaspace  ] GC(2) Metaspace: 30362K->30362K(1077248K)
[2021-09-02T23:26:28.308+0530][gc            ] GC(2) Pause Young (Normal) (G1 Evacuation Pause) 50M->8M(1024M) 13.713ms
[2021-09-02T23:26:28.308+0530][gc,cpu        ] GC(2) User=0.04s Sys=0.01s Real=0.01s
[2021-09-02T23:26:28.801+0530][gc,start      ] GC(3) Pause Young (Concurrent Start) (Metadata GC Threshold)
[2021-09-02T23:26:28.801+0530][gc,task       ] GC(3) Using 4 workers of 4 for evacuation
[2021-09-02T23:26:28.806+0530][gc,phases     ] GC(3)   Pre Evacuate Collection Set: 0.1ms
[2021-09-02T23:26:28.806+0530][gc,phases     ] GC(3)   Evacuate Collection Set: 3.7ms
[2021-09-02T23:26:28.806+0530][gc,phases     ] GC(3)   Post Evacuate Collection Set: 0.8ms
[2021-09-02T23:26:28.806+0530][gc,phases     ] GC(3)   Other: 0.2ms
[2021-09-02T23:26:28.806+0530][gc,heap       ] GC(3) Eden regions: 24->0(47)
[2021-09-02T23:26:28.806+0530][gc,heap       ] GC(3) Survivor regions: 2->4(7)
[2021-09-02T23:26:28.806+0530][gc,heap       ] GC(3) Old regions: 7->7
[2021-09-02T23:26:28.806+0530][gc,heap       ] GC(3) Humongous regions: 129->129
[2021-09-02T23:26:28.806+0530][gc,metaspace  ] GC(3) Metaspace: 34597K->34597K(1081344K)
[2021-09-02T23:26:28.806+0530][gc            ] GC(3) Pause Young (Concurrent Start) (Metadata GC Threshold) 160M->138M(1024M) 4.816ms
[2021-09-02T23:26:28.806+0530][gc,cpu        ] GC(3) User=0.02s Sys=0.00s Real=0.00s
[2021-09-02T23:26:28.806+0530][gc            ] GC(4) Concurrent Cycle
[2021-09-02T23:26:28.806+0530][gc,marking    ] GC(4) Concurrent Clear Claimed Marks
[2021-09-02T23:26:28.806+0530][gc,marking    ] GC(4) Concurrent Clear Claimed Marks 0.060ms
[2021-09-02T23:26:28.806+0530][gc,marking    ] GC(4) Concurrent Scan Root Regions
[2021-09-02T23:26:28.808+0530][gc,marking    ] GC(4) Concurrent Scan Root Regions 2.401ms
[2021-09-02T23:26:28.808+0530][gc,marking    ] GC(4) Concurrent Mark (2.188s)
[2021-09-02T23:26:28.808+0530][gc,marking    ] GC(4) Concurrent Mark From Roots
[2021-09-02T23:26:28.808+0530][gc,task       ] GC(4) Using 1 workers of 1 for marking
[2021-09-02T23:26:28.816+0530][gc,marking    ] GC(4) Concurrent Mark From Roots 8.083ms
[2021-09-02T23:26:28.816+0530][gc,marking    ] GC(4) Concurrent Preclean
[2021-09-02T23:26:28.816+0530][gc,marking    ] GC(4) Concurrent Preclean 0.048ms
[2021-09-02T23:26:28.816+0530][gc,marking    ] GC(4) Concurrent Mark (2.188s, 2.196s) 8.180ms
[2021-09-02T23:26:28.817+0530][gc,start      ] GC(4) Pause Remark
[2021-09-02T23:26:28.819+0530][gc,stringtable] GC(4) Cleaned string and symbol table, strings: 10898 processed, 9 removed, symbols: 94778 processed, 22 removed
[2021-09-02T23:26:28.819+0530][gc            ] GC(4) Pause Remark 140M->140M(1024M) 2.507ms
[2021-09-02T23:26:28.819+0530][gc,cpu        ] GC(4) User=0.01s Sys=0.00s Real=0.00s
[2021-09-02T23:26:28.819+0530][gc,marking    ] GC(4) Concurrent Rebuild Remembered Sets
[2021-09-02T23:26:28.823+0530][gc,marking    ] GC(4) Concurrent Rebuild Remembered Sets 4.344ms
[2021-09-02T23:26:28.824+0530][gc,start      ] GC(4) Pause Cleanup
[2021-09-02T23:26:28.824+0530][gc            ] GC(4) Pause Cleanup 140M->140M(1024M) 0.108ms
[2021-09-02T23:26:28.824+0530][gc,cpu        ] GC(4) User=0.00s Sys=0.00s Real=0.00s
[2021-09-02T23:26:28.824+0530][gc,marking    ] GC(4) Concurrent Cleanup for Next Mark
[2021-09-02T23:26:28.831+0530][gc,marking    ] GC(4) Concurrent Cleanup for Next Mark 7.366ms
[2021-09-02T23:26:28.831+0530][gc            ] GC(4) Concurrent Cycle 25.430ms
[2021-09-02T23:26:29.380+0530][gc,start      ] GC(5) Pause Young (Normal) (G1 Evacuation Pause)
[2021-09-02T23:26:29.380+0530][gc,task       ] GC(5) Using 4 workers of 4 for evacuation
[2021-09-02T23:26:29.389+0530][gc,phases     ] GC(5)   Pre Evacuate Collection Set: 0.0ms
[2021-09-02T23:26:29.389+0530][gc,phases     ] GC(5)   Evacuate Collection Set: 8.3ms
[2021-09-02T23:26:29.389+0530][gc,phases     ] GC(5)   Post Evacuate Collection Set: 0.3ms
[2021-09-02T23:26:29.389+0530][gc,phases     ] GC(5)   Other: 0.1ms
[2021-09-02T23:26:29.389+0530][gc,heap       ] GC(5) Eden regions: 47->0(44)
[2021-09-02T23:26:29.389+0530][gc,heap       ] GC(5) Survivor regions: 4->7(7)
[2021-09-02T23:26:29.389+0530][gc,heap       ] GC(5) Old regions: 7->7
[2021-09-02T23:26:29.389+0530][gc,heap       ] GC(5) Humongous regions: 129->129
[2021-09-02T23:26:29.389+0530][gc,metaspace  ] GC(5) Metaspace: 43113K->43113K(1089536K)
[2021-09-02T23:26:29.389+0530][gc            ] GC(5) Pause Young (Normal) (G1 Evacuation Pause) 185M->142M(1024M) 8.884ms
[2021-09-02T23:26:29.389+0530][gc,cpu        ] GC(5) User=0.02s Sys=0.01s Real=0.00s
[2021-09-02T23:29:25.913+0530][gc,start      ] GC(6) Pause Young (Normal) (G1 Evacuation Pause)
[2021-09-02T23:29:25.914+0530][gc,task       ] GC(6) Using 4 workers of 4 for evacuation
[2021-09-02T23:29:25.929+0530][gc,phases     ] GC(6)   Pre Evacuate Collection Set: 0.1ms
[2021-09-02T23:29:25.929+0530][gc,phases     ] GC(6)   Evacuate Collection Set: 13.6ms
[2021-09-02T23:29:25.929+0530][gc,phases     ] GC(6)   Post Evacuate Collection Set: 0.7ms
[2021-09-02T23:29:25.929+0530][gc,phases     ] GC(6)   Other: 1.9ms
[2021-09-02T23:29:25.929+0530][gc,heap       ] GC(6) Eden regions: 44->0(47)
[2021-09-02T23:29:25.929+0530][gc,heap       ] GC(6) Survivor regions: 7->4(7)
[2021-09-02T23:29:25.929+0530][gc,heap       ] GC(6) Old regions: 7->14
[2021-09-02T23:29:25.929+0530][gc,heap       ] GC(6) Humongous regions: 183->129
[2021-09-02T23:29:25.929+0530][gc,metaspace  ] GC(6) Metaspace: 49637K->49637K(1093632K)
[2021-09-02T23:29:25.929+0530][gc            ] GC(6) Pause Young (Normal) (G1 Evacuation Pause) 240M->145M(1024M) 16.452ms
[2021-09-02T23:29:25.929+0530][gc,cpu        ] GC(6) User=0.06s Sys=0.00s Real=0.01s
[2021-09-02T23:41:07.804+0530][gc,start      ] GC(7) Pause Young (Normal) (G1 Evacuation Pause)
[2021-09-02T23:41:07.804+0530][gc,task       ] GC(7) Using 4 workers of 4 for evacuation
[2021-09-02T23:41:07.834+0530][gc,mmu        ] GC(7) MMU target violated: 21.0ms (20.0ms/21.0ms)
[2021-09-02T23:41:07.834+0530][gc,phases     ] GC(7)   Pre Evacuate Collection Set: 1.2ms
[2021-09-02T23:41:07.834+0530][gc,phases     ] GC(7)   Evacuate Collection Set: 27.0ms
[2021-09-02T23:41:07.834+0530][gc,phases     ] GC(7)   Post Evacuate Collection Set: 1.0ms
[2021-09-02T23:41:07.834+0530][gc,phases     ] GC(7)   Other: 0.7ms
[2021-09-02T23:41:07.834+0530][gc,heap       ] GC(7) Eden regions: 47->0(46)
[2021-09-02T23:41:07.834+0530][gc,heap       ] GC(7) Survivor regions: 4->5(7)
[2021-09-02T23:41:07.834+0530][gc,heap       ] GC(7) Old regions: 14->14
[2021-09-02T23:41:07.834+0530][gc,heap       ] GC(7) Humongous regions: 129->129
[2021-09-02T23:41:07.834+0530][gc,metaspace  ] GC(7) Metaspace: 50271K->50271K(1095680K)
[2021-09-02T23:41:07.834+0530][gc            ] GC(7) Pause Young (Normal) (G1 Evacuation Pause) 192M->147M(1024M) 30.015ms
[2021-09-02T23:41:07.834+0530][gc,cpu        ] GC(7) User=0.03s Sys=0.04s Real=0.03s
[2021-09-02T23:54:09.131+0530][gc,start      ] GC(8) Pause Young (Normal) (G1 Evacuation Pause)
[2021-09-02T23:54:09.133+0530][gc,task       ] GC(8) Using 4 workers of 4 for evacuation
[2021-09-02T23:54:09.157+0530][gc,mmu        ] GC(8) MMU target violated: 21.0ms (20.0ms/21.0ms)
[2021-09-02T23:54:09.157+0530][gc,phases     ] GC(8)   Pre Evacuate Collection Set: 1.2ms
[2021-09-02T23:54:09.157+0530][gc,phases     ] GC(8)   Evacuate Collection Set: 21.3ms
[2021-09-02T23:54:09.157+0530][gc,phases     ] GC(8)   Post Evacuate Collection Set: 1.2ms
[2021-09-02T23:54:09.157+0530][gc,phases     ] GC(8)   Other: 2.1ms
[2021-09-02T23:54:09.157+0530][gc,heap       ] GC(8) Eden regions: 46->0(48)
[2021-09-02T23:54:09.157+0530][gc,heap       ] GC(8) Survivor regions: 5->3(7)
[2021-09-02T23:54:09.157+0530][gc,heap       ] GC(8) Old regions: 14->16
[2021-09-02T23:54:09.157+0530][gc,heap       ] GC(8) Humongous regions: 129->129
[2021-09-02T23:54:09.157+0530][gc,metaspace  ] GC(8) Metaspace: 50623K->50623K(1095680K)
[2021-09-02T23:54:09.157+0530][gc            ] GC(8) Pause Young (Normal) (G1 Evacuation Pause) 193M->146M(1024M) 25.894ms
[2021-09-02T23:54:09.157+0530][gc,cpu        ] GC(8) User=0.02s Sys=0.02s Real=0.02s
[2021-09-03T00:08:59.658+0530][gc,start      ] GC(9) Pause Young (Normal) (G1 Evacuation Pause)
[2021-09-03T00:08:59.660+0530][gc,task       ] GC(9) Using 4 workers of 4 for evacuation
[2021-09-03T00:08:59.689+0530][gc,mmu        ] GC(9) MMU target violated: 21.0ms (20.0ms/21.0ms)
[2021-09-03T00:08:59.689+0530][gc,phases     ] GC(9)   Pre Evacuate Collection Set: 1.1ms
[2021-09-03T00:08:59.689+0530][gc,phases     ] GC(9)   Evacuate Collection Set: 26.6ms
[2021-09-03T00:08:59.689+0530][gc,phases     ] GC(9)   Post Evacuate Collection Set: 0.4ms
[2021-09-03T00:08:59.689+0530][gc,phases     ] GC(9)   Other: 2.2ms
[2021-09-03T00:08:59.689+0530][gc,heap       ] GC(9) Eden regions: 48->0(48)
[2021-09-03T00:08:59.689+0530][gc,heap       ] GC(9) Survivor regions: 3->3(7)
[2021-09-03T00:08:59.689+0530][gc,heap       ] GC(9) Old regions: 16->16
[2021-09-03T00:08:59.689+0530][gc,heap       ] GC(9) Humongous regions: 129->129
[2021-09-03T00:08:59.689+0530][gc,metaspace  ] GC(9) Metaspace: 50766K->50766K(1095680K)
[2021-09-03T00:08:59.689+0530][gc            ] GC(9) Pause Young (Normal) (G1 Evacuation Pause) 194M->147M(1024M) 30.389ms
[2021-09-03T00:08:59.689+0530][gc,cpu        ] GC(9) User=0.02s Sys=0.03s Real=0.03s
[2021-09-03T00:20:16.643+0530][gc,heap,exit  ] Heap
[2021-09-03T00:20:16.645+0530][gc,heap,exit  ]  garbage-first heap   total 1048576K, used 193734K [0x00000007c0000000, 0x0000000800000000)
[2021-09-03T00:20:16.645+0530][gc,heap,exit  ]   region size 1024K, 47 young (48128K), 3 survivors (3072K)
[2021-09-03T00:20:16.645+0530][gc,heap,exit  ]  Metaspace       used 51635K, capacity 54509K, committed 54600K, reserved 1095680K
[2021-09-03T00:20:16.645+0530][gc,heap,exit  ]   class space    used 6495K, capacity 7882K, committed 7936K, reserved 1048576K
