[2021-09-03T12:55:31.717+0530][gc,heap] Heap region size: 1M
[2021-09-03T12:55:31.727+0530][gc     ] Using G1
[2021-09-03T12:55:31.728+0530][gc,heap,coops] Heap address: 0x00000007c0000000, size: 1024 MB, Compressed Oops mode: Zero based, Oop shift amount: 3
[2021-09-03T12:55:33.799+0530][gc,start     ] GC(0) Pause Young (Concurrent Start) (Metadata GC Threshold)
[2021-09-03T12:55:33.799+0530][gc,task      ] GC(0) Using 4 workers of 4 for evacuation
[2021-09-03T12:55:33.807+0530][gc,phases    ] GC(0)   Pre Evacuate Collection Set: 0.0ms
[2021-09-03T12:55:33.808+0530][gc,phases    ] GC(0)   Evacuate Collection Set: 7.9ms
[2021-09-03T12:55:33.808+0530][gc,phases    ] GC(0)   Post Evacuate Collection Set: 0.4ms
[2021-09-03T12:55:33.808+0530][gc,phases    ] GC(0)   Other: 0.7ms
[2021-09-03T12:55:33.808+0530][gc,heap      ] GC(0) Eden regions: 42->0(44)
[2021-09-03T12:55:33.808+0530][gc,heap      ] GC(0) Survivor regions: 0->7(7)
[2021-09-03T12:55:33.808+0530][gc,heap      ] GC(0) Old regions: 0->0
[2021-09-03T12:55:33.808+0530][gc,heap      ] GC(0) Humongous regions: 0->0
[2021-09-03T12:55:33.808+0530][gc,metaspace ] GC(0) Metaspace: 20766K->20766K(1069056K)
[2021-09-03T12:55:33.808+0530][gc           ] GC(0) Pause Young (Concurrent Start) (Metadata GC Threshold) 41M->6M(1024M) 9.118ms
[2021-09-03T12:55:33.808+0530][gc,cpu       ] GC(0) User=0.02s Sys=0.01s Real=0.01s
[2021-09-03T12:55:33.808+0530][gc           ] GC(1) Concurrent Cycle
[2021-09-03T12:55:33.808+0530][gc,marking   ] GC(1) Concurrent Clear Claimed Marks
[2021-09-03T12:55:33.808+0530][gc,marking   ] GC(1) Concurrent Clear Claimed Marks 0.036ms
[2021-09-03T12:55:33.808+0530][gc,marking   ] GC(1) Concurrent Scan Root Regions
[2021-09-03T12:55:33.813+0530][gc,marking   ] GC(1) Concurrent Scan Root Regions 4.861ms
[2021-09-03T12:55:33.813+0530][gc,marking   ] GC(1) Concurrent Mark (2.105s)
[2021-09-03T12:55:33.813+0530][gc,marking   ] GC(1) Concurrent Mark From Roots
[2021-09-03T12:55:33.813+0530][gc,task      ] GC(1) Using 1 workers of 1 for marking
[2021-09-03T12:55:33.813+0530][gc,marking   ] GC(1) Concurrent Mark From Roots 0.226ms
[2021-09-03T12:55:33.813+0530][gc,marking   ] GC(1) Concurrent Preclean
[2021-09-03T12:55:33.813+0530][gc,marking   ] GC(1) Concurrent Preclean 0.030ms
[2021-09-03T12:55:33.813+0530][gc,marking   ] GC(1) Concurrent Mark (2.105s, 2.105s) 0.326ms
[2021-09-03T12:55:33.813+0530][gc,start     ] GC(1) Pause Remark
[2021-09-03T12:55:33.817+0530][gc,stringtable] GC(1) Cleaned string and symbol table, strings: 7149 processed, 0 removed, symbols: 63430 processed, 31 removed
[2021-09-03T12:55:33.817+0530][gc            ] GC(1) Pause Remark 7M->7M(1024M) 3.934ms
[2021-09-03T12:55:33.817+0530][gc,cpu        ] GC(1) User=0.01s Sys=0.00s Real=0.00s
[2021-09-03T12:55:33.817+0530][gc,marking    ] GC(1) Concurrent Rebuild Remembered Sets
[2021-09-03T12:55:33.817+0530][gc,marking    ] GC(1) Concurrent Rebuild Remembered Sets 0.072ms
[2021-09-03T12:55:33.819+0530][gc,start      ] GC(1) Pause Cleanup
[2021-09-03T12:55:33.819+0530][gc            ] GC(1) Pause Cleanup 7M->7M(1024M) 0.111ms
[2021-09-03T12:55:33.819+0530][gc,cpu        ] GC(1) User=0.00s Sys=0.00s Real=0.00s
[2021-09-03T12:55:33.819+0530][gc,marking    ] GC(1) Concurrent Cleanup for Next Mark
[2021-09-03T12:55:33.832+0530][gc,marking    ] GC(1) Concurrent Cleanup for Next Mark 13.015ms
[2021-09-03T12:55:33.832+0530][gc            ] GC(1) Concurrent Cycle 24.401ms
[2021-09-03T12:55:35.484+0530][gc,start      ] GC(2) Pause Young (Normal) (G1 Evacuation Pause)
[2021-09-03T12:55:35.484+0530][gc,task       ] GC(2) Using 4 workers of 4 for evacuation
[2021-09-03T12:55:35.510+0530][gc,mmu        ] GC(2) MMU target violated: 21.0ms (20.0ms/21.0ms)
[2021-09-03T12:55:35.510+0530][gc,phases     ] GC(2)   Pre Evacuate Collection Set: 0.0ms
[2021-09-03T12:55:35.510+0530][gc,phases     ] GC(2)   Evacuate Collection Set: 24.3ms
[2021-09-03T12:55:35.510+0530][gc,phases     ] GC(2)   Post Evacuate Collection Set: 1.2ms
[2021-09-03T12:55:35.510+0530][gc,phases     ] GC(2)   Other: 0.2ms
[2021-09-03T12:55:35.510+0530][gc,heap       ] GC(2) Eden regions: 44->0(49)
[2021-09-03T12:55:35.510+0530][gc,heap       ] GC(2) Survivor regions: 7->2(7)
[2021-09-03T12:55:35.510+0530][gc,heap       ] GC(2) Old regions: 0->7
[2021-09-03T12:55:35.510+0530][gc,heap       ] GC(2) Humongous regions: 0->0
[2021-09-03T12:55:35.510+0530][gc,metaspace  ] GC(2) Metaspace: 30399K->30399K(1077248K)
[2021-09-03T12:55:35.510+0530][gc            ] GC(2) Pause Young (Normal) (G1 Evacuation Pause) 50M->8M(1024M) 26.023ms
[2021-09-03T12:55:35.510+0530][gc,cpu        ] GC(2) User=0.04s Sys=0.01s Real=0.03s
[2021-09-03T12:55:36.758+0530][gc,start      ] GC(3) Pause Young (Concurrent Start) (Metadata GC Threshold)
[2021-09-03T12:55:36.758+0530][gc,task       ] GC(3) Using 4 workers of 4 for evacuation
[2021-09-03T12:55:36.764+0530][gc,phases     ] GC(3)   Pre Evacuate Collection Set: 0.1ms
[2021-09-03T12:55:36.764+0530][gc,phases     ] GC(3)   Evacuate Collection Set: 4.9ms
[2021-09-03T12:55:36.764+0530][gc,phases     ] GC(3)   Post Evacuate Collection Set: 0.3ms
[2021-09-03T12:55:36.764+0530][gc,phases     ] GC(3)   Other: 0.2ms
[2021-09-03T12:55:36.764+0530][gc,heap       ] GC(3) Eden regions: 25->0(47)
[2021-09-03T12:55:36.764+0530][gc,heap       ] GC(3) Survivor regions: 2->4(7)
[2021-09-03T12:55:36.764+0530][gc,heap       ] GC(3) Old regions: 7->7
[2021-09-03T12:55:36.764+0530][gc,heap       ] GC(3) Humongous regions: 129->129
[2021-09-03T12:55:36.764+0530][gc,metaspace  ] GC(3) Metaspace: 34684K->34684K(1081344K)
[2021-09-03T12:55:36.764+0530][gc            ] GC(3) Pause Young (Concurrent Start) (Metadata GC Threshold) 162M->138M(1024M) 5.607ms
[2021-09-03T12:55:36.764+0530][gc,cpu        ] GC(3) User=0.01s Sys=0.00s Real=0.01s
[2021-09-03T12:55:36.764+0530][gc            ] GC(4) Concurrent Cycle
[2021-09-03T12:55:36.764+0530][gc,marking    ] GC(4) Concurrent Clear Claimed Marks
[2021-09-03T12:55:36.764+0530][gc,marking    ] GC(4) Concurrent Clear Claimed Marks 0.070ms
[2021-09-03T12:55:36.764+0530][gc,marking    ] GC(4) Concurrent Scan Root Regions
[2021-09-03T12:55:36.767+0530][gc,marking    ] GC(4) Concurrent Scan Root Regions 3.438ms
[2021-09-03T12:55:36.768+0530][gc,marking    ] GC(4) Concurrent Mark (5.060s)
[2021-09-03T12:55:36.768+0530][gc,marking    ] GC(4) Concurrent Mark From Roots
[2021-09-03T12:55:36.768+0530][gc,task       ] GC(4) Using 1 workers of 1 for marking
[2021-09-03T12:55:36.781+0530][gc,marking    ] GC(4) Concurrent Mark From Roots 13.230ms
[2021-09-03T12:55:36.781+0530][gc,marking    ] GC(4) Concurrent Preclean
[2021-09-03T12:55:36.781+0530][gc,marking    ] GC(4) Concurrent Preclean 0.058ms
[2021-09-03T12:55:36.781+0530][gc,marking    ] GC(4) Concurrent Mark (5.060s, 5.073s) 13.347ms
[2021-09-03T12:55:36.781+0530][gc,start      ] GC(4) Pause Remark
[2021-09-03T12:55:36.784+0530][gc,stringtable] GC(4) Cleaned string and symbol table, strings: 10879 processed, 9 removed, symbols: 94634 processed, 22 removed
[2021-09-03T12:55:36.784+0530][gc            ] GC(4) Pause Remark 139M->139M(1024M) 3.174ms
[2021-09-03T12:55:36.784+0530][gc,cpu        ] GC(4) User=0.01s Sys=0.00s Real=0.00s
[2021-09-03T12:55:36.784+0530][gc,marking    ] GC(4) Concurrent Rebuild Remembered Sets
[2021-09-03T12:55:36.792+0530][gc,marking    ] GC(4) Concurrent Rebuild Remembered Sets 7.618ms
[2021-09-03T12:55:36.792+0530][gc,start      ] GC(4) Pause Cleanup
[2021-09-03T12:55:36.792+0530][gc            ] GC(4) Pause Cleanup 139M->139M(1024M) 0.170ms
[2021-09-03T12:55:36.792+0530][gc,cpu        ] GC(4) User=0.00s Sys=0.00s Real=0.00s
[2021-09-03T12:55:36.792+0530][gc,marking    ] GC(4) Concurrent Cleanup for Next Mark
[2021-09-03T12:55:36.803+0530][gc,marking    ] GC(4) Concurrent Cleanup for Next Mark 10.695ms
[2021-09-03T12:55:36.803+0530][gc            ] GC(4) Concurrent Cycle 39.142ms
[2021-09-03T12:55:38.415+0530][gc,start      ] GC(5) Pause Young (Normal) (G1 Evacuation Pause)
[2021-09-03T12:55:38.415+0530][gc,task       ] GC(5) Using 4 workers of 4 for evacuation
[2021-09-03T12:55:38.428+0530][gc,phases     ] GC(5)   Pre Evacuate Collection Set: 0.0ms
[2021-09-03T12:55:38.429+0530][gc,phases     ] GC(5)   Evacuate Collection Set: 11.7ms
[2021-09-03T12:55:38.429+0530][gc,phases     ] GC(5)   Post Evacuate Collection Set: 1.1ms
[2021-09-03T12:55:38.429+0530][gc,phases     ] GC(5)   Other: 0.3ms
[2021-09-03T12:55:38.429+0530][gc,heap       ] GC(5) Eden regions: 47->0(44)
[2021-09-03T12:55:38.429+0530][gc,heap       ] GC(5) Survivor regions: 4->7(7)
[2021-09-03T12:55:38.429+0530][gc,heap       ] GC(5) Old regions: 7->7
[2021-09-03T12:55:38.429+0530][gc,heap       ] GC(5) Humongous regions: 129->129
[2021-09-03T12:55:38.429+0530][gc,metaspace  ] GC(5) Metaspace: 43487K->43487K(1089536K)
[2021-09-03T12:55:38.429+0530][gc            ] GC(5) Pause Young (Normal) (G1 Evacuation Pause) 185M->142M(1024M) 13.265ms
[2021-09-03T12:55:38.429+0530][gc,cpu        ] GC(5) User=0.04s Sys=0.00s Real=0.01s
[2021-09-03T12:59:08.975+0530][gc,start      ] GC(6) Pause Young (Normal) (G1 Evacuation Pause)
[2021-09-03T12:59:08.977+0530][gc,task       ] GC(6) Using 4 workers of 4 for evacuation
[2021-09-03T12:59:09.016+0530][gc,mmu        ] GC(6) MMU target violated: 21.0ms (20.0ms/21.0ms)
[2021-09-03T12:59:09.016+0530][gc,phases     ] GC(6)   Pre Evacuate Collection Set: 0.8ms
[2021-09-03T12:59:09.016+0530][gc,phases     ] GC(6)   Evacuate Collection Set: 36.3ms
[2021-09-03T12:59:09.016+0530][gc,phases     ] GC(6)   Post Evacuate Collection Set: 2.3ms
[2021-09-03T12:59:09.016+0530][gc,phases     ] GC(6)   Other: 1.9ms
[2021-09-03T12:59:09.017+0530][gc,heap       ] GC(6) Eden regions: 44->0(47)
[2021-09-03T12:59:09.017+0530][gc,heap       ] GC(6) Survivor regions: 7->4(7)
[2021-09-03T12:59:09.017+0530][gc,heap       ] GC(6) Old regions: 7->14
[2021-09-03T12:59:09.017+0530][gc,heap       ] GC(6) Humongous regions: 225->129
[2021-09-03T12:59:09.017+0530][gc,metaspace  ] GC(6) Metaspace: 49518K->49518K(1093632K)
[2021-09-03T12:59:09.017+0530][gc            ] GC(6) Pause Young (Normal) (G1 Evacuation Pause) 282M->145M(1024M) 41.445ms
[2021-09-03T12:59:09.017+0530][gc,cpu        ] GC(6) User=0.05s Sys=0.04s Real=0.04s
[2021-09-03T13:12:04.131+0530][gc,start      ] GC(7) Pause Young (Normal) (G1 Evacuation Pause)
[2021-09-03T13:12:04.132+0530][gc,task       ] GC(7) Using 4 workers of 4 for evacuation
[2021-09-03T13:12:04.178+0530][gc,mmu        ] GC(7) MMU target violated: 21.0ms (20.0ms/21.0ms)
[2021-09-03T13:12:04.178+0530][gc,phases     ] GC(7)   Pre Evacuate Collection Set: 1.1ms
[2021-09-03T13:12:04.178+0530][gc,phases     ] GC(7)   Evacuate Collection Set: 43.2ms
[2021-09-03T13:12:04.178+0530][gc,phases     ] GC(7)   Post Evacuate Collection Set: 0.7ms
[2021-09-03T13:12:04.178+0530][gc,phases     ] GC(7)   Other: 2.1ms
[2021-09-03T13:12:04.178+0530][gc,heap       ] GC(7) Eden regions: 47->0(46)
[2021-09-03T13:12:04.178+0530][gc,heap       ] GC(7) Survivor regions: 4->5(7)
[2021-09-03T13:12:04.178+0530][gc,heap       ] GC(7) Old regions: 14->14
[2021-09-03T13:12:04.178+0530][gc,heap       ] GC(7) Humongous regions: 129->129
[2021-09-03T13:12:04.178+0530][gc,metaspace  ] GC(7) Metaspace: 50330K->50330K(1095680K)
[2021-09-03T13:12:04.178+0530][gc            ] GC(7) Pause Young (Normal) (G1 Evacuation Pause) 192M->147M(1024M) 47.273ms
[2021-09-03T13:12:04.178+0530][gc,cpu        ] GC(7) User=0.02s Sys=0.02s Real=0.04s
[2021-09-03T13:29:30.220+0530][gc,start      ] GC(8) Pause Young (Normal) (G1 Evacuation Pause)
[2021-09-03T13:29:30.220+0530][gc,task       ] GC(8) Using 4 workers of 4 for evacuation
[2021-09-03T13:29:30.241+0530][gc,mmu        ] GC(8) MMU target violated: 20.7ms (20.0ms/21.0ms)
[2021-09-03T13:29:30.241+0530][gc,phases     ] GC(8)   Pre Evacuate Collection Set: 1.6ms
[2021-09-03T13:29:30.241+0530][gc,phases     ] GC(8)   Evacuate Collection Set: 17.9ms
[2021-09-03T13:29:30.241+0530][gc,phases     ] GC(8)   Post Evacuate Collection Set: 0.7ms
[2021-09-03T13:29:30.241+0530][gc,phases     ] GC(8)   Other: 1.6ms
[2021-09-03T13:29:30.241+0530][gc,heap       ] GC(8) Eden regions: 46->0(48)
[2021-09-03T13:29:30.242+0530][gc,heap       ] GC(8) Survivor regions: 5->3(7)
[2021-09-03T13:29:30.242+0530][gc,heap       ] GC(8) Old regions: 14->16
[2021-09-03T13:29:30.242+0530][gc,heap       ] GC(8) Humongous regions: 129->129
[2021-09-03T13:29:30.242+0530][gc,metaspace  ] GC(8) Metaspace: 50444K->50444K(1095680K)
[2021-09-03T13:29:30.242+0530][gc            ] GC(8) Pause Young (Normal) (G1 Evacuation Pause) 193M->147M(1024M) 21.905ms
[2021-09-03T13:29:30.242+0530][gc,cpu        ] GC(8) User=0.03s Sys=0.02s Real=0.02s
[2021-09-03T13:45:49.345+0530][gc,start      ] GC(9) Pause Young (Normal) (G1 Evacuation Pause)
[2021-09-03T13:45:49.347+0530][gc,task       ] GC(9) Using 4 workers of 4 for evacuation
[2021-09-03T13:45:49.354+0530][gc,phases     ] GC(9)   Pre Evacuate Collection Set: 0.0ms
[2021-09-03T13:45:49.354+0530][gc,phases     ] GC(9)   Evacuate Collection Set: 6.3ms
[2021-09-03T13:45:49.354+0530][gc,phases     ] GC(9)   Post Evacuate Collection Set: 0.3ms
[2021-09-03T13:45:49.354+0530][gc,phases     ] GC(9)   Other: 1.9ms
[2021-09-03T13:45:49.354+0530][gc,heap       ] GC(9) Eden regions: 48->0(48)
[2021-09-03T13:45:49.354+0530][gc,heap       ] GC(9) Survivor regions: 3->3(7)
[2021-09-03T13:45:49.354+0530][gc,heap       ] GC(9) Old regions: 16->16
[2021-09-03T13:45:49.354+0530][gc,heap       ] GC(9) Humongous regions: 129->129
[2021-09-03T13:45:49.354+0530][gc,metaspace  ] GC(9) Metaspace: 50489K->50489K(1095680K)
[2021-09-03T13:45:49.354+0530][gc            ] GC(9) Pause Young (Normal) (G1 Evacuation Pause) 195M->147M(1024M) 8.604ms
[2021-09-03T13:45:49.354+0530][gc,cpu        ] GC(9) User=0.02s Sys=0.00s Real=0.01s
[2021-09-03T14:01:27.233+0530][gc,start      ] GC(10) Pause Young (Normal) (G1 Evacuation Pause)
[2021-09-03T14:01:27.235+0530][gc,task       ] GC(10) Using 4 workers of 4 for evacuation
[2021-09-03T14:01:27.254+0530][gc,phases     ] GC(10)   Pre Evacuate Collection Set: 0.1ms
[2021-09-03T14:01:27.254+0530][gc,phases     ] GC(10)   Evacuate Collection Set: 18.4ms
[2021-09-03T14:01:27.254+0530][gc,phases     ] GC(10)   Post Evacuate Collection Set: 0.4ms
[2021-09-03T14:01:27.254+0530][gc,phases     ] GC(10)   Other: 1.7ms
[2021-09-03T14:01:27.254+0530][gc,heap       ] GC(10) Eden regions: 48->0(47)
[2021-09-03T14:01:27.254+0530][gc,heap       ] GC(10) Survivor regions: 3->4(7)
[2021-09-03T14:01:27.254+0530][gc,heap       ] GC(10) Old regions: 16->16
[2021-09-03T14:01:27.254+0530][gc,heap       ] GC(10) Humongous regions: 129->129
[2021-09-03T14:01:27.254+0530][gc,metaspace  ] GC(10) Metaspace: 50593K->50593K(1095680K)
[2021-09-03T14:01:27.254+0530][gc            ] GC(10) Pause Young (Normal) (G1 Evacuation Pause) 195M->147M(1024M) 20.669ms
[2021-09-03T14:01:27.254+0530][gc,cpu        ] GC(10) User=0.02s Sys=0.03s Real=0.02s
[2021-09-03T14:33:10.029+0530][gc,start      ] GC(11) Pause Young (Normal) (G1 Evacuation Pause)
[2021-09-03T14:33:10.030+0530][gc,task       ] GC(11) Using 4 workers of 4 for evacuation
[2021-09-03T14:33:10.055+0530][gc,mmu        ] GC(11) MMU target violated: 21.0ms (20.0ms/21.0ms)
[2021-09-03T14:33:10.055+0530][gc,phases     ] GC(11)   Pre Evacuate Collection Set: 1.5ms
[2021-09-03T14:33:10.055+0530][gc,phases     ] GC(11)   Evacuate Collection Set: 21.2ms
[2021-09-03T14:33:10.055+0530][gc,phases     ] GC(11)   Post Evacuate Collection Set: 1.3ms
[2021-09-03T14:33:10.055+0530][gc,phases     ] GC(11)   Other: 2.0ms
[2021-09-03T14:33:10.055+0530][gc,heap       ] GC(11) Eden regions: 47->0(47)
[2021-09-03T14:33:10.055+0530][gc,heap       ] GC(11) Survivor regions: 4->4(7)
[2021-09-03T14:33:10.055+0530][gc,heap       ] GC(11) Old regions: 16->16
[2021-09-03T14:33:10.055+0530][gc,heap       ] GC(11) Humongous regions: 129->129
[2021-09-03T14:33:10.055+0530][gc,metaspace  ] GC(11) Metaspace: 50621K->50621K(1095680K)
[2021-09-03T14:33:10.055+0530][gc            ] GC(11) Pause Young (Normal) (G1 Evacuation Pause) 194M->147M(1024M) 26.179ms
[2021-09-03T14:33:10.055+0530][gc,cpu        ] GC(11) User=0.03s Sys=0.03s Real=0.03s
[2021-09-03T14:55:01.803+0530][gc,start      ] GC(12) Pause Young (Normal) (G1 Evacuation Pause)
[2021-09-03T14:55:01.805+0530][gc,task       ] GC(12) Using 4 workers of 4 for evacuation
[2021-09-03T14:55:01.854+0530][gc,mmu        ] GC(12) MMU target violated: 21.0ms (20.0ms/21.0ms)
[2021-09-03T14:55:01.854+0530][gc,phases     ] GC(12)   Pre Evacuate Collection Set: 1.3ms
[2021-09-03T14:55:01.854+0530][gc,phases     ] GC(12)   Evacuate Collection Set: 46.5ms
[2021-09-03T14:55:01.854+0530][gc,phases     ] GC(12)   Post Evacuate Collection Set: 0.8ms
[2021-09-03T14:55:01.854+0530][gc,phases     ] GC(12)   Other: 2.3ms
[2021-09-03T14:55:01.854+0530][gc,heap       ] GC(12) Eden regions: 47->0(47)
[2021-09-03T14:55:01.854+0530][gc,heap       ] GC(12) Survivor regions: 4->4(7)
[2021-09-03T14:55:01.854+0530][gc,heap       ] GC(12) Old regions: 16->16
[2021-09-03T14:55:01.854+0530][gc,heap       ] GC(12) Humongous regions: 129->129
[2021-09-03T14:55:01.854+0530][gc,metaspace  ] GC(12) Metaspace: 50720K->50720K(1095680K)
[2021-09-03T14:55:01.854+0530][gc            ] GC(12) Pause Young (Normal) (G1 Evacuation Pause) 194M->148M(1024M) 50.988ms
[2021-09-03T14:55:01.854+0530][gc,cpu        ] GC(12) User=0.04s Sys=0.08s Real=0.05s
[2021-09-03T15:14:07.401+0530][gc,start      ] GC(13) Pause Young (Normal) (G1 Evacuation Pause)
[2021-09-03T15:14:07.402+0530][gc,task       ] GC(13) Using 4 workers of 4 for evacuation
[2021-09-03T15:14:07.417+0530][gc,phases     ] GC(13)   Pre Evacuate Collection Set: 1.2ms
[2021-09-03T15:14:07.417+0530][gc,phases     ] GC(13)   Evacuate Collection Set: 11.7ms
[2021-09-03T15:14:07.417+0530][gc,phases     ] GC(13)   Post Evacuate Collection Set: 1.5ms
[2021-09-03T15:14:07.417+0530][gc,phases     ] GC(13)   Other: 2.6ms
[2021-09-03T15:14:07.417+0530][gc,heap       ] GC(13) Eden regions: 47->0(48)
[2021-09-03T15:14:07.418+0530][gc,heap       ] GC(13) Survivor regions: 4->3(7)
[2021-09-03T15:14:07.418+0530][gc,heap       ] GC(13) Old regions: 16->16
[2021-09-03T15:14:07.418+0530][gc,heap       ] GC(13) Humongous regions: 129->129
[2021-09-03T15:14:07.418+0530][gc,metaspace  ] GC(13) Metaspace: 50743K->50743K(1095680K)
[2021-09-03T15:14:07.418+0530][gc            ] GC(13) Pause Young (Normal) (G1 Evacuation Pause) 195M->147M(1024M) 17.079ms
[2021-09-03T15:14:07.418+0530][gc,cpu        ] GC(13) User=0.02s Sys=0.02s Real=0.01s
[2021-09-03T16:53:03.293+0530][gc,start      ] GC(14) Pause Young (Normal) (G1 Evacuation Pause)
[2021-09-03T16:53:03.295+0530][gc,task       ] GC(14) Using 4 workers of 4 for evacuation
[2021-09-03T16:53:03.356+0530][gc,mmu        ] GC(14) MMU target violated: 21.0ms (20.0ms/21.0ms)
[2021-09-03T16:53:03.356+0530][gc,phases     ] GC(14)   Pre Evacuate Collection Set: 3.4ms
[2021-09-03T16:53:03.357+0530][gc,phases     ] GC(14)   Evacuate Collection Set: 43.8ms
[2021-09-03T16:53:03.357+0530][gc,phases     ] GC(14)   Post Evacuate Collection Set: 13.9ms
[2021-09-03T16:53:03.357+0530][gc,phases     ] GC(14)   Other: 2.5ms
[2021-09-03T16:53:03.357+0530][gc,heap       ] GC(14) Eden regions: 48->0(48)
[2021-09-03T16:53:03.357+0530][gc,heap       ] GC(14) Survivor regions: 3->3(7)
[2021-09-03T16:53:03.357+0530][gc,heap       ] GC(14) Old regions: 16->16
[2021-09-03T16:53:03.357+0530][gc,heap       ] GC(14) Humongous regions: 129->129
[2021-09-03T16:53:03.357+0530][gc,metaspace  ] GC(14) Metaspace: 50795K->50795K(1095680K)
[2021-09-03T16:53:03.357+0530][gc            ] GC(14) Pause Young (Normal) (G1 Evacuation Pause) 195M->147M(1024M) 63.940ms
[2021-09-03T16:53:03.357+0530][gc,cpu        ] GC(14) User=0.02s Sys=0.03s Real=0.06s
[2021-09-03T17:09:15.822+0530][gc,start      ] GC(15) Pause Young (Normal) (G1 Evacuation Pause)
[2021-09-03T17:09:15.823+0530][gc,task       ] GC(15) Using 4 workers of 4 for evacuation
[2021-09-03T17:09:15.870+0530][gc,mmu        ] GC(15) MMU target violated: 21.0ms (20.0ms/21.0ms)
[2021-09-03T17:09:15.870+0530][gc,phases     ] GC(15)   Pre Evacuate Collection Set: 3.1ms
[2021-09-03T17:09:15.870+0530][gc,phases     ] GC(15)   Evacuate Collection Set: 43.3ms
[2021-09-03T17:09:15.870+0530][gc,phases     ] GC(15)   Post Evacuate Collection Set: 0.3ms
[2021-09-03T17:09:15.870+0530][gc,phases     ] GC(15)   Other: 2.0ms
[2021-09-03T17:09:15.870+0530][gc,heap       ] GC(15) Eden regions: 48->0(46)
[2021-09-03T17:09:15.870+0530][gc,heap       ] GC(15) Survivor regions: 3->5(7)
[2021-09-03T17:09:15.870+0530][gc,heap       ] GC(15) Old regions: 16->16
[2021-09-03T17:09:15.870+0530][gc,heap       ] GC(15) Humongous regions: 129->129
[2021-09-03T17:09:15.870+0530][gc,metaspace  ] GC(15) Metaspace: 50798K->50798K(1095680K)
[2021-09-03T17:09:15.870+0530][gc            ] GC(15) Pause Young (Normal) (G1 Evacuation Pause) 195M->148M(1024M) 48.760ms
[2021-09-03T17:09:15.871+0530][gc,cpu        ] GC(15) User=0.03s Sys=0.06s Real=0.05s
[2021-09-03T17:23:18.477+0530][gc,start      ] GC(16) Pause Young (Normal) (G1 Evacuation Pause)
[2021-09-03T17:23:18.479+0530][gc,task       ] GC(16) Using 4 workers of 4 for evacuation
[2021-09-03T17:23:18.499+0530][gc,phases     ] GC(16)   Pre Evacuate Collection Set: 1.8ms
[2021-09-03T17:23:18.499+0530][gc,phases     ] GC(16)   Evacuate Collection Set: 16.8ms
[2021-09-03T17:23:18.499+0530][gc,phases     ] GC(16)   Post Evacuate Collection Set: 0.3ms
[2021-09-03T17:23:18.499+0530][gc,phases     ] GC(16)   Other: 2.6ms
[2021-09-03T17:23:18.499+0530][gc,heap       ] GC(16) Eden regions: 46->0(47)
[2021-09-03T17:23:18.499+0530][gc,heap       ] GC(16) Survivor regions: 5->4(7)
[2021-09-03T17:23:18.499+0530][gc,heap       ] GC(16) Old regions: 16->16
[2021-09-03T17:23:18.499+0530][gc,heap       ] GC(16) Humongous regions: 129->129
[2021-09-03T17:23:18.499+0530][gc,metaspace  ] GC(16) Metaspace: 50993K->50993K(1095680K)
[2021-09-03T17:23:18.499+0530][gc            ] GC(16) Pause Young (Normal) (G1 Evacuation Pause) 194M->148M(1024M) 21.541ms
[2021-09-03T17:23:18.499+0530][gc,cpu        ] GC(16) User=0.03s Sys=0.03s Real=0.02s
[2021-09-03T17:38:09.849+0530][gc,start      ] GC(17) Pause Young (Normal) (G1 Evacuation Pause)
[2021-09-03T17:38:09.850+0530][gc,task       ] GC(17) Using 4 workers of 4 for evacuation
[2021-09-03T17:38:09.873+0530][gc,mmu        ] GC(17) MMU target violated: 21.0ms (20.0ms/21.0ms)
[2021-09-03T17:38:09.873+0530][gc,phases     ] GC(17)   Pre Evacuate Collection Set: 1.5ms
[2021-09-03T17:38:09.873+0530][gc,phases     ] GC(17)   Evacuate Collection Set: 19.9ms
[2021-09-03T17:38:09.873+0530][gc,phases     ] GC(17)   Post Evacuate Collection Set: 0.3ms
[2021-09-03T17:38:09.873+0530][gc,phases     ] GC(17)   Other: 2.9ms
[2021-09-03T17:38:09.873+0530][gc,heap       ] GC(17) Eden regions: 47->0(47)
[2021-09-03T17:38:09.873+0530][gc,heap       ] GC(17) Survivor regions: 4->4(7)
[2021-09-03T17:38:09.873+0530][gc,heap       ] GC(17) Old regions: 16->16
[2021-09-03T17:38:09.873+0530][gc,heap       ] GC(17) Humongous regions: 129->129
[2021-09-03T17:38:09.873+0530][gc,metaspace  ] GC(17) Metaspace: 50995K->50995K(1095680K)
[2021-09-03T17:38:09.874+0530][gc            ] GC(17) Pause Young (Normal) (G1 Evacuation Pause) 195M->148M(1024M) 25.373ms
[2021-09-03T17:38:09.874+0530][gc,cpu        ] GC(17) User=0.02s Sys=0.03s Real=0.03s
[2021-09-03T17:53:54.849+0530][gc,start      ] GC(18) Pause Young (Normal) (G1 Evacuation Pause)
[2021-09-03T17:53:54.851+0530][gc,task       ] GC(18) Using 4 workers of 4 for evacuation
[2021-09-03T17:53:54.870+0530][gc,phases     ] GC(18)   Pre Evacuate Collection Set: 2.0ms
[2021-09-03T17:53:54.870+0530][gc,phases     ] GC(18)   Evacuate Collection Set: 16.4ms
[2021-09-03T17:53:54.870+0530][gc,phases     ] GC(18)   Post Evacuate Collection Set: 0.6ms
[2021-09-03T17:53:54.870+0530][gc,phases     ] GC(18)   Other: 2.2ms
[2021-09-03T17:53:54.871+0530][gc,heap       ] GC(18) Eden regions: 47->0(47)
[2021-09-03T17:53:54.871+0530][gc,heap       ] GC(18) Survivor regions: 4->4(7)
[2021-09-03T17:53:54.871+0530][gc,heap       ] GC(18) Old regions: 16->16
[2021-09-03T17:53:54.871+0530][gc,heap       ] GC(18) Humongous regions: 129->129
[2021-09-03T17:53:54.871+0530][gc,metaspace  ] GC(18) Metaspace: 51005K->51005K(1095680K)
[2021-09-03T17:53:54.871+0530][gc            ] GC(18) Pause Young (Normal) (G1 Evacuation Pause) 195M->148M(1024M) 21.370ms
[2021-09-03T17:53:54.871+0530][gc,cpu        ] GC(18) User=0.02s Sys=0.03s Real=0.03s
[2021-09-03T18:09:12.093+0530][gc,start      ] GC(19) Pause Young (Normal) (G1 Evacuation Pause)
[2021-09-03T18:09:12.094+0530][gc,task       ] GC(19) Using 4 workers of 4 for evacuation
[2021-09-03T18:09:12.111+0530][gc,phases     ] GC(19)   Pre Evacuate Collection Set: 1.3ms
[2021-09-03T18:09:12.111+0530][gc,phases     ] GC(19)   Evacuate Collection Set: 14.4ms
[2021-09-03T18:09:12.111+0530][gc,phases     ] GC(19)   Post Evacuate Collection Set: 0.3ms
[2021-09-03T18:09:12.111+0530][gc,phases     ] GC(19)   Other: 1.9ms
[2021-09-03T18:09:12.111+0530][gc,heap       ] GC(19) Eden regions: 47->0(47)
[2021-09-03T18:09:12.111+0530][gc,heap       ] GC(19) Survivor regions: 4->4(7)
[2021-09-03T18:09:12.111+0530][gc,heap       ] GC(19) Old regions: 16->16
[2021-09-03T18:09:12.111+0530][gc,heap       ] GC(19) Humongous regions: 129->129
[2021-09-03T18:09:12.111+0530][gc,metaspace  ] GC(19) Metaspace: 51009K->51009K(1095680K)
[2021-09-03T18:09:12.111+0530][gc            ] GC(19) Pause Young (Normal) (G1 Evacuation Pause) 195M->148M(1024M) 18.024ms
[2021-09-03T18:09:12.111+0530][gc,cpu        ] GC(19) User=0.02s Sys=0.02s Real=0.02s
[2021-09-03T18:24:58.789+0530][gc,start      ] GC(20) Pause Young (Normal) (G1 Evacuation Pause)
[2021-09-03T18:24:58.792+0530][gc,task       ] GC(20) Using 4 workers of 4 for evacuation
[2021-09-03T18:24:58.807+0530][gc,phases     ] GC(20)   Pre Evacuate Collection Set: 1.4ms
[2021-09-03T18:24:58.807+0530][gc,phases     ] GC(20)   Evacuate Collection Set: 13.2ms
[2021-09-03T18:24:58.807+0530][gc,phases     ] GC(20)   Post Evacuate Collection Set: 0.4ms
[2021-09-03T18:24:58.807+0530][gc,phases     ] GC(20)   Other: 3.3ms
[2021-09-03T18:24:58.807+0530][gc,heap       ] GC(20) Eden regions: 47->0(48)
[2021-09-03T18:24:58.808+0530][gc,heap       ] GC(20) Survivor regions: 4->3(7)
[2021-09-03T18:24:58.808+0530][gc,heap       ] GC(20) Old regions: 16->16
[2021-09-03T18:24:58.808+0530][gc,heap       ] GC(20) Humongous regions: 129->129
[2021-09-03T18:24:58.808+0530][gc,metaspace  ] GC(20) Metaspace: 51009K->51009K(1095680K)
[2021-09-03T18:24:58.808+0530][gc            ] GC(20) Pause Young (Normal) (G1 Evacuation Pause) 195M->147M(1024M) 18.358ms
[2021-09-03T18:24:58.808+0530][gc,cpu        ] GC(20) User=0.01s Sys=0.02s Real=0.02s
[2021-09-03T22:46:53.501+0530][gc,start      ] GC(21) Pause Young (Normal) (G1 Evacuation Pause)
[2021-09-03T22:46:53.502+0530][gc,task       ] GC(21) Using 4 workers of 4 for evacuation
[2021-09-03T22:46:53.524+0530][gc,mmu        ] GC(21) MMU target violated: 21.0ms (20.0ms/21.0ms)
[2021-09-03T22:46:53.524+0530][gc,phases     ] GC(21)   Pre Evacuate Collection Set: 1.1ms
[2021-09-03T22:46:53.524+0530][gc,phases     ] GC(21)   Evacuate Collection Set: 19.1ms
[2021-09-03T22:46:53.524+0530][gc,phases     ] GC(21)   Post Evacuate Collection Set: 0.4ms
[2021-09-03T22:46:53.524+0530][gc,phases     ] GC(21)   Other: 1.9ms
[2021-09-03T22:46:53.524+0530][gc,heap       ] GC(21) Eden regions: 48->0(48)
[2021-09-03T22:46:53.524+0530][gc,heap       ] GC(21) Survivor regions: 3->3(7)
[2021-09-03T22:46:53.524+0530][gc,heap       ] GC(21) Old regions: 16->16
[2021-09-03T22:46:53.524+0530][gc,heap       ] GC(21) Humongous regions: 129->129
[2021-09-03T22:46:53.524+0530][gc,metaspace  ] GC(21) Metaspace: 51015K->51015K(1095680K)
[2021-09-03T22:46:53.524+0530][gc            ] GC(21) Pause Young (Normal) (G1 Evacuation Pause) 195M->147M(1024M) 22.589ms
[2021-09-03T22:46:53.524+0530][gc,cpu        ] GC(21) User=0.02s Sys=0.05s Real=0.02s
[2021-09-03T22:47:12.750+0530][gc,heap,exit  ] Heap
[2021-09-03T22:47:12.751+0530][gc,heap,exit  ]  garbage-first heap   total 1048576K, used 161196K [0x00000007c0000000, 0x0000000800000000)
[2021-09-03T22:47:12.751+0530][gc,heap,exit  ]   region size 1024K, 14 young (14336K), 3 survivors (3072K)
[2021-09-03T22:47:12.751+0530][gc,heap,exit  ]  Metaspace       used 51828K, capacity 54754K, committed 55040K, reserved 1095680K
[2021-09-03T22:47:12.751+0530][gc,heap,exit  ]   class space    used 6490K, capacity 7878K, committed 7936K, reserved 1048576K
