[2021-10-06T12:01:36.119+0530][gc,heap] Heap region size: 1M
[2021-10-06T12:01:36.125+0530][gc     ] Using G1
[2021-10-06T12:01:36.125+0530][gc,heap,coops] Heap address: 0x00000007e0000000, size: 512 MB, Compressed Oops mode: Zero based, Oop shift amount: 3
[2021-10-06T12:01:41.075+0530][gc,start     ] GC(0) Pause Young (Normal) (G1 Evacuation Pause)
[2021-10-06T12:01:41.075+0530][gc,task      ] GC(0) Using 4 workers of 4 for evacuation
[2021-10-06T12:01:41.098+0530][gc,mmu       ] GC(0) MMU target violated: 21.0ms (20.0ms/21.0ms)
[2021-10-06T12:01:41.098+0530][gc,phases    ] GC(0)   Pre Evacuate Collection Set: 0.0ms
[2021-10-06T12:01:41.098+0530][gc,phases    ] GC(0)   Evacuate Collection Set: 22.6ms
[2021-10-06T12:01:41.098+0530][gc,phases    ] GC(0)   Post Evacuate Collection Set: 0.5ms
[2021-10-06T12:01:41.098+0530][gc,phases    ] GC(0)   Other: 0.5ms
[2021-10-06T12:01:41.098+0530][gc,heap      ] GC(0) Eden regions: 25->0(21)
[2021-10-06T12:01:41.098+0530][gc,heap      ] GC(0) Survivor regions: 0->4(4)
[2021-10-06T12:01:41.098+0530][gc,heap      ] GC(0) Old regions: 0->2
[2021-10-06T12:01:41.098+0530][gc,heap      ] GC(0) Humongous regions: 0->0
[2021-10-06T12:01:41.098+0530][gc,metaspace ] GC(0) Metaspace: 15260K->15260K(1062912K)
[2021-10-06T12:01:41.098+0530][gc           ] GC(0) Pause Young (Normal) (G1 Evacuation Pause) 25M->5M(512M) 23.846ms
[2021-10-06T12:01:41.099+0530][gc,cpu       ] GC(0) User=0.01s Sys=0.00s Real=0.02s
[2021-10-06T12:13:22.931+0530][gc,heap,exit ] Heap
[2021-10-06T12:13:22.932+0530][gc,heap,exit ]  garbage-first heap   total 524288K, used 11210K [0x00000007e0000000, 0x0000000800000000)
[2021-10-06T12:13:22.932+0530][gc,heap,exit ]   region size 1024K, 10 young (10240K), 4 survivors (4096K)
[2021-10-06T12:13:22.932+0530][gc,heap,exit ]  Metaspace       used 15852K, capacity 16121K, committed 16384K, reserved 1064960K
[2021-10-06T12:13:22.932+0530][gc,heap,exit ]   class space    used 1590K, capacity 1710K, committed 1792K, reserved 1048576K
