[2021-09-03T12:55:20.711+0530][gc,heap] Heap region size: 1M
[2021-09-03T12:55:20.721+0530][gc     ] Using G1
[2021-09-03T12:55:20.721+0530][gc,heap,coops] Heap address: 0x00000007e0000000, size: 512 MB, Compressed Oops mode: Zero based, Oop shift amount: 3
[2021-09-03T12:55:23.808+0530][gc,start     ] GC(0) Pause Young (Normal) (G1 Evacuation Pause)
[2021-09-03T12:55:23.808+0530][gc,task      ] GC(0) Using 4 workers of 4 for evacuation
[2021-09-03T12:55:23.816+0530][gc,phases    ] GC(0)   Pre Evacuate Collection Set: 0.0ms
[2021-09-03T12:55:23.816+0530][gc,phases    ] GC(0)   Evacuate Collection Set: 7.8ms
[2021-09-03T12:55:23.816+0530][gc,phases    ] GC(0)   Post Evacuate Collection Set: 0.5ms
[2021-09-03T12:55:23.817+0530][gc,phases    ] GC(0)   Other: 0.3ms
[2021-09-03T12:55:23.817+0530][gc,heap      ] GC(0) Eden regions: 25->0(21)
[2021-09-03T12:55:23.817+0530][gc,heap      ] GC(0) Survivor regions: 0->4(4)
[2021-09-03T12:55:23.817+0530][gc,heap      ] GC(0) Old regions: 0->3
[2021-09-03T12:55:23.817+0530][gc,heap      ] GC(0) Humongous regions: 0->0
[2021-09-03T12:55:23.817+0530][gc,metaspace ] GC(0) Metaspace: 15364K->15364K(1062912K)
[2021-09-03T12:55:23.817+0530][gc           ] GC(0) Pause Young (Normal) (G1 Evacuation Pause) 25M->6M(512M) 8.981ms
[2021-09-03T12:55:23.817+0530][gc,cpu       ] GC(0) User=0.02s Sys=0.01s Real=0.01s
[2021-09-04T10:37:34.659+0530][gc,heap,exit ] Heap
[2021-09-04T10:37:34.661+0530][gc,heap,exit ]  garbage-first heap   total 524288K, used 26954K [0x00000007e0000000, 0x0000000800000000)
[2021-09-04T10:37:34.661+0530][gc,heap,exit ]   region size 1024K, 25 young (25600K), 4 survivors (4096K)
[2021-09-04T10:37:34.661+0530][gc,heap,exit ]  Metaspace       used 16095K, capacity 16378K, committed 16640K, reserved 1064960K
[2021-09-04T10:37:34.661+0530][gc,heap,exit ]   class space    used 1588K, capacity 1710K, committed 1792K, reserved 1048576K
