[2021-09-05T20:14:22.417+0530][gc,heap] Heap region size: 1M
[2021-09-05T20:14:22.421+0530][gc     ] Using G1
[2021-09-05T20:14:22.421+0530][gc,heap,coops] Heap address: 0x00000007e0000000, size: 512 MB, Compressed Oops mode: Zero based, Oop shift amount: 3
[2021-09-05T20:14:28.535+0530][gc,start     ] GC(0) Pause Young (Normal) (G1 Evacuation Pause)
[2021-09-05T20:14:28.535+0530][gc,task      ] GC(0) Using 4 workers of 4 for evacuation
[2021-09-05T20:14:28.545+0530][gc,phases    ] GC(0)   Pre Evacuate Collection Set: 0.0ms
[2021-09-05T20:14:28.545+0530][gc,phases    ] GC(0)   Evacuate Collection Set: 9.7ms
[2021-09-05T20:14:28.545+0530][gc,phases    ] GC(0)   Post Evacuate Collection Set: 0.3ms
[2021-09-05T20:14:28.545+0530][gc,phases    ] GC(0)   Other: 0.5ms
[2021-09-05T20:14:28.545+0530][gc,heap      ] GC(0) Eden regions: 25->0(21)
[2021-09-05T20:14:28.545+0530][gc,heap      ] GC(0) Survivor regions: 0->4(4)
[2021-09-05T20:14:28.545+0530][gc,heap      ] GC(0) Old regions: 0->2
[2021-09-05T20:14:28.545+0530][gc,heap      ] GC(0) Humongous regions: 0->0
[2021-09-05T20:14:28.545+0530][gc,metaspace ] GC(0) Metaspace: 15313K->15313K(1062912K)
[2021-09-05T20:14:28.545+0530][gc           ] GC(0) Pause Young (Normal) (G1 Evacuation Pause) 25M->5M(512M) 10.655ms
[2021-09-05T20:14:28.545+0530][gc,cpu       ] GC(0) User=0.02s Sys=0.01s Real=0.01s
[2021-09-05T20:41:15.380+0530][gc,heap,exit ] Heap
[2021-09-05T20:41:15.381+0530][gc,heap,exit ]  garbage-first heap   total 524288K, used 12150K [0x00000007e0000000, 0x0000000800000000)
[2021-09-05T20:41:15.381+0530][gc,heap,exit ]   region size 1024K, 11 young (11264K), 4 survivors (4096K)
[2021-09-05T20:41:15.381+0530][gc,heap,exit ]  Metaspace       used 15995K, capacity 16314K, committed 16640K, reserved 1064960K
[2021-09-05T20:41:15.381+0530][gc,heap,exit ]   class space    used 1588K, capacity 1710K, committed 1792K, reserved 1048576K
