[2021-09-24T12:08:31.572+0530][gc,heap] Heap region size: 1M
[2021-09-24T12:08:31.577+0530][gc     ] Using G1
[2021-09-24T12:08:31.577+0530][gc,heap,coops] Heap address: 0x00000007e0000000, size: 512 MB, Compressed Oops mode: Zero based, Oop shift amount: 3
[2021-09-24T12:08:39.485+0530][gc,start     ] GC(0) Pause Young (Normal) (G1 Evacuation Pause)
[2021-09-24T12:08:39.487+0530][gc,task      ] GC(0) Using 4 workers of 4 for evacuation
[2021-09-24T12:08:39.500+0530][gc,phases    ] GC(0)   Pre Evacuate Collection Set: 0.0ms
[2021-09-24T12:08:39.500+0530][gc,phases    ] GC(0)   Evacuate Collection Set: 12.2ms
[2021-09-24T12:08:39.500+0530][gc,phases    ] GC(0)   Post Evacuate Collection Set: 0.4ms
[2021-09-24T12:08:39.500+0530][gc,phases    ] GC(0)   Other: 2.7ms
[2021-09-24T12:08:39.500+0530][gc,heap      ] GC(0) Eden regions: 25->0(21)
[2021-09-24T12:08:39.500+0530][gc,heap      ] GC(0) Survivor regions: 0->4(4)
[2021-09-24T12:08:39.500+0530][gc,heap      ] GC(0) Old regions: 0->3
[2021-09-24T12:08:39.500+0530][gc,heap      ] GC(0) Humongous regions: 0->0
[2021-09-24T12:08:39.500+0530][gc,metaspace ] GC(0) Metaspace: 15385K->15385K(1062912K)
[2021-09-24T12:08:39.500+0530][gc           ] GC(0) Pause Young (Normal) (G1 Evacuation Pause) 25M->6M(512M) 15.416ms
[2021-09-24T12:08:39.500+0530][gc,cpu       ] GC(0) User=0.03s Sys=0.01s Real=0.02s
[2021-09-27T11:27:57.135+0530][gc,start     ] GC(1) Pause Young (Normal) (G1 Evacuation Pause)
[2021-09-27T11:27:57.137+0530][gc,task      ] GC(1) Using 4 workers of 4 for evacuation
[2021-09-27T11:27:57.373+0530][gc,mmu       ] GC(1) MMU target violated: 21.0ms (20.0ms/21.0ms)
[2021-09-27T11:27:57.373+0530][gc,phases    ] GC(1)   Pre Evacuate Collection Set: 6.4ms
[2021-09-27T11:27:57.373+0530][gc,phases    ] GC(1)   Evacuate Collection Set: 223.1ms
[2021-09-27T11:27:57.373+0530][gc,phases    ] GC(1)   Post Evacuate Collection Set: 2.0ms
[2021-09-27T11:27:57.373+0530][gc,phases    ] GC(1)   Other: 8.2ms
[2021-09-27T11:27:57.373+0530][gc,heap      ] GC(1) Eden regions: 21->0(24)
[2021-09-27T11:27:57.373+0530][gc,heap      ] GC(1) Survivor regions: 4->1(4)
[2021-09-27T11:27:57.373+0530][gc,heap      ] GC(1) Old regions: 3->6
[2021-09-27T11:27:57.373+0530][gc,heap      ] GC(1) Humongous regions: 0->0
[2021-09-27T11:27:57.373+0530][gc,metaspace ] GC(1) Metaspace: 16110K->16110K(1064960K)
[2021-09-27T11:27:57.373+0530][gc           ] GC(1) Pause Young (Normal) (G1 Evacuation Pause) 27M->6M(512M) 238.415ms
[2021-09-27T11:27:57.373+0530][gc,cpu       ] GC(1) User=0.02s Sys=0.15s Real=0.24s
[2021-09-28T13:16:09.279+0530][gc,start     ] GC(2) Pause Young (Normal) (G1 Evacuation Pause)
[2021-09-28T13:16:09.282+0530][gc,task      ] GC(2) Using 4 workers of 4 for evacuation
[2021-09-28T13:16:09.390+0530][gc,mmu       ] GC(2) MMU target violated: 21.0ms (20.0ms/21.0ms)
[2021-09-28T13:16:09.400+0530][gc,phases    ] GC(2)   Pre Evacuate Collection Set: 12.9ms
[2021-09-28T13:16:09.400+0530][gc,phases    ] GC(2)   Evacuate Collection Set: 86.8ms
[2021-09-28T13:16:09.400+0530][gc,phases    ] GC(2)   Post Evacuate Collection Set: 1.3ms
[2021-09-28T13:16:09.400+0530][gc,phases    ] GC(2)   Other: 23.3ms
[2021-09-28T13:16:09.400+0530][gc,heap      ] GC(2) Eden regions: 24->0(24)
[2021-09-28T13:16:09.400+0530][gc,heap      ] GC(2) Survivor regions: 1->1(4)
[2021-09-28T13:16:09.400+0530][gc,heap      ] GC(2) Old regions: 6->6
[2021-09-28T13:16:09.400+0530][gc,heap      ] GC(2) Humongous regions: 0->0
[2021-09-28T13:16:09.400+0530][gc,metaspace ] GC(2) Metaspace: 16118K->16118K(1064960K)
[2021-09-28T13:16:09.401+0530][gc           ] GC(2) Pause Young (Normal) (G1 Evacuation Pause) 30M->6M(512M) 122.794ms
[2021-09-28T13:16:09.401+0530][gc,cpu       ] GC(2) User=0.07s Sys=0.10s Real=0.13s
[2021-09-28T23:08:23.123+0530][gc,heap,exit ] Heap
[2021-09-28T23:08:23.123+0530][gc,heap,exit ]  garbage-first heap   total 524288K, used 16667K [0x00000007e0000000, 0x0000000800000000)
[2021-09-28T23:08:23.123+0530][gc,heap,exit ]   region size 1024K, 12 young (12288K), 1 survivors (1024K)
[2021-09-28T23:08:23.123+0530][gc,heap,exit ]  Metaspace       used 16130K, capacity 16442K, committed 16896K, reserved 1064960K
[2021-09-28T23:08:23.123+0530][gc,heap,exit ]   class space    used 1589K, capacity 1710K, committed 1792K, reserved 1048576K
